<?xml version="1.0" encoding="iso-8859-1"  standalone="no"?>
<!DOCTYPE svg PUBLIC "-//W3C//DTD SVG 1.1//EN"
 "http://www.w3.org/Graphics/SVG/1.1/DTD/svg11.dtd">
<svg 
 width="1300" height="900"
 viewBox="0 0 1300 900"
 xmlns="http://www.w3.org/2000/svg"
 xmlns:xlink="http://www.w3.org/1999/xlink"
>

<title>Gnuplot</title>
<desc>Produced by GNUPLOT 5.0 patchlevel 3 </desc>

<g id="gnuplot_canvas">

<rect x="0" y="0" width="1300" height="900" fill="none"/>
<defs>

	<circle id='gpDot' r='0.5' stroke-width='0.5'/>
	<path id='gpPt0' stroke-width='0.121' stroke='currentColor' d='M-1,0 h2 M0,-1 v2'/>
	<path id='gpPt1' stroke-width='0.121' stroke='currentColor' d='M-1,-1 L1,1 M1,-1 L-1,1'/>
	<path id='gpPt2' stroke-width='0.121' stroke='currentColor' d='M-1,0 L1,0 M0,-1 L0,1 M-1,-1 L1,1 M-1,1 L1,-1'/>
	<rect id='gpPt3' stroke-width='0.121' stroke='currentColor' x='-1' y='-1' width='2' height='2'/>
	<rect id='gpPt4' stroke-width='0.121' stroke='currentColor' fill='currentColor' x='-1' y='-1' width='2' height='2'/>
	<circle id='gpPt5' stroke-width='0.121' stroke='currentColor' cx='0' cy='0' r='1'/>
	<use xlink:href='#gpPt5' id='gpPt6' fill='currentColor' stroke='none'/>
	<path id='gpPt7' stroke-width='0.121' stroke='currentColor' d='M0,-1.33 L-1.33,0.67 L1.33,0.67 z'/>
	<use xlink:href='#gpPt7' id='gpPt8' fill='currentColor' stroke='none'/>
	<use xlink:href='#gpPt7' id='gpPt9' stroke='currentColor' transform='rotate(180)'/>
	<use xlink:href='#gpPt9' id='gpPt10' fill='currentColor' stroke='none'/>
	<use xlink:href='#gpPt3' id='gpPt11' stroke='currentColor' transform='rotate(45)'/>
	<use xlink:href='#gpPt11' id='gpPt12' fill='currentColor' stroke='none'/>
	<path id='gpPt13' stroke-width='0.121' stroke='currentColor' d='M0,1.330 L1.265,0.411 L0.782,-1.067 L-0.782,-1.076 L-1.265,0.411 z'/>
	<use xlink:href='#gpPt13' id='gpPt14' fill='currentColor' stroke='none'/>
	<filter id='textbox' filterUnits='objectBoundingBox' x='0' y='0' height='1' width='1'>
	  <feFlood flood-color='white' flood-opacity='1' result='bgnd'/>
	  <feComposite in='SourceGraphic' in2='bgnd' operator='atop'/>
	</filter>
	<filter id='greybox' filterUnits='objectBoundingBox' x='0' y='0' height='1' width='1'>
	  <feFlood flood-color='lightgrey' flood-opacity='1' result='grey'/>
	  <feComposite in='SourceGraphic' in2='grey' operator='atop'/>
	</filter>
</defs>
<g fill="none" color="white" stroke="currentColor" stroke-width="1.00" stroke-linecap="butt" stroke-linejoin="miter">
</g>
<g fill="none" color="black" stroke="currentColor" stroke-width="1.00" stroke-linecap="butt" stroke-linejoin="miter">
</g>
<g fill="none" color="gray" stroke="currentColor" stroke-width="1.00" stroke-linecap="butt" stroke-linejoin="miter">
	<path stroke='rgb(175, 175, 175)' stroke-dasharray='2,4' class="gridline"  d='M133.1,794.4 L1021.6,794.4  '/></g>
<g fill="none" color="black" stroke="currentColor" stroke-width="1.00" stroke-linecap="butt" stroke-linejoin="miter">
	<path stroke='black'  d='M133.1,794.4 L149.6,794.4 M1021.6,794.4 L1005.1,794.4  '/>	<g transform="translate(117.7,802.6)" stroke="none" fill="black" font-family="Times New Roman" font-size="22.00"  text-anchor="end">
		<text><tspan font-family="Times New Roman" >-1</tspan></text>
	</g>
</g>
<g fill="none" color="black" stroke="currentColor" stroke-width="1.00" stroke-linecap="butt" stroke-linejoin="miter">
</g>
<g fill="none" color="gray" stroke="currentColor" stroke-width="1.00" stroke-linecap="butt" stroke-linejoin="miter">
	<path stroke='rgb(175, 175, 175)' stroke-dasharray='2,4' class="gridline"  d='M133.1,603.5 L1021.6,603.5  '/></g>
<g fill="none" color="black" stroke="currentColor" stroke-width="1.00" stroke-linecap="butt" stroke-linejoin="miter">
	<path stroke='black'  d='M133.1,603.5 L149.6,603.5 M1021.6,603.5 L1005.1,603.5  '/>	<g transform="translate(117.7,611.7)" stroke="none" fill="black" font-family="Times New Roman" font-size="22.00"  text-anchor="end">
		<text><tspan font-family="Times New Roman" >-0.5</tspan></text>
	</g>
</g>
<g fill="none" color="black" stroke="currentColor" stroke-width="1.00" stroke-linecap="butt" stroke-linejoin="miter">
</g>
<g fill="none" color="gray" stroke="currentColor" stroke-width="1.00" stroke-linecap="butt" stroke-linejoin="miter">
	<path stroke='rgb(175, 175, 175)' stroke-dasharray='2,4' class="gridline"  d='M133.1,412.6 L1021.6,412.6  '/></g>
<g fill="none" color="black" stroke="currentColor" stroke-width="1.00" stroke-linecap="butt" stroke-linejoin="miter">
	<path stroke='black'  d='M133.1,412.6 L149.6,412.6 M1021.6,412.6 L1005.1,412.6  '/>	<g transform="translate(117.7,420.8)" stroke="none" fill="black" font-family="Times New Roman" font-size="22.00"  text-anchor="end">
		<text><tspan font-family="Times New Roman" > 0</tspan></text>
	</g>
</g>
<g fill="none" color="black" stroke="currentColor" stroke-width="1.00" stroke-linecap="butt" stroke-linejoin="miter">
</g>
<g fill="none" color="gray" stroke="currentColor" stroke-width="1.00" stroke-linecap="butt" stroke-linejoin="miter">
	<path stroke='rgb(175, 175, 175)' stroke-dasharray='2,4' class="gridline"  d='M133.1,221.8 L1021.6,221.8  '/></g>
<g fill="none" color="black" stroke="currentColor" stroke-width="1.00" stroke-linecap="butt" stroke-linejoin="miter">
	<path stroke='black'  d='M133.1,221.8 L149.6,221.8 M1021.6,221.8 L1005.1,221.8  '/>	<g transform="translate(117.7,230.0)" stroke="none" fill="black" font-family="Times New Roman" font-size="22.00"  text-anchor="end">
		<text><tspan font-family="Times New Roman" > 0.5</tspan></text>
	</g>
</g>
<g fill="none" color="black" stroke="currentColor" stroke-width="1.00" stroke-linecap="butt" stroke-linejoin="miter">
</g>
<g fill="none" color="gray" stroke="currentColor" stroke-width="1.00" stroke-linecap="butt" stroke-linejoin="miter">
	<path stroke='rgb(175, 175, 175)' stroke-dasharray='2,4' class="gridline"  d='M133.1,30.9 L1021.6,30.9  '/></g>
<g fill="none" color="black" stroke="currentColor" stroke-width="1.00" stroke-linecap="butt" stroke-linejoin="miter">
	<path stroke='black'  d='M133.1,30.9 L149.6,30.9 M1021.6,30.9 L1005.1,30.9  '/>	<g transform="translate(117.7,39.1)" stroke="none" fill="black" font-family="Times New Roman" font-size="22.00"  text-anchor="end">
		<text><tspan font-family="Times New Roman" > 1</tspan></text>
	</g>
</g>
<g fill="none" color="black" stroke="currentColor" stroke-width="1.00" stroke-linecap="butt" stroke-linejoin="miter">
</g>
<g fill="none" color="gray" stroke="currentColor" stroke-width="1.00" stroke-linecap="butt" stroke-linejoin="miter">
	<path stroke='rgb(175, 175, 175)' stroke-dasharray='2,4' class="gridline"  d='M133.1,794.4 L133.1,30.9  '/></g>
<g fill="none" color="black" stroke="currentColor" stroke-width="1.00" stroke-linecap="butt" stroke-linejoin="miter">
	<path stroke='black'  d='M133.1,794.4 L133.1,777.9 M133.1,30.9 L133.1,47.4  '/>	<g transform="translate(133.1,835.6)" stroke="none" fill="black" font-family="Times New Roman" font-size="22.00"  text-anchor="middle">
		<text><tspan font-family="Times New Roman" > 0</tspan></text>
	</g>
</g>
<g fill="none" color="black" stroke="currentColor" stroke-width="1.00" stroke-linecap="butt" stroke-linejoin="miter">
</g>
<g fill="none" color="gray" stroke="currentColor" stroke-width="1.00" stroke-linecap="butt" stroke-linejoin="miter">
	<path stroke='rgb(175, 175, 175)' stroke-dasharray='2,4' class="gridline"  d='M281.2,794.4 L281.2,30.9  '/></g>
<g fill="none" color="black" stroke="currentColor" stroke-width="1.00" stroke-linecap="butt" stroke-linejoin="miter">
	<path stroke='black'  d='M281.2,794.4 L281.2,777.9 M281.2,30.9 L281.2,47.4  '/>	<g transform="translate(281.2,835.6)" stroke="none" fill="black" font-family="Times New Roman" font-size="22.00"  text-anchor="middle">
		<text><tspan font-family="Times New Roman" > 2</tspan></text>
	</g>
</g>
<g fill="none" color="black" stroke="currentColor" stroke-width="1.00" stroke-linecap="butt" stroke-linejoin="miter">
</g>
<g fill="none" color="gray" stroke="currentColor" stroke-width="1.00" stroke-linecap="butt" stroke-linejoin="miter">
	<path stroke='rgb(175, 175, 175)' stroke-dasharray='2,4' class="gridline"  d='M429.3,794.4 L429.3,30.9  '/></g>
<g fill="none" color="black" stroke="currentColor" stroke-width="1.00" stroke-linecap="butt" stroke-linejoin="miter">
	<path stroke='black'  d='M429.3,794.4 L429.3,777.9 M429.3,30.9 L429.3,47.4  '/>	<g transform="translate(429.3,835.6)" stroke="none" fill="black" font-family="Times New Roman" font-size="22.00"  text-anchor="middle">
		<text><tspan font-family="Times New Roman" > 4</tspan></text>
	</g>
</g>
<g fill="none" color="black" stroke="currentColor" stroke-width="1.00" stroke-linecap="butt" stroke-linejoin="miter">
</g>
<g fill="none" color="gray" stroke="currentColor" stroke-width="1.00" stroke-linecap="butt" stroke-linejoin="miter">
	<path stroke='rgb(175, 175, 175)' stroke-dasharray='2,4' class="gridline"  d='M577.4,794.4 L577.4,30.9  '/></g>
<g fill="none" color="black" stroke="currentColor" stroke-width="1.00" stroke-linecap="butt" stroke-linejoin="miter">
	<path stroke='black'  d='M577.4,794.4 L577.4,777.9 M577.4,30.9 L577.4,47.4  '/>	<g transform="translate(577.4,835.6)" stroke="none" fill="black" font-family="Times New Roman" font-size="22.00"  text-anchor="middle">
		<text><tspan font-family="Times New Roman" > 6</tspan></text>
	</g>
</g>
<g fill="none" color="black" stroke="currentColor" stroke-width="1.00" stroke-linecap="butt" stroke-linejoin="miter">
</g>
<g fill="none" color="gray" stroke="currentColor" stroke-width="1.00" stroke-linecap="butt" stroke-linejoin="miter">
	<path stroke='rgb(175, 175, 175)' stroke-dasharray='2,4' class="gridline"  d='M725.4,794.4 L725.4,30.9  '/></g>
<g fill="none" color="black" stroke="currentColor" stroke-width="1.00" stroke-linecap="butt" stroke-linejoin="miter">
	<path stroke='black'  d='M725.4,794.4 L725.4,777.9 M725.4,30.9 L725.4,47.4  '/>	<g transform="translate(725.4,835.6)" stroke="none" fill="black" font-family="Times New Roman" font-size="22.00"  text-anchor="middle">
		<text><tspan font-family="Times New Roman" > 8</tspan></text>
	</g>
</g>
<g fill="none" color="black" stroke="currentColor" stroke-width="1.00" stroke-linecap="butt" stroke-linejoin="miter">
</g>
<g fill="none" color="gray" stroke="currentColor" stroke-width="1.00" stroke-linecap="butt" stroke-linejoin="miter">
	<path stroke='rgb(175, 175, 175)' stroke-dasharray='2,4' class="gridline"  d='M873.5,794.4 L873.5,30.9  '/></g>
<g fill="none" color="black" stroke="currentColor" stroke-width="1.00" stroke-linecap="butt" stroke-linejoin="miter">
	<path stroke='black'  d='M873.5,794.4 L873.5,777.9 M873.5,30.9 L873.5,47.4  '/>	<g transform="translate(873.5,835.6)" stroke="none" fill="black" font-family="Times New Roman" font-size="22.00"  text-anchor="middle">
		<text><tspan font-family="Times New Roman" > 10</tspan></text>
	</g>
</g>
<g fill="none" color="black" stroke="currentColor" stroke-width="1.00" stroke-linecap="butt" stroke-linejoin="miter">
</g>
<g fill="none" color="gray" stroke="currentColor" stroke-width="1.00" stroke-linecap="butt" stroke-linejoin="miter">
	<path stroke='rgb(175, 175, 175)' stroke-dasharray='2,4' class="gridline"  d='M1021.6,794.4 L1021.6,30.9  '/></g>
<g fill="none" color="black" stroke="currentColor" stroke-width="1.00" stroke-linecap="butt" stroke-linejoin="miter">
	<path stroke='black'  d='M1021.6,794.4 L1021.6,777.9 M1021.6,30.9 L1021.6,47.4  '/>	<g transform="translate(1021.6,835.6)" stroke="none" fill="black" font-family="Times New Roman" font-size="22.00"  text-anchor="middle">
		<text><tspan font-family="Times New Roman" > 12</tspan></text>
	</g>
</g>
<g fill="none" color="black" stroke="currentColor" stroke-width="1.00" stroke-linecap="butt" stroke-linejoin="miter">
</g>
<g fill="none" color="black" stroke="currentColor" stroke-width="1.00" stroke-linecap="butt" stroke-linejoin="miter">
	<path stroke='black'  d='M133.1,30.9 L133.1,794.4 L1021.6,794.4 L1021.6,30.9 L133.1,30.9 Z  '/></g>
<g fill="none" color="black" stroke="currentColor" stroke-width="1.00" stroke-linecap="butt" stroke-linejoin="miter">
	<g transform="translate(32.4,412.7) rotate(270)" stroke="none" fill="black" font-family="Times New Roman" font-size="22.00"  text-anchor="middle">
		<text><tspan font-family="Times New Roman" >HTMV</tspan></text>
	</g>
</g>
<g fill="none" color="black" stroke="currentColor" stroke-width="1.00" stroke-linecap="butt" stroke-linejoin="miter">
	<g transform="translate(577.3,885.1)" stroke="none" fill="black" font-family="Times New Roman" font-size="22.00"  text-anchor="middle">
		<text><tspan font-family="Times New Roman" >Time / s</tspan></text>
	</g>
</g>
<g fill="none" color="black" stroke="currentColor" stroke-width="1.00" stroke-linecap="butt" stroke-linejoin="miter">
</g>
	<g id="gnuplot_plot_1" ><title>Value 1</title>
<g fill="none" color="black" stroke="currentColor" stroke-width="1.00" stroke-linecap="butt" stroke-linejoin="miter">
	<g transform="translate(1175.6,55.6)" stroke="none" fill="black" font-family="Times New Roman" font-size="22.00"  text-anchor="end">
		<text><tspan font-family="Times New Roman" >Value 1</tspan></text>
	</g>
</g>
<g fill="none" color="black" stroke="currentColor" stroke-width="1.00" stroke-linecap="butt" stroke-linejoin="miter">
	<path stroke='rgb(148,   0, 211)'  d='M1191.0,47.4 L1269.1,47.4 M133.1,30.9 L207.1,30.9 L281.2,30.9 L355.2,30.9 L429.3,30.9 L503.3,30.9
		L577.4,30.9 L651.4,30.9 L725.4,30.9 L799.5,30.9 L873.5,30.9 L947.6,30.9  '/>	<use xlink:href='#gpPt0' transform='translate(133.1,30.9) scale(8.25)' color='rgb(148,   0, 211)'/>
	<use xlink:href='#gpPt0' transform='translate(207.1,30.9) scale(8.25)' color='rgb(148,   0, 211)'/>
	<use xlink:href='#gpPt0' transform='translate(281.2,30.9) scale(8.25)' color='rgb(148,   0, 211)'/>
	<use xlink:href='#gpPt0' transform='translate(355.2,30.9) scale(8.25)' color='rgb(148,   0, 211)'/>
	<use xlink:href='#gpPt0' transform='translate(429.3,30.9) scale(8.25)' color='rgb(148,   0, 211)'/>
	<use xlink:href='#gpPt0' transform='translate(503.3,30.9) scale(8.25)' color='rgb(148,   0, 211)'/>
	<use xlink:href='#gpPt0' transform='translate(577.4,30.9) scale(8.25)' color='rgb(148,   0, 211)'/>
	<use xlink:href='#gpPt0' transform='translate(651.4,30.9) scale(8.25)' color='rgb(148,   0, 211)'/>
	<use xlink:href='#gpPt0' transform='translate(725.4,30.9) scale(8.25)' color='rgb(148,   0, 211)'/>
	<use xlink:href='#gpPt0' transform='translate(799.5,30.9) scale(8.25)' color='rgb(148,   0, 211)'/>
	<use xlink:href='#gpPt0' transform='translate(873.5,30.9) scale(8.25)' color='rgb(148,   0, 211)'/>
	<use xlink:href='#gpPt0' transform='translate(947.6,30.9) scale(8.25)' color='rgb(148,   0, 211)'/>
	<use xlink:href='#gpPt0' transform='translate(1230.0,47.4) scale(8.25)' color='rgb(148,   0, 211)'/>
</g>
	</g>
	<g id="gnuplot_plot_2" ><title>Value 2</title>
<g fill="none" color="black" stroke="currentColor" stroke-width="1.00" stroke-linecap="butt" stroke-linejoin="miter">
	<g transform="translate(1175.6,88.6)" stroke="none" fill="black" font-family="Times New Roman" font-size="22.00"  text-anchor="end">
		<text><tspan font-family="Times New Roman" >Value 2</tspan></text>
	</g>
</g>
<g fill="none" color="black" stroke="currentColor" stroke-width="1.00" stroke-linecap="butt" stroke-linejoin="miter">
	<path stroke='rgb(  0, 158, 115)'  d='M1191.0,80.4 L1269.1,80.4 M133.1,412.7 L207.1,412.7 L281.2,412.7 L355.2,412.7 L429.3,412.7 L503.3,412.7
		L577.4,412.7 L651.4,412.7 L725.4,412.7 L799.5,412.7 L873.5,412.7 L947.6,412.7  '/>	<use xlink:href='#gpPt1' transform='translate(133.1,412.7) scale(8.25)' color='rgb(  0, 158, 115)'/>
	<use xlink:href='#gpPt1' transform='translate(207.1,412.7) scale(8.25)' color='rgb(  0, 158, 115)'/>
	<use xlink:href='#gpPt1' transform='translate(281.2,412.7) scale(8.25)' color='rgb(  0, 158, 115)'/>
	<use xlink:href='#gpPt1' transform='translate(355.2,412.7) scale(8.25)' color='rgb(  0, 158, 115)'/>
	<use xlink:href='#gpPt1' transform='translate(429.3,412.7) scale(8.25)' color='rgb(  0, 158, 115)'/>
	<use xlink:href='#gpPt1' transform='translate(503.3,412.7) scale(8.25)' color='rgb(  0, 158, 115)'/>
	<use xlink:href='#gpPt1' transform='translate(577.4,412.7) scale(8.25)' color='rgb(  0, 158, 115)'/>
	<use xlink:href='#gpPt1' transform='translate(651.4,412.7) scale(8.25)' color='rgb(  0, 158, 115)'/>
	<use xlink:href='#gpPt1' transform='translate(725.4,412.7) scale(8.25)' color='rgb(  0, 158, 115)'/>
	<use xlink:href='#gpPt1' transform='translate(799.5,412.7) scale(8.25)' color='rgb(  0, 158, 115)'/>
	<use xlink:href='#gpPt1' transform='translate(873.5,412.7) scale(8.25)' color='rgb(  0, 158, 115)'/>
	<use xlink:href='#gpPt1' transform='translate(947.6,412.7) scale(8.25)' color='rgb(  0, 158, 115)'/>
	<use xlink:href='#gpPt1' transform='translate(1230.0,80.4) scale(8.25)' color='rgb(  0, 158, 115)'/>
</g>
	</g>
	<g id="gnuplot_plot_3" ><title>Value 3</title>
<g fill="none" color="black" stroke="currentColor" stroke-width="1.00" stroke-linecap="butt" stroke-linejoin="miter">
	<g transform="translate(1175.6,121.6)" stroke="none" fill="black" font-family="Times New Roman" font-size="22.00"  text-anchor="end">
		<text><tspan font-family="Times New Roman" >Value 3</tspan></text>
	</g>
</g>
<g fill="none" color="black" stroke="currentColor" stroke-width="1.00" stroke-linecap="butt" stroke-linejoin="miter">
	<path stroke='rgb( 86, 180, 233)'  d='M1191.0,113.4 L1269.1,113.4 M133.1,412.6 L207.1,412.6 L281.2,412.6 L355.2,412.6 L429.3,412.6 L503.3,412.6
		L577.4,412.6 L651.4,412.6 L725.4,412.6 L799.5,412.6 L873.5,412.6 L947.6,412.6  '/>	<use xlink:href='#gpPt2' transform='translate(133.1,412.6) scale(8.25)' color='rgb( 86, 180, 233)'/>
	<use xlink:href='#gpPt2' transform='translate(207.1,412.6) scale(8.25)' color='rgb( 86, 180, 233)'/>
	<use xlink:href='#gpPt2' transform='translate(281.2,412.6) scale(8.25)' color='rgb( 86, 180, 233)'/>
	<use xlink:href='#gpPt2' transform='translate(355.2,412.6) scale(8.25)' color='rgb( 86, 180, 233)'/>
	<use xlink:href='#gpPt2' transform='translate(429.3,412.6) scale(8.25)' color='rgb( 86, 180, 233)'/>
	<use xlink:href='#gpPt2' transform='translate(503.3,412.6) scale(8.25)' color='rgb( 86, 180, 233)'/>
	<use xlink:href='#gpPt2' transform='translate(577.4,412.6) scale(8.25)' color='rgb( 86, 180, 233)'/>
	<use xlink:href='#gpPt2' transform='translate(651.4,412.6) scale(8.25)' color='rgb( 86, 180, 233)'/>
	<use xlink:href='#gpPt2' transform='translate(725.4,412.6) scale(8.25)' color='rgb( 86, 180, 233)'/>
	<use xlink:href='#gpPt2' transform='translate(799.5,412.6) scale(8.25)' color='rgb( 86, 180, 233)'/>
	<use xlink:href='#gpPt2' transform='translate(873.5,412.6) scale(8.25)' color='rgb( 86, 180, 233)'/>
	<use xlink:href='#gpPt2' transform='translate(947.6,412.6) scale(8.25)' color='rgb( 86, 180, 233)'/>
	<use xlink:href='#gpPt2' transform='translate(1230.0,113.4) scale(8.25)' color='rgb( 86, 180, 233)'/>
</g>
	</g>
	<g id="gnuplot_plot_4" ><title>Value 4</title>
<g fill="none" color="black" stroke="currentColor" stroke-width="1.00" stroke-linecap="butt" stroke-linejoin="miter">
	<g transform="translate(1175.6,154.6)" stroke="none" fill="black" font-family="Times New Roman" font-size="22.00"  text-anchor="end">
		<text><tspan font-family="Times New Roman" >Value 4</tspan></text>
	</g>
</g>
<g fill="none" color="black" stroke="currentColor" stroke-width="1.00" stroke-linecap="butt" stroke-linejoin="miter">
	<path stroke='rgb(230, 159,   0)'  d='M1191.0,146.4 L1269.1,146.4 M133.1,412.6 L207.1,412.6 L281.2,412.6 L355.2,412.6 L429.3,412.6 L503.3,412.6
		L577.4,412.6 L651.4,412.6 L725.4,412.6 L799.5,412.6 L873.5,412.6 L947.6,412.6  '/>	<use xlink:href='#gpPt3' transform='translate(133.1,412.6) scale(8.25)' color='rgb(230, 159,   0)'/>
	<use xlink:href='#gpPt3' transform='translate(207.1,412.6) scale(8.25)' color='rgb(230, 159,   0)'/>
	<use xlink:href='#gpPt3' transform='translate(281.2,412.6) scale(8.25)' color='rgb(230, 159,   0)'/>
	<use xlink:href='#gpPt3' transform='translate(355.2,412.6) scale(8.25)' color='rgb(230, 159,   0)'/>
	<use xlink:href='#gpPt3' transform='translate(429.3,412.6) scale(8.25)' color='rgb(230, 159,   0)'/>
	<use xlink:href='#gpPt3' transform='translate(503.3,412.6) scale(8.25)' color='rgb(230, 159,   0)'/>
	<use xlink:href='#gpPt3' transform='translate(577.4,412.6) scale(8.25)' color='rgb(230, 159,   0)'/>
	<use xlink:href='#gpPt3' transform='translate(651.4,412.6) scale(8.25)' color='rgb(230, 159,   0)'/>
	<use xlink:href='#gpPt3' transform='translate(725.4,412.6) scale(8.25)' color='rgb(230, 159,   0)'/>
	<use xlink:href='#gpPt3' transform='translate(799.5,412.6) scale(8.25)' color='rgb(230, 159,   0)'/>
	<use xlink:href='#gpPt3' transform='translate(873.5,412.6) scale(8.25)' color='rgb(230, 159,   0)'/>
	<use xlink:href='#gpPt3' transform='translate(947.6,412.6) scale(8.25)' color='rgb(230, 159,   0)'/>
	<use xlink:href='#gpPt3' transform='translate(1230.0,146.4) scale(8.25)' color='rgb(230, 159,   0)'/>
</g>
	</g>
	<g id="gnuplot_plot_5" ><title>Value 5</title>
<g fill="none" color="black" stroke="currentColor" stroke-width="1.00" stroke-linecap="butt" stroke-linejoin="miter">
	<g transform="translate(1175.6,187.6)" stroke="none" fill="black" font-family="Times New Roman" font-size="22.00"  text-anchor="end">
		<text><tspan font-family="Times New Roman" >Value 5</tspan></text>
	</g>
</g>
<g fill="none" color="black" stroke="currentColor" stroke-width="1.00" stroke-linecap="butt" stroke-linejoin="miter">
	<path stroke='rgb(240, 228,  66)'  d='M1191.0,179.4 L1269.1,179.4 M133.1,412.7 L207.1,412.7 L281.2,412.7 L355.2,412.7 L429.3,412.7 L503.3,412.7
		L577.4,412.7 L651.4,412.7 L725.4,412.7 L799.5,412.7 L873.5,412.7 L947.6,412.7  '/>	<use xlink:href='#gpPt4' transform='translate(133.1,412.7) scale(8.25)' color='rgb(240, 228,  66)'/>
	<use xlink:href='#gpPt4' transform='translate(207.1,412.7) scale(8.25)' color='rgb(240, 228,  66)'/>
	<use xlink:href='#gpPt4' transform='translate(281.2,412.7) scale(8.25)' color='rgb(240, 228,  66)'/>
	<use xlink:href='#gpPt4' transform='translate(355.2,412.7) scale(8.25)' color='rgb(240, 228,  66)'/>
	<use xlink:href='#gpPt4' transform='translate(429.3,412.7) scale(8.25)' color='rgb(240, 228,  66)'/>
	<use xlink:href='#gpPt4' transform='translate(503.3,412.7) scale(8.25)' color='rgb(240, 228,  66)'/>
	<use xlink:href='#gpPt4' transform='translate(577.4,412.7) scale(8.25)' color='rgb(240, 228,  66)'/>
	<use xlink:href='#gpPt4' transform='translate(651.4,412.7) scale(8.25)' color='rgb(240, 228,  66)'/>
	<use xlink:href='#gpPt4' transform='translate(725.4,412.7) scale(8.25)' color='rgb(240, 228,  66)'/>
	<use xlink:href='#gpPt4' transform='translate(799.5,412.7) scale(8.25)' color='rgb(240, 228,  66)'/>
	<use xlink:href='#gpPt4' transform='translate(873.5,412.7) scale(8.25)' color='rgb(240, 228,  66)'/>
	<use xlink:href='#gpPt4' transform='translate(947.6,412.7) scale(8.25)' color='rgb(240, 228,  66)'/>
	<use xlink:href='#gpPt4' transform='translate(1230.0,179.4) scale(8.25)' color='rgb(240, 228,  66)'/>
</g>
	</g>
	<g id="gnuplot_plot_6" ><title>Value 6</title>
<g fill="none" color="black" stroke="currentColor" stroke-width="1.00" stroke-linecap="butt" stroke-linejoin="miter">
	<g transform="translate(1175.6,220.6)" stroke="none" fill="black" font-family="Times New Roman" font-size="22.00"  text-anchor="end">
		<text><tspan font-family="Times New Roman" >Value 6</tspan></text>
	</g>
</g>
<g fill="none" color="black" stroke="currentColor" stroke-width="1.00" stroke-linecap="butt" stroke-linejoin="miter">
	<path stroke='rgb(  0, 114, 178)'  d='M1191.0,212.4 L1269.1,212.4 M133.1,794.4 L207.1,794.4 L281.2,794.4 L355.2,794.4 L429.3,794.4 L503.3,794.4
		L577.4,794.4 L651.4,794.4 L725.4,794.4 L799.5,794.4 L873.5,794.4 L947.6,794.4  '/>	<use xlink:href='#gpPt5' transform='translate(133.1,794.4) scale(8.25)' color='rgb(  0, 114, 178)'/>
	<use xlink:href='#gpPt5' transform='translate(207.1,794.4) scale(8.25)' color='rgb(  0, 114, 178)'/>
	<use xlink:href='#gpPt5' transform='translate(281.2,794.4) scale(8.25)' color='rgb(  0, 114, 178)'/>
	<use xlink:href='#gpPt5' transform='translate(355.2,794.4) scale(8.25)' color='rgb(  0, 114, 178)'/>
	<use xlink:href='#gpPt5' transform='translate(429.3,794.4) scale(8.25)' color='rgb(  0, 114, 178)'/>
	<use xlink:href='#gpPt5' transform='translate(503.3,794.4) scale(8.25)' color='rgb(  0, 114, 178)'/>
	<use xlink:href='#gpPt5' transform='translate(577.4,794.4) scale(8.25)' color='rgb(  0, 114, 178)'/>
	<use xlink:href='#gpPt5' transform='translate(651.4,794.4) scale(8.25)' color='rgb(  0, 114, 178)'/>
	<use xlink:href='#gpPt5' transform='translate(725.4,794.4) scale(8.25)' color='rgb(  0, 114, 178)'/>
	<use xlink:href='#gpPt5' transform='translate(799.5,794.4) scale(8.25)' color='rgb(  0, 114, 178)'/>
	<use xlink:href='#gpPt5' transform='translate(873.5,794.4) scale(8.25)' color='rgb(  0, 114, 178)'/>
	<use xlink:href='#gpPt5' transform='translate(947.6,794.4) scale(8.25)' color='rgb(  0, 114, 178)'/>
	<use xlink:href='#gpPt5' transform='translate(1230.0,212.4) scale(8.25)' color='rgb(  0, 114, 178)'/>
</g>
	</g>
	<g id="gnuplot_plot_7" ><title>Value 7</title>
<g fill="none" color="black" stroke="currentColor" stroke-width="1.00" stroke-linecap="butt" stroke-linejoin="miter">
	<g transform="translate(1175.6,253.6)" stroke="none" fill="black" font-family="Times New Roman" font-size="22.00"  text-anchor="end">
		<text><tspan font-family="Times New Roman" >Value 7</tspan></text>
	</g>
</g>
<g fill="none" color="black" stroke="currentColor" stroke-width="1.00" stroke-linecap="butt" stroke-linejoin="miter">
	<path stroke='rgb(229,  30,  16)'  d='M1191.0,245.4 L1269.1,245.4 M133.1,412.6 L207.1,412.6 L281.2,412.6 L355.2,412.6 L429.3,412.6 L503.3,412.6
		L577.4,412.6 L651.4,412.6 L725.4,412.6 L799.5,412.6 L873.5,412.6 L947.6,412.7  '/>	<use xlink:href='#gpPt6' transform='translate(133.1,412.6) scale(8.25)' color='rgb(229,  30,  16)'/>
	<use xlink:href='#gpPt6' transform='translate(207.1,412.6) scale(8.25)' color='rgb(229,  30,  16)'/>
	<use xlink:href='#gpPt6' transform='translate(281.2,412.6) scale(8.25)' color='rgb(229,  30,  16)'/>
	<use xlink:href='#gpPt6' transform='translate(355.2,412.6) scale(8.25)' color='rgb(229,  30,  16)'/>
	<use xlink:href='#gpPt6' transform='translate(429.3,412.6) scale(8.25)' color='rgb(229,  30,  16)'/>
	<use xlink:href='#gpPt6' transform='translate(503.3,412.6) scale(8.25)' color='rgb(229,  30,  16)'/>
	<use xlink:href='#gpPt6' transform='translate(577.4,412.6) scale(8.25)' color='rgb(229,  30,  16)'/>
	<use xlink:href='#gpPt6' transform='translate(651.4,412.6) scale(8.25)' color='rgb(229,  30,  16)'/>
	<use xlink:href='#gpPt6' transform='translate(725.4,412.6) scale(8.25)' color='rgb(229,  30,  16)'/>
	<use xlink:href='#gpPt6' transform='translate(799.5,412.6) scale(8.25)' color='rgb(229,  30,  16)'/>
	<use xlink:href='#gpPt6' transform='translate(873.5,412.6) scale(8.25)' color='rgb(229,  30,  16)'/>
	<use xlink:href='#gpPt6' transform='translate(947.6,412.7) scale(8.25)' color='rgb(229,  30,  16)'/>
	<use xlink:href='#gpPt6' transform='translate(1230.0,245.4) scale(8.25)' color='rgb(229,  30,  16)'/>
</g>
	</g>
	<g id="gnuplot_plot_8" ><title>Value 8</title>
<g fill="none" color="black" stroke="currentColor" stroke-width="1.00" stroke-linecap="butt" stroke-linejoin="miter">
	<g transform="translate(1175.6,286.6)" stroke="none" fill="black" font-family="Times New Roman" font-size="22.00"  text-anchor="end">
		<text><tspan font-family="Times New Roman" >Value 8</tspan></text>
	</g>
</g>
<g fill="none" color="black" stroke="currentColor" stroke-width="1.00" stroke-linecap="butt" stroke-linejoin="miter">
	<path stroke='rgb(  0,   0,   0)'  d='M1191.0,278.4 L1269.1,278.4 M133.1,412.6 L207.1,412.6 L281.2,412.6 L355.2,412.6 L429.3,412.6 L503.3,412.6
		L577.4,412.6 L651.4,412.6 L725.4,412.6 L799.5,412.6 L873.5,412.6 L947.6,412.6  '/>	<use xlink:href='#gpPt7' transform='translate(133.1,412.6) scale(8.25)' color='rgb(  0,   0,   0)'/>
	<use xlink:href='#gpPt7' transform='translate(207.1,412.6) scale(8.25)' color='rgb(  0,   0,   0)'/>
	<use xlink:href='#gpPt7' transform='translate(281.2,412.6) scale(8.25)' color='rgb(  0,   0,   0)'/>
	<use xlink:href='#gpPt7' transform='translate(355.2,412.6) scale(8.25)' color='rgb(  0,   0,   0)'/>
	<use xlink:href='#gpPt7' transform='translate(429.3,412.6) scale(8.25)' color='rgb(  0,   0,   0)'/>
	<use xlink:href='#gpPt7' transform='translate(503.3,412.6) scale(8.25)' color='rgb(  0,   0,   0)'/>
	<use xlink:href='#gpPt7' transform='translate(577.4,412.6) scale(8.25)' color='rgb(  0,   0,   0)'/>
	<use xlink:href='#gpPt7' transform='translate(651.4,412.6) scale(8.25)' color='rgb(  0,   0,   0)'/>
	<use xlink:href='#gpPt7' transform='translate(725.4,412.6) scale(8.25)' color='rgb(  0,   0,   0)'/>
	<use xlink:href='#gpPt7' transform='translate(799.5,412.6) scale(8.25)' color='rgb(  0,   0,   0)'/>
	<use xlink:href='#gpPt7' transform='translate(873.5,412.6) scale(8.25)' color='rgb(  0,   0,   0)'/>
	<use xlink:href='#gpPt7' transform='translate(947.6,412.6) scale(8.25)' color='rgb(  0,   0,   0)'/>
	<use xlink:href='#gpPt7' transform='translate(1230.0,278.4) scale(8.25)' color='rgb(  0,   0,   0)'/>
</g>
	</g>
	<g id="gnuplot_plot_9" ><title>Value 9</title>
<g fill="none" color="black" stroke="currentColor" stroke-width="1.00" stroke-linecap="butt" stroke-linejoin="miter">
	<g transform="translate(1175.6,319.6)" stroke="none" fill="black" font-family="Times New Roman" font-size="22.00"  text-anchor="end">
		<text><tspan font-family="Times New Roman" >Value 9</tspan></text>
	</g>
</g>
<g fill="none" color="black" stroke="currentColor" stroke-width="1.00" stroke-linecap="butt" stroke-linejoin="miter">
	<path stroke='rgb(148,   0, 211)'  d='M1191.0,311.4 L1269.1,311.4 M133.1,412.6 L207.1,412.6 L281.2,412.6 L355.2,412.6 L429.3,412.6 L503.3,412.6
		L577.4,412.6 L651.4,412.6 L725.4,412.6 L799.5,412.6 L873.5,412.6 L947.6,412.6  '/>	<use xlink:href='#gpPt8' transform='translate(133.1,412.6) scale(8.25)' color='rgb(148,   0, 211)'/>
	<use xlink:href='#gpPt8' transform='translate(207.1,412.6) scale(8.25)' color='rgb(148,   0, 211)'/>
	<use xlink:href='#gpPt8' transform='translate(281.2,412.6) scale(8.25)' color='rgb(148,   0, 211)'/>
	<use xlink:href='#gpPt8' transform='translate(355.2,412.6) scale(8.25)' color='rgb(148,   0, 211)'/>
	<use xlink:href='#gpPt8' transform='translate(429.3,412.6) scale(8.25)' color='rgb(148,   0, 211)'/>
	<use xlink:href='#gpPt8' transform='translate(503.3,412.6) scale(8.25)' color='rgb(148,   0, 211)'/>
	<use xlink:href='#gpPt8' transform='translate(577.4,412.6) scale(8.25)' color='rgb(148,   0, 211)'/>
	<use xlink:href='#gpPt8' transform='translate(651.4,412.6) scale(8.25)' color='rgb(148,   0, 211)'/>
	<use xlink:href='#gpPt8' transform='translate(725.4,412.6) scale(8.25)' color='rgb(148,   0, 211)'/>
	<use xlink:href='#gpPt8' transform='translate(799.5,412.6) scale(8.25)' color='rgb(148,   0, 211)'/>
	<use xlink:href='#gpPt8' transform='translate(873.5,412.6) scale(8.25)' color='rgb(148,   0, 211)'/>
	<use xlink:href='#gpPt8' transform='translate(947.6,412.6) scale(8.25)' color='rgb(148,   0, 211)'/>
	<use xlink:href='#gpPt8' transform='translate(1230.0,311.4) scale(8.25)' color='rgb(148,   0, 211)'/>
</g>
	</g>
	<g id="gnuplot_plot_10" ><title>Value 10</title>
<g fill="none" color="black" stroke="currentColor" stroke-width="1.00" stroke-linecap="butt" stroke-linejoin="miter">
	<g transform="translate(1175.6,352.6)" stroke="none" fill="black" font-family="Times New Roman" font-size="22.00"  text-anchor="end">
		<text><tspan font-family="Times New Roman" >Value 10</tspan></text>
	</g>
</g>
<g fill="none" color="black" stroke="currentColor" stroke-width="1.00" stroke-linecap="butt" stroke-linejoin="miter">
	<path stroke='rgb(  0, 158, 115)'  d='M1191.0,344.4 L1269.1,344.4 M133.1,412.7 L207.1,412.7 L281.2,412.7 L355.2,412.7 L429.3,412.7 L503.3,412.7
		L577.4,412.7 L651.4,412.7 L725.4,412.7 L799.5,412.7 L873.5,412.7 L947.6,412.6  '/>	<use xlink:href='#gpPt9' transform='translate(133.1,412.7) scale(8.25)' color='rgb(  0, 158, 115)'/>
	<use xlink:href='#gpPt9' transform='translate(207.1,412.7) scale(8.25)' color='rgb(  0, 158, 115)'/>
	<use xlink:href='#gpPt9' transform='translate(281.2,412.7) scale(8.25)' color='rgb(  0, 158, 115)'/>
	<use xlink:href='#gpPt9' transform='translate(355.2,412.7) scale(8.25)' color='rgb(  0, 158, 115)'/>
	<use xlink:href='#gpPt9' transform='translate(429.3,412.7) scale(8.25)' color='rgb(  0, 158, 115)'/>
	<use xlink:href='#gpPt9' transform='translate(503.3,412.7) scale(8.25)' color='rgb(  0, 158, 115)'/>
	<use xlink:href='#gpPt9' transform='translate(577.4,412.7) scale(8.25)' color='rgb(  0, 158, 115)'/>
	<use xlink:href='#gpPt9' transform='translate(651.4,412.7) scale(8.25)' color='rgb(  0, 158, 115)'/>
	<use xlink:href='#gpPt9' transform='translate(725.4,412.7) scale(8.25)' color='rgb(  0, 158, 115)'/>
	<use xlink:href='#gpPt9' transform='translate(799.5,412.7) scale(8.25)' color='rgb(  0, 158, 115)'/>
	<use xlink:href='#gpPt9' transform='translate(873.5,412.7) scale(8.25)' color='rgb(  0, 158, 115)'/>
	<use xlink:href='#gpPt9' transform='translate(947.6,412.6) scale(8.25)' color='rgb(  0, 158, 115)'/>
	<use xlink:href='#gpPt9' transform='translate(1230.0,344.4) scale(8.25)' color='rgb(  0, 158, 115)'/>
</g>
	</g>
	<g id="gnuplot_plot_11" ><title>Value 11</title>
<g fill="none" color="black" stroke="currentColor" stroke-width="1.00" stroke-linecap="butt" stroke-linejoin="miter">
	<g transform="translate(1175.6,385.6)" stroke="none" fill="black" font-family="Times New Roman" font-size="22.00"  text-anchor="end">
		<text><tspan font-family="Times New Roman" >Value 11</tspan></text>
	</g>
</g>
<g fill="none" color="black" stroke="currentColor" stroke-width="1.00" stroke-linecap="butt" stroke-linejoin="miter">
	<path stroke='rgb( 86, 180, 233)'  d='M1191.0,377.4 L1269.1,377.4 M133.1,794.4 L207.1,794.4 L281.2,794.4 L355.2,794.4 L429.3,794.4 L503.3,794.4
		L577.4,794.4 L651.4,794.4 L725.4,794.4 L799.5,794.4 L873.5,794.4 L947.6,794.4  '/>	<use xlink:href='#gpPt10' transform='translate(133.1,794.4) scale(8.25)' color='rgb( 86, 180, 233)'/>
	<use xlink:href='#gpPt10' transform='translate(207.1,794.4) scale(8.25)' color='rgb( 86, 180, 233)'/>
	<use xlink:href='#gpPt10' transform='translate(281.2,794.4) scale(8.25)' color='rgb( 86, 180, 233)'/>
	<use xlink:href='#gpPt10' transform='translate(355.2,794.4) scale(8.25)' color='rgb( 86, 180, 233)'/>
	<use xlink:href='#gpPt10' transform='translate(429.3,794.4) scale(8.25)' color='rgb( 86, 180, 233)'/>
	<use xlink:href='#gpPt10' transform='translate(503.3,794.4) scale(8.25)' color='rgb( 86, 180, 233)'/>
	<use xlink:href='#gpPt10' transform='translate(577.4,794.4) scale(8.25)' color='rgb( 86, 180, 233)'/>
	<use xlink:href='#gpPt10' transform='translate(651.4,794.4) scale(8.25)' color='rgb( 86, 180, 233)'/>
	<use xlink:href='#gpPt10' transform='translate(725.4,794.4) scale(8.25)' color='rgb( 86, 180, 233)'/>
	<use xlink:href='#gpPt10' transform='translate(799.5,794.4) scale(8.25)' color='rgb( 86, 180, 233)'/>
	<use xlink:href='#gpPt10' transform='translate(873.5,794.4) scale(8.25)' color='rgb( 86, 180, 233)'/>
	<use xlink:href='#gpPt10' transform='translate(947.6,794.4) scale(8.25)' color='rgb( 86, 180, 233)'/>
	<use xlink:href='#gpPt10' transform='translate(1230.0,377.4) scale(8.25)' color='rgb( 86, 180, 233)'/>
</g>
	</g>
	<g id="gnuplot_plot_12" ><title>Value 12</title>
<g fill="none" color="black" stroke="currentColor" stroke-width="1.00" stroke-linecap="butt" stroke-linejoin="miter">
	<g transform="translate(1175.6,418.6)" stroke="none" fill="black" font-family="Times New Roman" font-size="22.00"  text-anchor="end">
		<text><tspan font-family="Times New Roman" >Value 12</tspan></text>
	</g>
</g>
<g fill="none" color="black" stroke="currentColor" stroke-width="1.00" stroke-linecap="butt" stroke-linejoin="miter">
	<path stroke='rgb(230, 159,   0)'  d='M1191.0,410.4 L1269.1,410.4 M133.1,412.6 L207.1,412.6 L281.2,412.6 L355.2,412.6 L429.3,412.6 L503.3,412.6
		L577.4,412.6 L651.4,412.6 L725.4,412.6 L799.5,412.6 L873.5,412.6 L947.6,412.6  '/>	<use xlink:href='#gpPt11' transform='translate(133.1,412.6) scale(8.25)' color='rgb(230, 159,   0)'/>
	<use xlink:href='#gpPt11' transform='translate(207.1,412.6) scale(8.25)' color='rgb(230, 159,   0)'/>
	<use xlink:href='#gpPt11' transform='translate(281.2,412.6) scale(8.25)' color='rgb(230, 159,   0)'/>
	<use xlink:href='#gpPt11' transform='translate(355.2,412.6) scale(8.25)' color='rgb(230, 159,   0)'/>
	<use xlink:href='#gpPt11' transform='translate(429.3,412.6) scale(8.25)' color='rgb(230, 159,   0)'/>
	<use xlink:href='#gpPt11' transform='translate(503.3,412.6) scale(8.25)' color='rgb(230, 159,   0)'/>
	<use xlink:href='#gpPt11' transform='translate(577.4,412.6) scale(8.25)' color='rgb(230, 159,   0)'/>
	<use xlink:href='#gpPt11' transform='translate(651.4,412.6) scale(8.25)' color='rgb(230, 159,   0)'/>
	<use xlink:href='#gpPt11' transform='translate(725.4,412.6) scale(8.25)' color='rgb(230, 159,   0)'/>
	<use xlink:href='#gpPt11' transform='translate(799.5,412.6) scale(8.25)' color='rgb(230, 159,   0)'/>
	<use xlink:href='#gpPt11' transform='translate(873.5,412.6) scale(8.25)' color='rgb(230, 159,   0)'/>
	<use xlink:href='#gpPt11' transform='translate(947.6,412.6) scale(8.25)' color='rgb(230, 159,   0)'/>
	<use xlink:href='#gpPt11' transform='translate(1230.0,410.4) scale(8.25)' color='rgb(230, 159,   0)'/>
</g>
	</g>
	<g id="gnuplot_plot_13" ><title>Value 13</title>
<g fill="none" color="black" stroke="currentColor" stroke-width="1.00" stroke-linecap="butt" stroke-linejoin="miter">
	<g transform="translate(1175.6,451.6)" stroke="none" fill="black" font-family="Times New Roman" font-size="22.00"  text-anchor="end">
		<text><tspan font-family="Times New Roman" >Value 13</tspan></text>
	</g>
</g>
<g fill="none" color="black" stroke="currentColor" stroke-width="1.00" stroke-linecap="butt" stroke-linejoin="miter">
	<path stroke='rgb(240, 228,  66)'  d='M1191.0,443.4 L1269.1,443.4 M133.1,295.5 L207.1,295.5 L281.2,295.5 L355.2,295.5 L429.3,295.5 L503.3,295.5
		L577.4,295.5 L651.4,295.5 L725.4,295.5 L799.5,295.5 L873.5,295.5 L947.6,295.5  '/>	<use xlink:href='#gpPt12' transform='translate(133.1,295.5) scale(8.25)' color='rgb(240, 228,  66)'/>
	<use xlink:href='#gpPt12' transform='translate(207.1,295.5) scale(8.25)' color='rgb(240, 228,  66)'/>
	<use xlink:href='#gpPt12' transform='translate(281.2,295.5) scale(8.25)' color='rgb(240, 228,  66)'/>
	<use xlink:href='#gpPt12' transform='translate(355.2,295.5) scale(8.25)' color='rgb(240, 228,  66)'/>
	<use xlink:href='#gpPt12' transform='translate(429.3,295.5) scale(8.25)' color='rgb(240, 228,  66)'/>
	<use xlink:href='#gpPt12' transform='translate(503.3,295.5) scale(8.25)' color='rgb(240, 228,  66)'/>
	<use xlink:href='#gpPt12' transform='translate(577.4,295.5) scale(8.25)' color='rgb(240, 228,  66)'/>
	<use xlink:href='#gpPt12' transform='translate(651.4,295.5) scale(8.25)' color='rgb(240, 228,  66)'/>
	<use xlink:href='#gpPt12' transform='translate(725.4,295.5) scale(8.25)' color='rgb(240, 228,  66)'/>
	<use xlink:href='#gpPt12' transform='translate(799.5,295.5) scale(8.25)' color='rgb(240, 228,  66)'/>
	<use xlink:href='#gpPt12' transform='translate(873.5,295.5) scale(8.25)' color='rgb(240, 228,  66)'/>
	<use xlink:href='#gpPt12' transform='translate(947.6,295.5) scale(8.25)' color='rgb(240, 228,  66)'/>
	<use xlink:href='#gpPt12' transform='translate(1230.0,443.4) scale(8.25)' color='rgb(240, 228,  66)'/>
</g>
	</g>
	<g id="gnuplot_plot_14" ><title>Value 14</title>
<g fill="none" color="black" stroke="currentColor" stroke-width="1.00" stroke-linecap="butt" stroke-linejoin="miter">
	<g transform="translate(1175.6,484.6)" stroke="none" fill="black" font-family="Times New Roman" font-size="22.00"  text-anchor="end">
		<text><tspan font-family="Times New Roman" >Value 14</tspan></text>
	</g>
</g>
<g fill="none" color="black" stroke="currentColor" stroke-width="1.00" stroke-linecap="butt" stroke-linejoin="miter">
	<path stroke='rgb(  0, 114, 178)'  d='M1191.0,476.4 L1269.1,476.4 M133.1,412.7 L207.1,412.7 L281.2,412.7 L355.2,412.7 L429.3,412.7 L503.3,412.7
		L577.4,412.7 L651.4,412.7 L725.4,412.7 L799.5,412.6 L873.5,412.6 L947.6,412.6  '/>	<use xlink:href='#gpPt13' transform='translate(133.1,412.7) scale(8.25)' color='rgb(  0, 114, 178)'/>
	<use xlink:href='#gpPt13' transform='translate(207.1,412.7) scale(8.25)' color='rgb(  0, 114, 178)'/>
	<use xlink:href='#gpPt13' transform='translate(281.2,412.7) scale(8.25)' color='rgb(  0, 114, 178)'/>
	<use xlink:href='#gpPt13' transform='translate(355.2,412.7) scale(8.25)' color='rgb(  0, 114, 178)'/>
	<use xlink:href='#gpPt13' transform='translate(429.3,412.7) scale(8.25)' color='rgb(  0, 114, 178)'/>
	<use xlink:href='#gpPt13' transform='translate(503.3,412.7) scale(8.25)' color='rgb(  0, 114, 178)'/>
	<use xlink:href='#gpPt13' transform='translate(577.4,412.7) scale(8.25)' color='rgb(  0, 114, 178)'/>
	<use xlink:href='#gpPt13' transform='translate(651.4,412.7) scale(8.25)' color='rgb(  0, 114, 178)'/>
	<use xlink:href='#gpPt13' transform='translate(725.4,412.7) scale(8.25)' color='rgb(  0, 114, 178)'/>
	<use xlink:href='#gpPt13' transform='translate(799.5,412.6) scale(8.25)' color='rgb(  0, 114, 178)'/>
	<use xlink:href='#gpPt13' transform='translate(873.5,412.6) scale(8.25)' color='rgb(  0, 114, 178)'/>
	<use xlink:href='#gpPt13' transform='translate(947.6,412.6) scale(8.25)' color='rgb(  0, 114, 178)'/>
	<use xlink:href='#gpPt13' transform='translate(1230.0,476.4) scale(8.25)' color='rgb(  0, 114, 178)'/>
</g>
	</g>
	<g id="gnuplot_plot_15" ><title>Value 15</title>
<g fill="none" color="black" stroke="currentColor" stroke-width="1.00" stroke-linecap="butt" stroke-linejoin="miter">
	<g transform="translate(1175.6,517.6)" stroke="none" fill="black" font-family="Times New Roman" font-size="22.00"  text-anchor="end">
		<text><tspan font-family="Times New Roman" >Value 15</tspan></text>
	</g>
</g>
<g fill="none" color="black" stroke="currentColor" stroke-width="1.00" stroke-linecap="butt" stroke-linejoin="miter">
	<path stroke='rgb(229,  30,  16)'  d='M1191.0,509.4 L1269.1,509.4 M133.1,226.8 L207.1,226.8 L281.2,226.8 L355.2,226.8 L429.3,226.8 L503.3,226.8
		L577.4,226.8 L651.4,226.8 L725.4,226.8 L799.5,226.8 L873.5,226.8 L947.6,226.8  '/>	<use xlink:href='#gpPt14' transform='translate(133.1,226.8) scale(8.25)' color='rgb(229,  30,  16)'/>
	<use xlink:href='#gpPt14' transform='translate(207.1,226.8) scale(8.25)' color='rgb(229,  30,  16)'/>
	<use xlink:href='#gpPt14' transform='translate(281.2,226.8) scale(8.25)' color='rgb(229,  30,  16)'/>
	<use xlink:href='#gpPt14' transform='translate(355.2,226.8) scale(8.25)' color='rgb(229,  30,  16)'/>
	<use xlink:href='#gpPt14' transform='translate(429.3,226.8) scale(8.25)' color='rgb(229,  30,  16)'/>
	<use xlink:href='#gpPt14' transform='translate(503.3,226.8) scale(8.25)' color='rgb(229,  30,  16)'/>
	<use xlink:href='#gpPt14' transform='translate(577.4,226.8) scale(8.25)' color='rgb(229,  30,  16)'/>
	<use xlink:href='#gpPt14' transform='translate(651.4,226.8) scale(8.25)' color='rgb(229,  30,  16)'/>
	<use xlink:href='#gpPt14' transform='translate(725.4,226.8) scale(8.25)' color='rgb(229,  30,  16)'/>
	<use xlink:href='#gpPt14' transform='translate(799.5,226.8) scale(8.25)' color='rgb(229,  30,  16)'/>
	<use xlink:href='#gpPt14' transform='translate(873.5,226.8) scale(8.25)' color='rgb(229,  30,  16)'/>
	<use xlink:href='#gpPt14' transform='translate(947.6,226.8) scale(8.25)' color='rgb(229,  30,  16)'/>
	<use xlink:href='#gpPt14' transform='translate(1230.0,509.4) scale(8.25)' color='rgb(229,  30,  16)'/>
</g>
	</g>
	<g id="gnuplot_plot_16" ><title>Value 16</title>
<g fill="none" color="black" stroke="currentColor" stroke-width="1.00" stroke-linecap="butt" stroke-linejoin="miter">
	<g transform="translate(1175.6,550.6)" stroke="none" fill="black" font-family="Times New Roman" font-size="22.00"  text-anchor="end">
		<text><tspan font-family="Times New Roman" >Value 16</tspan></text>
	</g>
</g>
<g fill="none" color="black" stroke="currentColor" stroke-width="1.00" stroke-linecap="butt" stroke-linejoin="miter">
	<path stroke='rgb(  0,   0,   0)'  d='M1191.0,542.4 L1269.1,542.4 M133.1,30.9 L207.1,30.9 L281.2,30.9 L355.2,30.9 L429.3,30.9 L503.3,30.9
		L577.4,30.9 L651.4,30.9 L725.4,30.9 L799.5,30.9 L873.5,30.9 L947.6,30.9  '/>	<use xlink:href='#gpPt0' transform='translate(133.1,30.9) scale(8.25)' color='rgb(  0,   0,   0)'/>
	<use xlink:href='#gpPt0' transform='translate(207.1,30.9) scale(8.25)' color='rgb(  0,   0,   0)'/>
	<use xlink:href='#gpPt0' transform='translate(281.2,30.9) scale(8.25)' color='rgb(  0,   0,   0)'/>
	<use xlink:href='#gpPt0' transform='translate(355.2,30.9) scale(8.25)' color='rgb(  0,   0,   0)'/>
	<use xlink:href='#gpPt0' transform='translate(429.3,30.9) scale(8.25)' color='rgb(  0,   0,   0)'/>
	<use xlink:href='#gpPt0' transform='translate(503.3,30.9) scale(8.25)' color='rgb(  0,   0,   0)'/>
	<use xlink:href='#gpPt0' transform='translate(577.4,30.9) scale(8.25)' color='rgb(  0,   0,   0)'/>
	<use xlink:href='#gpPt0' transform='translate(651.4,30.9) scale(8.25)' color='rgb(  0,   0,   0)'/>
	<use xlink:href='#gpPt0' transform='translate(725.4,30.9) scale(8.25)' color='rgb(  0,   0,   0)'/>
	<use xlink:href='#gpPt0' transform='translate(799.5,30.9) scale(8.25)' color='rgb(  0,   0,   0)'/>
	<use xlink:href='#gpPt0' transform='translate(873.5,30.9) scale(8.25)' color='rgb(  0,   0,   0)'/>
	<use xlink:href='#gpPt0' transform='translate(947.6,30.9) scale(8.25)' color='rgb(  0,   0,   0)'/>
	<use xlink:href='#gpPt0' transform='translate(1230.0,542.4) scale(8.25)' color='rgb(  0,   0,   0)'/>
</g>
	</g>
<g fill="none" color="white" stroke="rgb(  0,   0,   0)" stroke-width="2.00" stroke-linecap="butt" stroke-linejoin="miter">
</g>
<g fill="none" color="black" stroke="currentColor" stroke-width="2.00" stroke-linecap="butt" stroke-linejoin="miter">
</g>
<g fill="none" color="black" stroke="black" stroke-width="1.00" stroke-linecap="butt" stroke-linejoin="miter">
</g>
<g fill="none" color="black" stroke="currentColor" stroke-width="1.00" stroke-linecap="butt" stroke-linejoin="miter">
	<path stroke='black'  d='M133.1,30.9 L133.1,794.4 L1021.6,794.4 L1021.6,30.9 L133.1,30.9 Z  '/></g>
<g fill="none" color="black" stroke="currentColor" stroke-width="1.00" stroke-linecap="butt" stroke-linejoin="miter">
</g>
</g>
</svg>

