<?xml version="1.0" encoding="iso-8859-1"  standalone="no"?>
<svg 
 width="1200" height="900"
 viewBox="0 0 1200 900"
 xmlns="http://www.w3.org/2000/svg"
 xmlns:xlink="http://www.w3.org/1999/xlink"
>

<title>Gnuplot</title>
<desc>Produced by GNUPLOT 5.2 patchlevel 2 </desc>

<g id="gnuplot_canvas">

<rect x="0" y="0" width="1200" height="900" fill="none"/>
<defs>

	<circle id='gpDot' r='0.5' stroke-width='0.5'/>
	<path id='gpPt0' stroke-width='0.121' stroke='currentColor' d='M-1,0 h2 M0,-1 v2'/>
	<path id='gpPt1' stroke-width='0.121' stroke='currentColor' d='M-1,-1 L1,1 M1,-1 L-1,1'/>
	<path id='gpPt2' stroke-width='0.121' stroke='currentColor' d='M-1,0 L1,0 M0,-1 L0,1 M-1,-1 L1,1 M-1,1 L1,-1'/>
	<rect id='gpPt3' stroke-width='0.121' stroke='currentColor' x='-1' y='-1' width='2' height='2'/>
	<rect id='gpPt4' stroke-width='0.121' stroke='currentColor' fill='currentColor' x='-1' y='-1' width='2' height='2'/>
	<circle id='gpPt5' stroke-width='0.121' stroke='currentColor' cx='0' cy='0' r='1'/>
	<use xlink:href='#gpPt5' id='gpPt6' fill='currentColor' stroke='none'/>
	<path id='gpPt7' stroke-width='0.121' stroke='currentColor' d='M0,-1.33 L-1.33,0.67 L1.33,0.67 z'/>
	<use xlink:href='#gpPt7' id='gpPt8' fill='currentColor' stroke='none'/>
	<use xlink:href='#gpPt7' id='gpPt9' stroke='currentColor' transform='rotate(180)'/>
	<use xlink:href='#gpPt9' id='gpPt10' fill='currentColor' stroke='none'/>
	<use xlink:href='#gpPt3' id='gpPt11' stroke='currentColor' transform='rotate(45)'/>
	<use xlink:href='#gpPt11' id='gpPt12' fill='currentColor' stroke='none'/>
	<path id='gpPt13' stroke-width='0.121' stroke='currentColor' d='M0,1.330 L1.265,0.411 L0.782,-1.067 L-0.782,-1.076 L-1.265,0.411 z'/>
	<use xlink:href='#gpPt13' id='gpPt14' fill='currentColor' stroke='none'/>
	<filter id='textbox' filterUnits='objectBoundingBox' x='0' y='0' height='1' width='1'>
	  <feFlood flood-color='white' flood-opacity='1' result='bgnd'/>
	  <feComposite in='SourceGraphic' in2='bgnd' operator='atop'/>
	</filter>
	<filter id='greybox' filterUnits='objectBoundingBox' x='0' y='0' height='1' width='1'>
	  <feFlood flood-color='lightgrey' flood-opacity='1' result='grey'/>
	  <feComposite in='SourceGraphic' in2='grey' operator='atop'/>
	</filter>
</defs>
<g fill="none" color="white" stroke="currentColor" stroke-width="1.00" stroke-linecap="butt" stroke-linejoin="miter">
</g>
<g fill="none" color="black" stroke="currentColor" stroke-width="1.00" stroke-linecap="butt" stroke-linejoin="miter">
</g>
<g fill="none" color="gray" stroke="currentColor" stroke-width="1.00" stroke-linecap="butt" stroke-linejoin="miter">
	<path stroke='rgb(175, 175, 175)' stroke-dasharray='2,4' class="gridline"  d='M100.1,834.0 L1153.7,834.0  '/></g>
<g fill="none" color="black" stroke="currentColor" stroke-width="1.00" stroke-linecap="butt" stroke-linejoin="miter">
	<path stroke='black'  d='M100.1,834.0 L116.6,834.0 M1153.7,834.0 L1137.2,834.0  '/>	<g transform="translate(84.7,841.2)" stroke="none" fill="black" font-family="Times New Roman" font-size="22.00"  text-anchor="end">
		<text><tspan font-family="Times New Roman" > 0</tspan></text>
	</g>
</g>
<g fill="none" color="black" stroke="currentColor" stroke-width="1.00" stroke-linecap="butt" stroke-linejoin="miter">
</g>
<g fill="none" color="gray" stroke="currentColor" stroke-width="1.00" stroke-linecap="butt" stroke-linejoin="miter">
	<path stroke='rgb(175, 175, 175)' stroke-dasharray='2,4' class="gridline"  d='M100.1,673.8 L1153.7,673.8  '/></g>
<g fill="none" color="black" stroke="currentColor" stroke-width="1.00" stroke-linecap="butt" stroke-linejoin="miter">
	<path stroke='black'  d='M100.1,673.8 L116.6,673.8 M1153.7,673.8 L1137.2,673.8  '/>	<g transform="translate(84.7,681.0)" stroke="none" fill="black" font-family="Times New Roman" font-size="22.00"  text-anchor="end">
		<text><tspan font-family="Times New Roman" > 0.2</tspan></text>
	</g>
</g>
<g fill="none" color="black" stroke="currentColor" stroke-width="1.00" stroke-linecap="butt" stroke-linejoin="miter">
</g>
<g fill="none" color="gray" stroke="currentColor" stroke-width="1.00" stroke-linecap="butt" stroke-linejoin="miter">
	<path stroke='rgb(175, 175, 175)' stroke-dasharray='2,4' class="gridline"  d='M100.1,513.6 L1153.7,513.6  '/></g>
<g fill="none" color="black" stroke="currentColor" stroke-width="1.00" stroke-linecap="butt" stroke-linejoin="miter">
	<path stroke='black'  d='M100.1,513.6 L116.6,513.6 M1153.7,513.6 L1137.2,513.6  '/>	<g transform="translate(84.7,520.8)" stroke="none" fill="black" font-family="Times New Roman" font-size="22.00"  text-anchor="end">
		<text><tspan font-family="Times New Roman" > 0.4</tspan></text>
	</g>
</g>
<g fill="none" color="black" stroke="currentColor" stroke-width="1.00" stroke-linecap="butt" stroke-linejoin="miter">
</g>
<g fill="none" color="gray" stroke="currentColor" stroke-width="1.00" stroke-linecap="butt" stroke-linejoin="miter">
	<path stroke='rgb(175, 175, 175)' stroke-dasharray='2,4' class="gridline"  d='M100.1,353.5 L1153.7,353.5  '/></g>
<g fill="none" color="black" stroke="currentColor" stroke-width="1.00" stroke-linecap="butt" stroke-linejoin="miter">
	<path stroke='black'  d='M100.1,353.5 L116.6,353.5 M1153.7,353.5 L1137.2,353.5  '/>	<g transform="translate(84.7,360.7)" stroke="none" fill="black" font-family="Times New Roman" font-size="22.00"  text-anchor="end">
		<text><tspan font-family="Times New Roman" > 0.6</tspan></text>
	</g>
</g>
<g fill="none" color="black" stroke="currentColor" stroke-width="1.00" stroke-linecap="butt" stroke-linejoin="miter">
</g>
<g fill="none" color="gray" stroke="currentColor" stroke-width="1.00" stroke-linecap="butt" stroke-linejoin="miter">
	<path stroke='rgb(175, 175, 175)' stroke-dasharray='2,4' class="gridline"  d='M100.1,193.3 L1153.7,193.3  '/></g>
<g fill="none" color="black" stroke="currentColor" stroke-width="1.00" stroke-linecap="butt" stroke-linejoin="miter">
	<path stroke='black'  d='M100.1,193.3 L116.6,193.3 M1153.7,193.3 L1137.2,193.3  '/>	<g transform="translate(84.7,200.5)" stroke="none" fill="black" font-family="Times New Roman" font-size="22.00"  text-anchor="end">
		<text><tspan font-family="Times New Roman" > 0.8</tspan></text>
	</g>
</g>
<g fill="none" color="black" stroke="currentColor" stroke-width="1.00" stroke-linecap="butt" stroke-linejoin="miter">
</g>
<g fill="none" color="gray" stroke="currentColor" stroke-width="1.00" stroke-linecap="butt" stroke-linejoin="miter">
	<path stroke='rgb(175, 175, 175)' stroke-dasharray='2,4' class="gridline"  d='M100.1,33.1 L1153.7,33.1  '/></g>
<g fill="none" color="black" stroke="currentColor" stroke-width="1.00" stroke-linecap="butt" stroke-linejoin="miter">
	<path stroke='black'  d='M100.1,33.1 L116.6,33.1 M1153.7,33.1 L1137.2,33.1  '/>	<g transform="translate(84.7,40.3)" stroke="none" fill="black" font-family="Times New Roman" font-size="22.00"  text-anchor="end">
		<text><tspan font-family="Times New Roman" > 1</tspan></text>
	</g>
</g>
<g fill="none" color="black" stroke="currentColor" stroke-width="1.00" stroke-linecap="butt" stroke-linejoin="miter">
</g>
<g fill="none" color="gray" stroke="currentColor" stroke-width="1.00" stroke-linecap="butt" stroke-linejoin="miter">
	<path stroke='rgb(175, 175, 175)' stroke-dasharray='2,4' class="gridline"  d='M100.1,834.0 L100.1,33.1  '/></g>
<g fill="none" color="black" stroke="currentColor" stroke-width="1.00" stroke-linecap="butt" stroke-linejoin="miter">
	<path stroke='black'  d='M100.1,834.0 L100.1,817.5 M100.1,33.1 L100.1,49.6  '/>	<g transform="translate(100.1,874.2)" stroke="none" fill="black" font-family="Times New Roman" font-size="22.00"  text-anchor="middle">
		<text><tspan font-family="Times New Roman" > 0</tspan></text>
	</g>
</g>
<g fill="none" color="black" stroke="currentColor" stroke-width="1.00" stroke-linecap="butt" stroke-linejoin="miter">
</g>
<g fill="none" color="gray" stroke="currentColor" stroke-width="1.00" stroke-linecap="butt" stroke-linejoin="miter">
	<path stroke='rgb(175, 175, 175)' stroke-dasharray='2,4' class="gridline"  d='M310.8,834.0 L310.8,33.1  '/></g>
<g fill="none" color="black" stroke="currentColor" stroke-width="1.00" stroke-linecap="butt" stroke-linejoin="miter">
	<path stroke='black'  d='M310.8,834.0 L310.8,817.5 M310.8,33.1 L310.8,49.6  '/>	<g transform="translate(310.8,874.2)" stroke="none" fill="black" font-family="Times New Roman" font-size="22.00"  text-anchor="middle">
		<text><tspan font-family="Times New Roman" > 0.2</tspan></text>
	</g>
</g>
<g fill="none" color="black" stroke="currentColor" stroke-width="1.00" stroke-linecap="butt" stroke-linejoin="miter">
</g>
<g fill="none" color="gray" stroke="currentColor" stroke-width="1.00" stroke-linecap="butt" stroke-linejoin="miter">
	<path stroke='rgb(175, 175, 175)' stroke-dasharray='2,4' class="gridline"  d='M521.5,834.0 L521.5,33.1  '/></g>
<g fill="none" color="black" stroke="currentColor" stroke-width="1.00" stroke-linecap="butt" stroke-linejoin="miter">
	<path stroke='black'  d='M521.5,834.0 L521.5,817.5 M521.5,33.1 L521.5,49.6  '/>	<g transform="translate(521.5,874.2)" stroke="none" fill="black" font-family="Times New Roman" font-size="22.00"  text-anchor="middle">
		<text><tspan font-family="Times New Roman" > 0.4</tspan></text>
	</g>
</g>
<g fill="none" color="black" stroke="currentColor" stroke-width="1.00" stroke-linecap="butt" stroke-linejoin="miter">
</g>
<g fill="none" color="gray" stroke="currentColor" stroke-width="1.00" stroke-linecap="butt" stroke-linejoin="miter">
	<path stroke='rgb(175, 175, 175)' stroke-dasharray='2,4' class="gridline"  d='M732.3,834.0 L732.3,33.1  '/></g>
<g fill="none" color="black" stroke="currentColor" stroke-width="1.00" stroke-linecap="butt" stroke-linejoin="miter">
	<path stroke='black'  d='M732.3,834.0 L732.3,817.5 M732.3,33.1 L732.3,49.6  '/>	<g transform="translate(732.3,874.2)" stroke="none" fill="black" font-family="Times New Roman" font-size="22.00"  text-anchor="middle">
		<text><tspan font-family="Times New Roman" > 0.6</tspan></text>
	</g>
</g>
<g fill="none" color="black" stroke="currentColor" stroke-width="1.00" stroke-linecap="butt" stroke-linejoin="miter">
</g>
<g fill="none" color="gray" stroke="currentColor" stroke-width="1.00" stroke-linecap="butt" stroke-linejoin="miter">
	<path stroke='rgb(175, 175, 175)' stroke-dasharray='2,4' class="gridline"  d='M943.0,834.0 L943.0,33.1  '/></g>
<g fill="none" color="black" stroke="currentColor" stroke-width="1.00" stroke-linecap="butt" stroke-linejoin="miter">
	<path stroke='black'  d='M943.0,834.0 L943.0,817.5 M943.0,33.1 L943.0,49.6  '/>	<g transform="translate(943.0,874.2)" stroke="none" fill="black" font-family="Times New Roman" font-size="22.00"  text-anchor="middle">
		<text><tspan font-family="Times New Roman" > 0.8</tspan></text>
	</g>
</g>
<g fill="none" color="black" stroke="currentColor" stroke-width="1.00" stroke-linecap="butt" stroke-linejoin="miter">
</g>
<g fill="none" color="gray" stroke="currentColor" stroke-width="1.00" stroke-linecap="butt" stroke-linejoin="miter">
	<path stroke='rgb(175, 175, 175)' stroke-dasharray='2,4' class="gridline"  d='M1153.7,834.0 L1153.7,33.1  '/></g>
<g fill="none" color="black" stroke="currentColor" stroke-width="1.00" stroke-linecap="butt" stroke-linejoin="miter">
	<path stroke='black'  d='M1153.7,834.0 L1153.7,817.5 M1153.7,33.1 L1153.7,49.6  '/>	<g transform="translate(1153.7,874.2)" stroke="none" fill="black" font-family="Times New Roman" font-size="22.00"  text-anchor="middle">
		<text><tspan font-family="Times New Roman" > 1</tspan></text>
	</g>
</g>
<g fill="none" color="black" stroke="currentColor" stroke-width="1.00" stroke-linecap="butt" stroke-linejoin="miter">
</g>
<g fill="none" color="black" stroke="currentColor" stroke-width="1.00" stroke-linecap="butt" stroke-linejoin="miter">
	<path stroke='black'  d='M100.1,33.1 L100.1,834.0 L1153.7,834.0 L1153.7,33.1 L100.1,33.1 Z  '/></g>
<g fill="none" color="black" stroke="currentColor" stroke-width="1.00" stroke-linecap="butt" stroke-linejoin="miter">
</g>
	<g id="gnuplot_plot_1" ><title>1</title>
<g fill="none" color="black" stroke="currentColor" stroke-width="1.00" stroke-linecap="butt" stroke-linejoin="miter">
	<g transform="translate(1029.4,73.3)" stroke="none" fill="black" font-family="Times New Roman" font-size="22.00"  text-anchor="end">
		<text><tspan font-family="Times New Roman" >1</tspan></text>
	</g>
</g>
<g fill="none" color="black" stroke="currentColor" stroke-width="1.00" stroke-linecap="butt" stroke-linejoin="miter">
	<path stroke='rgb(148,   0, 211)'  d='M1044.8,66.1 L1122.9,66.1 M100.1,834.0 L101.4,834.0 L102.7,834.0 L104.1,834.0 L105.4,834.0 L106.7,834.0
		L108.0,833.9 L109.3,833.9 L110.6,833.9 L112.0,833.9 L113.3,833.9 L114.6,833.8 L115.9,833.8 L117.2,833.8
		L118.6,833.7 L119.9,833.7 L121.2,833.6 L122.5,833.6 L123.8,833.5 L125.2,833.5 L126.5,833.4 L127.8,833.4
		L129.1,833.3 L130.4,833.3 L131.7,833.2 L133.1,833.1 L134.4,833.0 L135.7,833.0 L137.0,832.9 L138.3,832.8
		L139.7,832.7 L141.0,832.6 L142.3,832.6 L143.6,832.5 L144.9,832.4 L146.3,832.3 L147.6,832.2 L148.9,832.1
		L150.2,832.0 L151.5,831.9 L152.8,831.8 L154.2,831.6 L155.5,831.5 L156.8,831.4 L158.1,831.3 L159.4,831.2
		L160.8,831.0 L162.1,830.9 L163.4,830.8 L164.7,830.6 L166.0,830.5 L167.4,830.3 L168.7,830.2 L170.0,830.1
		L171.3,829.9 L172.6,829.7 L173.9,829.6 L175.3,829.4 L176.6,829.3 L177.9,829.1 L179.2,828.9 L180.5,828.8
		L181.9,828.6 L183.2,828.4 L184.5,828.2 L185.8,828.1 L187.1,827.9 L188.4,827.7 L189.8,827.5 L191.1,827.3
		L192.4,827.1 L193.7,826.9 L195.0,826.7 L196.4,826.5 L197.7,826.3 L199.0,826.1 L200.3,825.9 L201.6,825.7
		L203.0,825.5 L204.3,825.2 L205.6,825.0 L206.9,824.8 L208.2,824.6 L209.5,824.3 L210.9,824.1 L212.2,823.9
		L213.5,823.6 L214.8,823.4 L216.1,823.1 L217.5,822.9 L218.8,822.6 L220.1,822.4 L221.4,822.1 L222.7,821.9
		L224.1,821.6 L225.4,821.3 L226.7,821.1 L228.0,820.8 L229.3,820.5 L230.6,820.2 L232.0,820.0 L233.3,819.7
		L234.6,819.4 L235.9,819.1 L237.2,818.8 L238.6,818.5 L239.9,818.2 L241.2,817.9 L242.5,817.6 L243.8,817.3
		L245.2,817.0 L246.5,816.7 L247.8,816.4 L249.1,816.1 L250.4,815.8 L251.7,815.4 L253.1,815.1 L254.4,814.8
		L255.7,814.5 L257.0,814.1 L258.3,813.8 L259.7,813.5 L261.0,813.1 L262.3,812.8 L263.6,812.4 L264.9,812.1
		L266.2,811.7 L267.6,811.4 L268.9,811.0 L270.2,810.6 L271.5,810.3 L272.8,809.9 L274.2,809.6 L275.5,809.2
		L276.8,808.8 L278.1,808.4 L279.4,808.1 L280.8,807.7 L282.1,807.3 L283.4,806.9 L284.7,806.5 L286.0,806.1
		L287.3,805.7 L288.7,805.3 L290.0,804.9 L291.3,804.5 L292.6,804.1 L293.9,803.7 L295.3,803.3 L296.6,802.9
		L297.9,802.4 L299.2,802.0 L300.5,801.6 L301.9,801.2 L303.2,800.7 L304.5,800.3 L305.8,799.9 L307.1,799.4
		L308.4,799.0 L309.8,798.6 L311.1,798.1 L312.4,797.7 L313.7,797.2 L315.0,796.8 L316.4,796.3 L317.7,795.8
		L319.0,795.4 L320.3,794.9 L321.6,794.4 L323.0,794.0 L324.3,793.5 L325.6,793.0 L326.9,792.5 L328.2,792.1
		L329.5,791.6 L330.9,791.1 L332.2,790.6 L333.5,790.1 L334.8,789.6 L336.1,789.1 L337.5,788.6 L338.8,788.1
		L340.1,787.6 L341.4,787.1 L342.7,786.6 L344.0,786.1 L345.4,785.5 L346.7,785.0 L348.0,784.5 L349.3,784.0
		L350.6,783.4 L352.0,782.9 L353.3,782.4 L354.6,781.8 L355.9,781.3 L357.2,780.8 L358.6,780.2 L359.9,779.7
		L361.2,779.1 L362.5,778.6 L363.8,778.0 L365.1,777.5 L366.5,776.9 L367.8,776.3 L369.1,775.8 L370.4,775.2
		L371.7,774.6 L373.1,774.0 L374.4,773.5 L375.7,772.9 L377.0,772.3 L378.3,771.7 L379.7,771.1 L381.0,770.5
		L382.3,769.9 L383.6,769.3 L384.9,768.7 L386.2,768.1 L387.6,767.5 L388.9,766.9 L390.2,766.3 L391.5,765.7
		L392.8,765.1 L394.2,764.5 L395.5,763.8 L396.8,763.2 L398.1,762.6 L399.4,762.0 L400.8,761.3 L402.1,760.7
		L403.4,760.1 L404.7,759.4 L406.0,758.8 L407.3,758.1 L408.7,757.5 L410.0,756.8 L411.3,756.2 L412.6,755.5
		L413.9,754.9 L415.3,754.2 L416.6,753.5 L417.9,752.9 L419.2,752.2 L420.5,751.5 L421.9,750.8 L423.2,750.2
		L424.5,749.5 L425.8,748.8 L427.1,748.1 L428.4,747.4 L429.8,746.7 L431.1,746.0 L432.4,745.3 L433.7,744.6
		L435.0,743.9 L436.4,743.2 L437.7,742.5 L439.0,741.8 L440.3,741.1 L441.6,740.4 L442.9,739.7 L444.3,738.9
		L445.6,738.2 L446.9,737.5 L448.2,736.8 L449.5,736.0 L450.9,735.3 L452.2,734.6 L453.5,733.8 L454.8,733.1
		L456.1,732.3 L457.5,731.6 L458.8,730.8 L460.1,730.1 L461.4,729.3 L462.7,728.6 L464.0,727.8 L465.4,727.0
		L466.7,726.3 L468.0,725.5 L469.3,724.7 L470.6,724.0 L472.0,723.2 L473.3,722.4 L474.6,721.6 L475.9,720.8
		L477.2,720.1 L478.6,719.3 L479.9,718.5 L481.2,717.7 L482.5,716.9 L483.8,716.1 L485.1,715.3 L486.5,714.5
		L487.8,713.7 L489.1,712.8 L490.4,712.0 L491.7,711.2 L493.1,710.4 L494.4,709.6 L495.7,708.7 L497.0,707.9
		L498.3,707.1 L499.7,706.3 L501.0,705.4 L502.3,704.6 L503.6,703.7 L504.9,702.9 L506.2,702.1 L507.6,701.2
		L508.9,700.4 L510.2,699.5 L511.5,698.6 L512.8,697.8 L514.2,696.9 L515.5,696.1 L516.8,695.2 L518.1,694.3
		L519.4,693.5 L520.7,692.6 L522.1,691.7 L523.4,690.8 L524.7,689.9 L526.0,689.1 L527.3,688.2 L528.7,687.3
		L530.0,686.4 L531.3,685.5 L532.6,684.6 L533.9,683.7 L535.3,682.8 L536.6,681.9 L537.9,681.0 L539.2,680.1
		L540.5,679.2 L541.8,678.3 L543.2,677.3 L544.5,676.4 L545.8,675.5 L547.1,674.6 L548.4,673.6 L549.8,672.7
		L551.1,671.8 L552.4,670.8 L553.7,669.9 L555.0,669.0 L556.4,668.0 L557.7,667.1 L559.0,666.1 L560.3,665.2
		L561.6,664.2 L562.9,663.3 L564.3,662.3 L565.6,661.3 L566.9,660.4 L568.2,659.4 L569.5,658.4 L570.9,657.5
		L572.2,656.5 L573.5,655.5 L574.8,654.5 L576.1,653.6 L577.5,652.6 L578.8,651.6 L580.1,650.6 L581.4,649.6
		L582.7,648.6 L584.0,647.6 L585.4,646.6 L586.7,645.6 L588.0,644.6 L589.3,643.6 L590.6,642.6 L592.0,641.6
		L593.3,640.6 L594.6,639.6 L595.9,638.5 L597.2,637.5 L598.5,636.5 L599.9,635.5 L601.2,634.5 L602.5,633.4
		L603.8,632.4 L605.1,631.4 L606.5,630.3 L607.8,629.3 L609.1,628.2 L610.4,627.2 L611.7,626.1 L613.1,625.1
		L614.4,624.0 L615.7,623.0 L617.0,621.9 L618.3,620.9 L619.6,619.8 L621.0,618.7 L622.3,617.7 L623.6,616.6
		L624.9,615.5 L626.2,614.4 L627.6,613.4 L628.9,612.3 L630.2,611.2 L631.5,610.1 L632.8,609.0 L634.2,607.9
		L635.5,606.9 L636.8,605.8 L638.1,604.7 L639.4,603.6 L640.7,602.5 L642.1,601.4 L643.4,600.3 L644.7,599.1
		L646.0,598.0 L647.3,596.9 L648.7,595.8 L650.0,594.7 L651.3,593.6 L652.6,592.4 L653.9,591.3 L655.3,590.2
		L656.6,589.1 L657.9,587.9 L659.2,586.8 L660.5,585.7 L661.8,584.5 L663.2,583.4 L664.5,582.2 L665.8,581.1
		L667.1,579.9 L668.4,578.8 L669.8,577.6 L671.1,576.5 L672.4,575.3 L673.7,574.2 L675.0,573.0 L676.3,571.8
		L677.7,570.7 L679.0,569.5 L680.3,568.3 L681.6,567.2 L682.9,566.0 L684.3,564.8 L685.6,563.6 L686.9,562.4
		L688.2,561.3 L689.5,560.1 L690.9,558.9 L692.2,557.7 L693.5,556.5 L694.8,555.3 L696.1,554.1 L697.4,552.9
		L698.8,551.7 L700.1,550.5 L701.4,549.3 L702.7,548.1 L704.0,546.9 L705.4,545.6 L706.7,544.4 L708.0,543.2
		L709.3,542.0 L710.6,540.8 L712.0,539.5 L713.3,538.3 L714.6,537.1 L715.9,535.8 L717.2,534.6 L718.5,533.4
		L719.9,532.1 L721.2,530.9 L722.5,529.6 L723.8,528.4 L725.1,527.2 L726.5,525.9 L727.8,524.7 L729.1,523.4
		L730.4,522.1 L731.7,520.9 L733.1,519.6 L734.4,518.4 L735.7,517.1 L737.0,515.8 L738.3,514.6 L739.6,513.3
		L741.0,512.0 L742.3,510.7 L743.6,509.5 L744.9,508.2 L746.2,506.9 L747.6,505.6 L748.9,504.3 L750.2,503.0
		L751.5,501.7 L752.8,500.5 L754.1,499.2 L755.5,497.9 L756.8,496.6 L758.1,495.3 L759.4,494.0 L760.7,492.6
		L762.1,491.3 L763.4,490.0 L764.7,488.7 L766.0,487.4 L767.3,486.1 L768.7,484.8 L770.0,483.5 L771.3,482.1
		L772.6,480.8 L773.9,479.5 L775.2,478.1 L776.6,476.8 L777.9,475.5 L779.2,474.2 L780.5,472.8 L781.8,471.5
		L783.2,470.1 L784.5,468.8 L785.8,467.4 L787.1,466.1 L788.4,464.8 L789.8,463.4 L791.1,462.1 L792.4,460.7
		L793.7,459.3 L795.0,458.0 L796.3,456.6 L797.7,455.3 L799.0,453.9 L800.3,452.5 L801.6,451.2 L802.9,449.8
		L804.3,448.4 L805.6,447.0 L806.9,445.7 L808.2,444.3 L809.5,442.9 L810.9,441.5 L812.2,440.1 L813.5,438.8
		L814.8,437.4 L816.1,436.0 L817.4,434.6 L818.8,433.2 L820.1,431.8 L821.4,430.4 L822.7,429.0 L824.0,427.6
		L825.4,426.2 L826.7,424.8 L828.0,423.4 L829.3,422.0 L830.6,420.6 L831.9,419.2 L833.3,417.7 L834.6,416.3
		L835.9,414.9 L837.2,413.5 L838.5,412.1 L839.9,410.6 L841.2,409.2 L842.5,407.8 L843.8,406.4 L845.1,404.9
		L846.5,403.5 L847.8,402.1 L849.1,400.6 L850.4,399.2 L851.7,397.7 L853.0,396.3 L854.4,394.9 L855.7,393.4
		L857.0,392.0 L858.3,390.5 L859.6,389.1 L861.0,387.6 L862.3,386.2 L863.6,384.7 L864.9,383.3 L866.2,381.8
		L867.6,380.3 L868.9,378.9 L870.2,377.4 L871.5,375.9 L872.8,374.5 L874.1,373.0 L875.5,371.5 L876.8,370.1
		L878.1,368.6 L879.4,367.1 L880.7,365.6 L882.1,364.2 L883.4,362.7 L884.7,361.2 L886.0,359.7 L887.3,358.2
		L888.7,356.7 L890.0,355.2 L891.3,353.8 L892.6,352.3 L893.9,350.8 L895.2,349.3 L896.6,347.8 L897.9,346.3
		L899.2,344.8 L900.5,343.3 L901.8,341.8 L903.2,340.3 L904.5,338.8 L905.8,337.3 L907.1,335.7 L908.4,334.2
		L909.8,332.7 L911.1,331.2 L912.4,329.7 L913.7,328.2 L915.0,326.7 L916.3,325.1 L917.7,323.6 L919.0,322.1
		L920.3,320.6 L921.6,319.0 L922.9,317.5 L924.3,316.0 L925.6,314.4 L926.9,312.9 L928.2,311.4 L929.5,309.8
		L930.8,308.3 L932.2,306.8 L933.5,305.2 L934.8,303.7 L936.1,302.1 L937.4,300.6 L938.8,299.1 L940.1,297.5
		L941.4,296.0 L942.7,294.4 L944.0,292.9 L945.4,291.3 L946.7,289.8 L948.0,288.2 L949.3,286.6 L950.6,285.1
		L951.9,283.5 L953.3,282.0 L954.6,280.4 L955.9,278.8 L957.2,277.3 L958.5,275.7 L959.9,274.1 L961.2,272.6
		L962.5,271.0 L963.8,269.4 L965.1,267.9 L966.5,266.3 L967.8,264.7 L969.1,263.1 L970.4,261.6 L971.7,260.0
		L973.0,258.4 L974.4,256.8 L975.7,255.2 L977.0,253.7 L978.3,252.1 L979.6,250.5 L981.0,248.9 L982.3,247.3
		L983.6,245.7 L984.9,244.1 L986.2,242.5 L987.6,240.9 L988.9,239.3 L990.2,237.7 L991.5,236.1 L992.8,234.6
		L994.1,233.0 L995.5,231.4 L996.8,229.7 L998.1,228.1 L999.4,226.5 L1000.7,224.9 L1002.1,223.3 L1003.4,221.7
		L1004.7,220.1 L1006.0,218.5 L1007.3,216.9 L1008.6,215.3 L1010.0,213.7 L1011.3,212.1 L1012.6,210.4 L1013.9,208.8
		L1015.2,207.2 L1016.6,205.6 L1017.9,204.0 L1019.2,202.4 L1020.5,200.7 L1021.8,199.1 L1023.2,197.5 L1024.5,195.9
		L1025.8,194.2 L1027.1,192.6 L1028.4,191.0 L1029.7,189.4 L1031.1,187.7 L1032.4,186.1 L1033.7,184.5 L1035.0,182.8
		L1036.3,181.2 L1037.7,179.6 L1039.0,177.9 L1040.3,176.3 L1041.6,174.7 L1042.9,173.0 L1044.3,171.4 L1045.6,169.7
		L1046.9,168.1 L1048.2,166.5 L1049.5,164.8 L1050.8,163.2 L1052.2,161.5 L1053.5,159.9 L1054.8,158.3 L1056.1,156.6
		L1057.4,155.0 L1058.8,153.3 L1060.1,151.7 L1061.4,150.0 L1062.7,148.4 L1064.0,146.7 L1065.4,145.1 L1066.7,143.4
		L1068.0,141.8 L1069.3,140.1 L1070.6,138.5 L1071.9,136.8 L1073.3,135.1 L1074.6,133.5 L1075.9,131.8 L1077.2,130.2
		L1078.5,128.5 L1079.9,126.9 L1081.2,125.2 L1082.5,123.5 L1083.8,121.9 L1085.1,120.2 L1086.4,118.5 L1087.8,116.9
		L1089.1,115.2 L1090.4,113.6 L1091.7,111.9 L1093.0,110.2 L1094.4,108.6 L1095.7,106.9 L1097.0,105.2 L1098.3,103.6
		L1099.6,101.9 L1101.0,100.2 L1102.3,98.6 L1103.6,96.9 L1104.9,95.2 L1106.2,93.5 L1107.5,91.9 L1108.9,90.2
		L1110.2,88.5 L1111.5,86.9 L1112.8,85.2 L1114.1,83.5 L1115.5,81.8 L1116.8,80.2 L1118.1,78.5 L1119.4,76.8
		L1120.7,75.1 L1122.1,73.4 L1123.4,71.8 L1124.7,70.1 L1126.0,68.4 L1127.3,66.7 L1128.6,65.1 L1130.0,63.4
		L1131.3,61.7 L1132.6,60.0 L1133.9,58.3 L1135.2,56.7 L1136.6,55.0 L1137.9,53.3 L1139.2,51.6 L1140.5,49.9
		L1141.8,48.3 L1143.2,46.6 L1144.5,44.9 L1145.8,43.2 L1147.1,41.5 L1148.4,39.8 L1149.7,38.2 L1151.1,36.5
		L1152.4,34.8 L1153.7,33.1  '/></g>
	</g>
	<g id="gnuplot_plot_2" ><title>2</title>
<g fill="none" color="black" stroke="currentColor" stroke-width="1.00" stroke-linecap="butt" stroke-linejoin="miter">
	<g transform="translate(1029.4,106.3)" stroke="none" fill="black" font-family="Times New Roman" font-size="22.00"  text-anchor="end">
		<text><tspan font-family="Times New Roman" >2</tspan></text>
	</g>
</g>
<g fill="none" color="black" stroke="currentColor" stroke-width="1.00" stroke-linecap="butt" stroke-linejoin="miter">
	<path stroke='rgb(  0, 158, 115)'  d='M1044.8,99.1 L1122.9,99.1 M100.1,834.0 L101.4,834.0 L102.7,834.0 L104.1,834.0 L105.4,834.0 L106.7,834.0
		L108.0,834.0 L109.3,834.0 L110.6,834.0 L112.0,834.0 L113.3,834.0 L114.6,834.0 L115.9,834.0 L117.2,834.0
		L118.6,834.0 L119.9,834.0 L121.2,834.0 L122.5,834.0 L123.8,834.0 L125.2,834.0 L126.5,834.0 L127.8,834.0
		L129.1,834.0 L130.4,834.0 L131.7,834.0 L133.1,834.0 L134.4,834.0 L135.7,834.0 L137.0,834.0 L138.3,834.0
		L139.7,834.0 L141.0,834.0 L142.3,834.0 L143.6,834.0 L144.9,834.0 L146.3,834.0 L147.6,834.0 L148.9,834.0
		L150.2,834.0 L151.5,834.0 L152.8,834.0 L154.2,834.0 L155.5,834.0 L156.8,834.0 L158.1,834.0 L159.4,834.0
		L160.8,834.0 L162.1,834.0 L163.4,834.0 L164.7,834.0 L166.0,834.0 L167.4,834.0 L168.7,834.0 L170.0,834.0
		L171.3,834.0 L172.6,834.0 L173.9,834.0 L175.3,834.0 L176.6,834.0 L177.9,834.0 L179.2,834.0 L180.5,834.0
		L181.9,834.0 L183.2,834.0 L184.5,834.0 L185.8,834.0 L187.1,834.0 L188.4,833.9 L189.8,833.9 L191.1,833.9
		L192.4,833.9 L193.7,833.9 L195.0,833.9 L196.4,833.9 L197.7,833.9 L199.0,833.9 L200.3,833.9 L201.6,833.9
		L203.0,833.9 L204.3,833.9 L205.6,833.9 L206.9,833.9 L208.2,833.9 L209.5,833.9 L210.9,833.9 L212.2,833.9
		L213.5,833.9 L214.8,833.9 L216.1,833.9 L217.5,833.8 L218.8,833.8 L220.1,833.8 L221.4,833.8 L222.7,833.8
		L224.1,833.8 L225.4,833.8 L226.7,833.8 L228.0,833.8 L229.3,833.8 L230.6,833.8 L232.0,833.8 L233.3,833.7
		L234.6,833.7 L235.9,833.7 L237.2,833.7 L238.6,833.7 L239.9,833.7 L241.2,833.7 L242.5,833.7 L243.8,833.6
		L245.2,833.6 L246.5,833.6 L247.8,833.6 L249.1,833.6 L250.4,833.6 L251.7,833.6 L253.1,833.5 L254.4,833.5
		L255.7,833.5 L257.0,833.5 L258.3,833.5 L259.7,833.5 L261.0,833.4 L262.3,833.4 L263.6,833.4 L264.9,833.4
		L266.2,833.4 L267.6,833.4 L268.9,833.3 L270.2,833.3 L271.5,833.3 L272.8,833.3 L274.2,833.2 L275.5,833.2
		L276.8,833.2 L278.1,833.2 L279.4,833.1 L280.8,833.1 L282.1,833.1 L283.4,833.1 L284.7,833.0 L286.0,833.0
		L287.3,833.0 L288.7,833.0 L290.0,832.9 L291.3,832.9 L292.6,832.9 L293.9,832.8 L295.3,832.8 L296.6,832.8
		L297.9,832.7 L299.2,832.7 L300.5,832.7 L301.9,832.6 L303.2,832.6 L304.5,832.6 L305.8,832.5 L307.1,832.5
		L308.4,832.5 L309.8,832.4 L311.1,832.4 L312.4,832.3 L313.7,832.3 L315.0,832.2 L316.4,832.2 L317.7,832.2
		L319.0,832.1 L320.3,832.1 L321.6,832.0 L323.0,832.0 L324.3,831.9 L325.6,831.9 L326.9,831.8 L328.2,831.8
		L329.5,831.7 L330.9,831.7 L332.2,831.6 L333.5,831.6 L334.8,831.5 L336.1,831.5 L337.5,831.4 L338.8,831.3
		L340.1,831.3 L341.4,831.2 L342.7,831.2 L344.0,831.1 L345.4,831.0 L346.7,831.0 L348.0,830.9 L349.3,830.8
		L350.6,830.8 L352.0,830.7 L353.3,830.6 L354.6,830.6 L355.9,830.5 L357.2,830.4 L358.6,830.3 L359.9,830.3
		L361.2,830.2 L362.5,830.1 L363.8,830.0 L365.1,830.0 L366.5,829.9 L367.8,829.8 L369.1,829.7 L370.4,829.6
		L371.7,829.5 L373.1,829.5 L374.4,829.4 L375.7,829.3 L377.0,829.2 L378.3,829.1 L379.7,829.0 L381.0,828.9
		L382.3,828.8 L383.6,828.7 L384.9,828.6 L386.2,828.5 L387.6,828.4 L388.9,828.3 L390.2,828.2 L391.5,828.1
		L392.8,828.0 L394.2,827.9 L395.5,827.8 L396.8,827.7 L398.1,827.6 L399.4,827.4 L400.8,827.3 L402.1,827.2
		L403.4,827.1 L404.7,827.0 L406.0,826.8 L407.3,826.7 L408.7,826.6 L410.0,826.5 L411.3,826.3 L412.6,826.2
		L413.9,826.1 L415.3,826.0 L416.6,825.8 L417.9,825.7 L419.2,825.5 L420.5,825.4 L421.9,825.3 L423.2,825.1
		L424.5,825.0 L425.8,824.8 L427.1,824.7 L428.4,824.5 L429.8,824.4 L431.1,824.2 L432.4,824.1 L433.7,823.9
		L435.0,823.7 L436.4,823.6 L437.7,823.4 L439.0,823.3 L440.3,823.1 L441.6,822.9 L442.9,822.8 L444.3,822.6
		L445.6,822.4 L446.9,822.2 L448.2,822.0 L449.5,821.9 L450.9,821.7 L452.2,821.5 L453.5,821.3 L454.8,821.1
		L456.1,820.9 L457.5,820.7 L458.8,820.5 L460.1,820.3 L461.4,820.1 L462.7,819.9 L464.0,819.7 L465.4,819.5
		L466.7,819.3 L468.0,819.1 L469.3,818.9 L470.6,818.7 L472.0,818.5 L473.3,818.3 L474.6,818.0 L475.9,817.8
		L477.2,817.6 L478.6,817.4 L479.9,817.1 L481.2,816.9 L482.5,816.7 L483.8,816.4 L485.1,816.2 L486.5,815.9
		L487.8,815.7 L489.1,815.4 L490.4,815.2 L491.7,814.9 L493.1,814.7 L494.4,814.4 L495.7,814.2 L497.0,813.9
		L498.3,813.6 L499.7,813.4 L501.0,813.1 L502.3,812.8 L503.6,812.5 L504.9,812.3 L506.2,812.0 L507.6,811.7
		L508.9,811.4 L510.2,811.1 L511.5,810.8 L512.8,810.5 L514.2,810.2 L515.5,809.9 L516.8,809.6 L518.1,809.3
		L519.4,809.0 L520.7,808.7 L522.1,808.4 L523.4,808.1 L524.7,807.8 L526.0,807.4 L527.3,807.1 L528.7,806.8
		L530.0,806.4 L531.3,806.1 L532.6,805.8 L533.9,805.4 L535.3,805.1 L536.6,804.7 L537.9,804.4 L539.2,804.0
		L540.5,803.7 L541.8,803.3 L543.2,802.9 L544.5,802.6 L545.8,802.2 L547.1,801.8 L548.4,801.5 L549.8,801.1
		L551.1,800.7 L552.4,800.3 L553.7,799.9 L555.0,799.5 L556.4,799.1 L557.7,798.7 L559.0,798.3 L560.3,797.9
		L561.6,797.5 L562.9,797.1 L564.3,796.7 L565.6,796.3 L566.9,795.9 L568.2,795.4 L569.5,795.0 L570.9,794.6
		L572.2,794.1 L573.5,793.7 L574.8,793.2 L576.1,792.8 L577.5,792.3 L578.8,791.9 L580.1,791.4 L581.4,791.0
		L582.7,790.5 L584.0,790.0 L585.4,789.6 L586.7,789.1 L588.0,788.6 L589.3,788.1 L590.6,787.6 L592.0,787.1
		L593.3,786.6 L594.6,786.1 L595.9,785.6 L597.2,785.1 L598.5,784.6 L599.9,784.1 L601.2,783.6 L602.5,783.1
		L603.8,782.5 L605.1,782.0 L606.5,781.5 L607.8,780.9 L609.1,780.4 L610.4,779.8 L611.7,779.3 L613.1,778.7
		L614.4,778.2 L615.7,777.6 L617.0,777.0 L618.3,776.5 L619.6,775.9 L621.0,775.3 L622.3,774.7 L623.6,774.1
		L624.9,773.5 L626.2,772.9 L627.6,772.3 L628.9,771.7 L630.2,771.1 L631.5,770.5 L632.8,769.9 L634.2,769.3
		L635.5,768.6 L636.8,768.0 L638.1,767.4 L639.4,766.7 L640.7,766.1 L642.1,765.4 L643.4,764.8 L644.7,764.1
		L646.0,763.5 L647.3,762.8 L648.7,762.1 L650.0,761.4 L651.3,760.8 L652.6,760.1 L653.9,759.4 L655.3,758.7
		L656.6,758.0 L657.9,757.3 L659.2,756.6 L660.5,755.8 L661.8,755.1 L663.2,754.4 L664.5,753.7 L665.8,752.9
		L667.1,752.2 L668.4,751.5 L669.8,750.7 L671.1,749.9 L672.4,749.2 L673.7,748.4 L675.0,747.7 L676.3,746.9
		L677.7,746.1 L679.0,745.3 L680.3,744.5 L681.6,743.7 L682.9,742.9 L684.3,742.1 L685.6,741.3 L686.9,740.5
		L688.2,739.7 L689.5,738.9 L690.9,738.0 L692.2,737.2 L693.5,736.3 L694.8,735.5 L696.1,734.6 L697.4,733.8
		L698.8,732.9 L700.1,732.1 L701.4,731.2 L702.7,730.3 L704.0,729.4 L705.4,728.5 L706.7,727.6 L708.0,726.7
		L709.3,725.8 L710.6,724.9 L712.0,724.0 L713.3,723.1 L714.6,722.2 L715.9,721.2 L717.2,720.3 L718.5,719.3
		L719.9,718.4 L721.2,717.4 L722.5,716.5 L723.8,715.5 L725.1,714.5 L726.5,713.6 L727.8,712.6 L729.1,711.6
		L730.4,710.6 L731.7,709.6 L733.1,708.6 L734.4,707.6 L735.7,706.5 L737.0,705.5 L738.3,704.5 L739.6,703.4
		L741.0,702.4 L742.3,701.4 L743.6,700.3 L744.9,699.2 L746.2,698.2 L747.6,697.1 L748.9,696.0 L750.2,694.9
		L751.5,693.9 L752.8,692.8 L754.1,691.7 L755.5,690.5 L756.8,689.4 L758.1,688.3 L759.4,687.2 L760.7,686.0
		L762.1,684.9 L763.4,683.8 L764.7,682.6 L766.0,681.4 L767.3,680.3 L768.7,679.1 L770.0,677.9 L771.3,676.8
		L772.6,675.6 L773.9,674.4 L775.2,673.2 L776.6,672.0 L777.9,670.7 L779.2,669.5 L780.5,668.3 L781.8,667.1
		L783.2,665.8 L784.5,664.6 L785.8,663.3 L787.1,662.0 L788.4,660.8 L789.8,659.5 L791.1,658.2 L792.4,656.9
		L793.7,655.6 L795.0,654.3 L796.3,653.0 L797.7,651.7 L799.0,650.4 L800.3,649.1 L801.6,647.7 L802.9,646.4
		L804.3,645.1 L805.6,643.7 L806.9,642.3 L808.2,641.0 L809.5,639.6 L810.9,638.2 L812.2,636.8 L813.5,635.4
		L814.8,634.0 L816.1,632.6 L817.4,631.2 L818.8,629.8 L820.1,628.4 L821.4,626.9 L822.7,625.5 L824.0,624.0
		L825.4,622.6 L826.7,621.1 L828.0,619.6 L829.3,618.2 L830.6,616.7 L831.9,615.2 L833.3,613.7 L834.6,612.2
		L835.9,610.7 L837.2,609.2 L838.5,607.6 L839.9,606.1 L841.2,604.5 L842.5,603.0 L843.8,601.4 L845.1,599.9
		L846.5,598.3 L847.8,596.7 L849.1,595.2 L850.4,593.6 L851.7,592.0 L853.0,590.4 L854.4,588.7 L855.7,587.1
		L857.0,585.5 L858.3,583.9 L859.6,582.2 L861.0,580.6 L862.3,578.9 L863.6,577.2 L864.9,575.6 L866.2,573.9
		L867.6,572.2 L868.9,570.5 L870.2,568.8 L871.5,567.1 L872.8,565.4 L874.1,563.7 L875.5,561.9 L876.8,560.2
		L878.1,558.4 L879.4,556.7 L880.7,554.9 L882.1,553.2 L883.4,551.4 L884.7,549.6 L886.0,547.8 L887.3,546.0
		L888.7,544.2 L890.0,542.4 L891.3,540.6 L892.6,538.8 L893.9,536.9 L895.2,535.1 L896.6,533.2 L897.9,531.4
		L899.2,529.5 L900.5,527.6 L901.8,525.7 L903.2,523.9 L904.5,522.0 L905.8,520.1 L907.1,518.1 L908.4,516.2
		L909.8,514.3 L911.1,512.4 L912.4,510.4 L913.7,508.5 L915.0,506.5 L916.3,504.6 L917.7,502.6 L919.0,500.6
		L920.3,498.6 L921.6,496.6 L922.9,494.6 L924.3,492.6 L925.6,490.6 L926.9,488.6 L928.2,486.5 L929.5,484.5
		L930.8,482.4 L932.2,480.4 L933.5,478.3 L934.8,476.2 L936.1,474.2 L937.4,472.1 L938.8,470.0 L940.1,467.9
		L941.4,465.8 L942.7,463.6 L944.0,461.5 L945.4,459.4 L946.7,457.2 L948.0,455.1 L949.3,452.9 L950.6,450.8
		L951.9,448.6 L953.3,446.4 L954.6,444.2 L955.9,442.0 L957.2,439.8 L958.5,437.6 L959.9,435.4 L961.2,433.2
		L962.5,430.9 L963.8,428.7 L965.1,426.5 L966.5,424.2 L967.8,421.9 L969.1,419.7 L970.4,417.4 L971.7,415.1
		L973.0,412.8 L974.4,410.5 L975.7,408.2 L977.0,405.9 L978.3,403.5 L979.6,401.2 L981.0,398.9 L982.3,396.5
		L983.6,394.2 L984.9,391.8 L986.2,389.4 L987.6,387.1 L988.9,384.7 L990.2,382.3 L991.5,379.9 L992.8,377.5
		L994.1,375.0 L995.5,372.6 L996.8,370.2 L998.1,367.8 L999.4,365.3 L1000.7,362.9 L1002.1,360.4 L1003.4,357.9
		L1004.7,355.4 L1006.0,353.0 L1007.3,350.5 L1008.6,348.0 L1010.0,345.5 L1011.3,343.0 L1012.6,340.4 L1013.9,337.9
		L1015.2,335.4 L1016.6,332.8 L1017.9,330.3 L1019.2,327.7 L1020.5,325.2 L1021.8,322.6 L1023.2,320.0 L1024.5,317.4
		L1025.8,314.8 L1027.1,312.2 L1028.4,309.6 L1029.7,307.0 L1031.1,304.4 L1032.4,301.8 L1033.7,299.1 L1035.0,296.5
		L1036.3,293.8 L1037.7,291.2 L1039.0,288.5 L1040.3,285.8 L1041.6,283.2 L1042.9,280.5 L1044.3,277.8 L1045.6,275.1
		L1046.9,272.4 L1048.2,269.7 L1049.5,266.9 L1050.8,264.2 L1052.2,261.5 L1053.5,258.7 L1054.8,256.0 L1056.1,253.2
		L1057.4,250.5 L1058.8,247.7 L1060.1,244.9 L1061.4,242.2 L1062.7,239.4 L1064.0,236.6 L1065.4,233.8 L1066.7,231.0
		L1068.0,228.2 L1069.3,225.3 L1070.6,222.5 L1071.9,219.7 L1073.3,216.8 L1074.6,214.0 L1075.9,211.1 L1077.2,208.3
		L1078.5,205.4 L1079.9,202.5 L1081.2,199.7 L1082.5,196.8 L1083.8,193.9 L1085.1,191.0 L1086.4,188.1 L1087.8,185.2
		L1089.1,182.3 L1090.4,179.4 L1091.7,176.4 L1093.0,173.5 L1094.4,170.6 L1095.7,167.6 L1097.0,164.7 L1098.3,161.7
		L1099.6,158.8 L1101.0,155.8 L1102.3,152.8 L1103.6,149.9 L1104.9,146.9 L1106.2,143.9 L1107.5,140.9 L1108.9,137.9
		L1110.2,134.9 L1111.5,131.9 L1112.8,128.9 L1114.1,125.9 L1115.5,122.8 L1116.8,119.8 L1118.1,116.8 L1119.4,113.7
		L1120.7,110.7 L1122.1,107.6 L1123.4,104.6 L1124.7,101.5 L1126.0,98.5 L1127.3,95.4 L1128.6,92.3 L1130.0,89.2
		L1131.3,86.2 L1132.6,83.1 L1133.9,80.0 L1135.2,76.9 L1136.6,73.8 L1137.9,70.7 L1139.2,67.6 L1140.5,64.5
		L1141.8,61.3 L1143.2,58.2 L1144.5,55.1 L1145.8,52.0 L1147.1,48.8 L1148.4,45.7 L1149.7,42.5 L1151.1,39.4
		L1152.4,36.3 L1153.7,33.1  '/></g>
	</g>
	<g id="gnuplot_plot_3" ><title>3</title>
<g fill="none" color="black" stroke="currentColor" stroke-width="1.00" stroke-linecap="butt" stroke-linejoin="miter">
	<g transform="translate(1029.4,139.3)" stroke="none" fill="black" font-family="Times New Roman" font-size="22.00"  text-anchor="end">
		<text><tspan font-family="Times New Roman" >3</tspan></text>
	</g>
</g>
<g fill="none" color="black" stroke="currentColor" stroke-width="1.00" stroke-linecap="butt" stroke-linejoin="miter">
	<path stroke='rgb( 86, 180, 233)'  d='M1044.8,132.1 L1122.9,132.1 M100.1,834.0 L101.4,834.0 L102.7,834.0 L104.1,834.0 L105.4,834.0 L106.7,834.0
		L108.0,834.0 L109.3,834.0 L110.6,834.0 L112.0,834.0 L113.3,834.0 L114.6,834.0 L115.9,834.0 L117.2,834.0
		L118.6,834.0 L119.9,834.0 L121.2,834.0 L122.5,834.0 L123.8,834.0 L125.2,834.0 L126.5,834.0 L127.8,834.0
		L129.1,834.0 L130.4,834.0 L131.7,834.0 L133.1,834.0 L134.4,834.0 L135.7,834.0 L137.0,834.0 L138.3,834.0
		L139.7,834.0 L141.0,834.0 L142.3,834.0 L143.6,834.0 L144.9,834.0 L146.3,834.0 L147.6,834.0 L148.9,834.0
		L150.2,834.0 L151.5,834.0 L152.8,834.0 L154.2,834.0 L155.5,834.0 L156.8,834.0 L158.1,834.0 L159.4,834.0
		L160.8,834.0 L162.1,834.0 L163.4,834.0 L164.7,834.0 L166.0,834.0 L167.4,834.0 L168.7,834.0 L170.0,834.0
		L171.3,834.0 L172.6,834.0 L173.9,834.0 L175.3,834.0 L176.6,834.0 L177.9,834.0 L179.2,834.0 L180.5,834.0
		L181.9,834.0 L183.2,834.0 L184.5,834.0 L185.8,834.0 L187.1,834.0 L188.4,834.0 L189.8,834.0 L191.1,834.0
		L192.4,834.0 L193.7,834.0 L195.0,834.0 L196.4,834.0 L197.7,834.0 L199.0,834.0 L200.3,834.0 L201.6,834.0
		L203.0,834.0 L204.3,834.0 L205.6,834.0 L206.9,834.0 L208.2,834.0 L209.5,834.0 L210.9,834.0 L212.2,834.0
		L213.5,834.0 L214.8,834.0 L216.1,834.0 L217.5,834.0 L218.8,834.0 L220.1,834.0 L221.4,834.0 L222.7,834.0
		L224.1,834.0 L225.4,834.0 L226.7,834.0 L228.0,834.0 L229.3,834.0 L230.6,834.0 L232.0,834.0 L233.3,834.0
		L234.6,834.0 L235.9,834.0 L237.2,834.0 L238.6,834.0 L239.9,834.0 L241.2,834.0 L242.5,834.0 L243.8,834.0
		L245.2,834.0 L246.5,834.0 L247.8,834.0 L249.1,834.0 L250.4,834.0 L251.7,834.0 L253.1,834.0 L254.4,834.0
		L255.7,834.0 L257.0,834.0 L258.3,834.0 L259.7,834.0 L261.0,834.0 L262.3,834.0 L263.6,834.0 L264.9,834.0
		L266.2,834.0 L267.6,834.0 L268.9,834.0 L270.2,834.0 L271.5,834.0 L272.8,834.0 L274.2,834.0 L275.5,834.0
		L276.8,834.0 L278.1,834.0 L279.4,834.0 L280.8,834.0 L282.1,834.0 L283.4,834.0 L284.7,834.0 L286.0,834.0
		L287.3,834.0 L288.7,834.0 L290.0,834.0 L291.3,834.0 L292.6,834.0 L293.9,834.0 L295.3,834.0 L296.6,834.0
		L297.9,834.0 L299.2,834.0 L300.5,834.0 L301.9,834.0 L303.2,834.0 L304.5,834.0 L305.8,834.0 L307.1,834.0
		L308.4,834.0 L309.8,834.0 L311.1,834.0 L312.4,834.0 L313.7,834.0 L315.0,834.0 L316.4,834.0 L317.7,834.0
		L319.0,834.0 L320.3,834.0 L321.6,834.0 L323.0,834.0 L324.3,834.0 L325.6,834.0 L326.9,834.0 L328.2,834.0
		L329.5,834.0 L330.9,834.0 L332.2,834.0 L333.5,834.0 L334.8,834.0 L336.1,834.0 L337.5,834.0 L338.8,834.0
		L340.1,834.0 L341.4,834.0 L342.7,834.0 L344.0,834.0 L345.4,834.0 L346.7,834.0 L348.0,834.0 L349.3,834.0
		L350.6,834.0 L352.0,834.0 L353.3,834.0 L354.6,834.0 L355.9,834.0 L357.2,834.0 L358.6,834.0 L359.9,834.0
		L361.2,834.0 L362.5,834.0 L363.8,834.0 L365.1,834.0 L366.5,834.0 L367.8,834.0 L369.1,834.0 L370.4,834.0
		L371.7,834.0 L373.1,834.0 L374.4,834.0 L375.7,834.0 L377.0,834.0 L378.3,834.0 L379.7,834.0 L381.0,834.0
		L382.3,834.0 L383.6,834.0 L384.9,834.0 L386.2,834.0 L387.6,834.0 L388.9,834.0 L390.2,834.0 L391.5,834.0
		L392.8,834.0 L394.2,834.0 L395.5,834.0 L396.8,833.9 L398.1,833.9 L399.4,833.9 L400.8,833.9 L402.1,833.9
		L403.4,833.9 L404.7,833.9 L406.0,833.9 L407.3,833.9 L408.7,833.9 L410.0,833.9 L411.3,833.9 L412.6,833.9
		L413.9,833.9 L415.3,833.9 L416.6,833.9 L417.9,833.9 L419.2,833.9 L420.5,833.9 L421.9,833.9 L423.2,833.9
		L424.5,833.9 L425.8,833.9 L427.1,833.9 L428.4,833.9 L429.8,833.9 L431.1,833.9 L432.4,833.9 L433.7,833.9
		L435.0,833.9 L436.4,833.9 L437.7,833.9 L439.0,833.9 L440.3,833.8 L441.6,833.8 L442.9,833.8 L444.3,833.8
		L445.6,833.8 L446.9,833.8 L448.2,833.8 L449.5,833.8 L450.9,833.8 L452.2,833.8 L453.5,833.8 L454.8,833.8
		L456.1,833.8 L457.5,833.8 L458.8,833.8 L460.1,833.8 L461.4,833.8 L462.7,833.8 L464.0,833.7 L465.4,833.7
		L466.7,833.7 L468.0,833.7 L469.3,833.7 L470.6,833.7 L472.0,833.7 L473.3,833.7 L474.6,833.7 L475.9,833.7
		L477.2,833.7 L478.6,833.6 L479.9,833.6 L481.2,833.6 L482.5,833.6 L483.8,833.6 L485.1,833.6 L486.5,833.6
		L487.8,833.6 L489.1,833.6 L490.4,833.6 L491.7,833.5 L493.1,833.5 L494.4,833.5 L495.7,833.5 L497.0,833.5
		L498.3,833.5 L499.7,833.5 L501.0,833.4 L502.3,833.4 L503.6,833.4 L504.9,833.4 L506.2,833.4 L507.6,833.4
		L508.9,833.4 L510.2,833.3 L511.5,833.3 L512.8,833.3 L514.2,833.3 L515.5,833.3 L516.8,833.2 L518.1,833.2
		L519.4,833.2 L520.7,833.2 L522.1,833.2 L523.4,833.2 L524.7,833.1 L526.0,833.1 L527.3,833.1 L528.7,833.1
		L530.0,833.0 L531.3,833.0 L532.6,833.0 L533.9,833.0 L535.3,832.9 L536.6,832.9 L537.9,832.9 L539.2,832.9
		L540.5,832.8 L541.8,832.8 L543.2,832.8 L544.5,832.8 L545.8,832.7 L547.1,832.7 L548.4,832.7 L549.8,832.6
		L551.1,832.6 L552.4,832.6 L553.7,832.5 L555.0,832.5 L556.4,832.5 L557.7,832.4 L559.0,832.4 L560.3,832.4
		L561.6,832.3 L562.9,832.3 L564.3,832.2 L565.6,832.2 L566.9,832.2 L568.2,832.1 L569.5,832.1 L570.9,832.0
		L572.2,832.0 L573.5,831.9 L574.8,831.9 L576.1,831.9 L577.5,831.8 L578.8,831.8 L580.1,831.7 L581.4,831.7
		L582.7,831.6 L584.0,831.6 L585.4,831.5 L586.7,831.4 L588.0,831.4 L589.3,831.3 L590.6,831.3 L592.0,831.2
		L593.3,831.2 L594.6,831.1 L595.9,831.0 L597.2,831.0 L598.5,830.9 L599.9,830.9 L601.2,830.8 L602.5,830.7
		L603.8,830.7 L605.1,830.6 L606.5,830.5 L607.8,830.4 L609.1,830.4 L610.4,830.3 L611.7,830.2 L613.1,830.1
		L614.4,830.1 L615.7,830.0 L617.0,829.9 L618.3,829.8 L619.6,829.7 L621.0,829.6 L622.3,829.6 L623.6,829.5
		L624.9,829.4 L626.2,829.3 L627.6,829.2 L628.9,829.1 L630.2,829.0 L631.5,828.9 L632.8,828.8 L634.2,828.7
		L635.5,828.6 L636.8,828.5 L638.1,828.4 L639.4,828.3 L640.7,828.2 L642.1,828.1 L643.4,827.9 L644.7,827.8
		L646.0,827.7 L647.3,827.6 L648.7,827.5 L650.0,827.3 L651.3,827.2 L652.6,827.1 L653.9,827.0 L655.3,826.8
		L656.6,826.7 L657.9,826.6 L659.2,826.4 L660.5,826.3 L661.8,826.1 L663.2,826.0 L664.5,825.8 L665.8,825.7
		L667.1,825.5 L668.4,825.4 L669.8,825.2 L671.1,825.1 L672.4,824.9 L673.7,824.7 L675.0,824.6 L676.3,824.4
		L677.7,824.2 L679.0,824.1 L680.3,823.9 L681.6,823.7 L682.9,823.5 L684.3,823.3 L685.6,823.1 L686.9,822.9
		L688.2,822.8 L689.5,822.6 L690.9,822.4 L692.2,822.1 L693.5,821.9 L694.8,821.7 L696.1,821.5 L697.4,821.3
		L698.8,821.1 L700.1,820.9 L701.4,820.6 L702.7,820.4 L704.0,820.2 L705.4,819.9 L706.7,819.7 L708.0,819.5
		L709.3,819.2 L710.6,819.0 L712.0,818.7 L713.3,818.4 L714.6,818.2 L715.9,817.9 L717.2,817.6 L718.5,817.4
		L719.9,817.1 L721.2,816.8 L722.5,816.5 L723.8,816.2 L725.1,815.9 L726.5,815.7 L727.8,815.3 L729.1,815.0
		L730.4,814.7 L731.7,814.4 L733.1,814.1 L734.4,813.8 L735.7,813.5 L737.0,813.1 L738.3,812.8 L739.6,812.4
		L741.0,812.1 L742.3,811.7 L743.6,811.4 L744.9,811.0 L746.2,810.7 L747.6,810.3 L748.9,809.9 L750.2,809.5
		L751.5,809.1 L752.8,808.8 L754.1,808.4 L755.5,808.0 L756.8,807.6 L758.1,807.1 L759.4,806.7 L760.7,806.3
		L762.1,805.9 L763.4,805.4 L764.7,805.0 L766.0,804.6 L767.3,804.1 L768.7,803.6 L770.0,803.2 L771.3,802.7
		L772.6,802.2 L773.9,801.7 L775.2,801.3 L776.6,800.8 L777.9,800.3 L779.2,799.8 L780.5,799.2 L781.8,798.7
		L783.2,798.2 L784.5,797.7 L785.8,797.1 L787.1,796.6 L788.4,796.0 L789.8,795.5 L791.1,794.9 L792.4,794.3
		L793.7,793.7 L795.0,793.1 L796.3,792.5 L797.7,791.9 L799.0,791.3 L800.3,790.7 L801.6,790.1 L802.9,789.4
		L804.3,788.8 L805.6,788.1 L806.9,787.5 L808.2,786.8 L809.5,786.1 L810.9,785.5 L812.2,784.8 L813.5,784.1
		L814.8,783.4 L816.1,782.6 L817.4,781.9 L818.8,781.2 L820.1,780.4 L821.4,779.7 L822.7,778.9 L824.0,778.2
		L825.4,777.4 L826.7,776.6 L828.0,775.8 L829.3,775.0 L830.6,774.2 L831.9,773.3 L833.3,772.5 L834.6,771.7
		L835.9,770.8 L837.2,769.9 L838.5,769.1 L839.9,768.2 L841.2,767.3 L842.5,766.4 L843.8,765.5 L845.1,764.5
		L846.5,763.6 L847.8,762.7 L849.1,761.7 L850.4,760.7 L851.7,759.7 L853.0,758.8 L854.4,757.8 L855.7,756.7
		L857.0,755.7 L858.3,754.7 L859.6,753.6 L861.0,752.6 L862.3,751.5 L863.6,750.4 L864.9,749.3 L866.2,748.2
		L867.6,747.1 L868.9,746.0 L870.2,744.8 L871.5,743.7 L872.8,742.5 L874.1,741.3 L875.5,740.1 L876.8,738.9
		L878.1,737.7 L879.4,736.5 L880.7,735.2 L882.1,734.0 L883.4,732.7 L884.7,731.4 L886.0,730.1 L887.3,728.8
		L888.7,727.5 L890.0,726.1 L891.3,724.8 L892.6,723.4 L893.9,722.0 L895.2,720.6 L896.6,719.2 L897.9,717.8
		L899.2,716.3 L900.5,714.9 L901.8,713.4 L903.2,711.9 L904.5,710.4 L905.8,708.9 L907.1,707.4 L908.4,705.8
		L909.8,704.2 L911.1,702.7 L912.4,701.1 L913.7,699.5 L915.0,697.8 L916.3,696.2 L917.7,694.5 L919.0,692.8
		L920.3,691.2 L921.6,689.4 L922.9,687.7 L924.3,686.0 L925.6,684.2 L926.9,682.4 L928.2,680.6 L929.5,678.8
		L930.8,677.0 L932.2,675.1 L933.5,673.3 L934.8,671.4 L936.1,669.5 L937.4,667.6 L938.8,665.6 L940.1,663.7
		L941.4,661.7 L942.7,659.7 L944.0,657.7 L945.4,655.6 L946.7,653.6 L948.0,651.5 L949.3,649.4 L950.6,647.3
		L951.9,645.2 L953.3,643.0 L954.6,640.9 L955.9,638.7 L957.2,636.5 L958.5,634.2 L959.9,632.0 L961.2,629.7
		L962.5,627.4 L963.8,625.1 L965.1,622.8 L966.5,620.4 L967.8,618.1 L969.1,615.7 L970.4,613.3 L971.7,610.8
		L973.0,608.4 L974.4,605.9 L975.7,603.4 L977.0,600.9 L978.3,598.3 L979.6,595.7 L981.0,593.1 L982.3,590.5
		L983.6,587.9 L984.9,585.2 L986.2,582.6 L987.6,579.9 L988.9,577.1 L990.2,574.4 L991.5,571.6 L992.8,568.8
		L994.1,566.0 L995.5,563.1 L996.8,560.3 L998.1,557.4 L999.4,554.5 L1000.7,551.5 L1002.1,548.6 L1003.4,545.6
		L1004.7,542.6 L1006.0,539.5 L1007.3,536.5 L1008.6,533.4 L1010.0,530.3 L1011.3,527.1 L1012.6,524.0 L1013.9,520.8
		L1015.2,517.6 L1016.6,514.4 L1017.9,511.1 L1019.2,507.8 L1020.5,504.5 L1021.8,501.2 L1023.2,497.8 L1024.5,494.4
		L1025.8,491.0 L1027.1,487.6 L1028.4,484.1 L1029.7,480.6 L1031.1,477.1 L1032.4,473.5 L1033.7,470.0 L1035.0,466.4
		L1036.3,462.7 L1037.7,459.1 L1039.0,455.4 L1040.3,451.7 L1041.6,448.0 L1042.9,444.2 L1044.3,440.4 L1045.6,436.6
		L1046.9,432.8 L1048.2,428.9 L1049.5,425.0 L1050.8,421.1 L1052.2,417.2 L1053.5,413.2 L1054.8,409.2 L1056.1,405.2
		L1057.4,401.1 L1058.8,397.0 L1060.1,392.9 L1061.4,388.8 L1062.7,384.6 L1064.0,380.4 L1065.4,376.2 L1066.7,371.9
		L1068.0,367.7 L1069.3,363.4 L1070.6,359.0 L1071.9,354.7 L1073.3,350.3 L1074.6,345.9 L1075.9,341.4 L1077.2,337.0
		L1078.5,332.5 L1079.9,327.9 L1081.2,323.4 L1082.5,318.8 L1083.8,314.2 L1085.1,309.6 L1086.4,304.9 L1087.8,300.2
		L1089.1,295.5 L1090.4,290.7 L1091.7,286.0 L1093.0,281.2 L1094.4,276.3 L1095.7,271.5 L1097.0,266.6 L1098.3,261.7
		L1099.6,256.8 L1101.0,251.8 L1102.3,246.8 L1103.6,241.8 L1104.9,236.8 L1106.2,231.7 L1107.5,226.6 L1108.9,221.5
		L1110.2,216.3 L1111.5,211.2 L1112.8,206.0 L1114.1,200.7 L1115.5,195.5 L1116.8,190.2 L1118.1,184.9 L1119.4,179.6
		L1120.7,174.2 L1122.1,168.9 L1123.4,163.5 L1124.7,158.1 L1126.0,152.6 L1127.3,147.1 L1128.6,141.6 L1130.0,136.1
		L1131.3,130.6 L1132.6,125.0 L1133.9,119.4 L1135.2,113.8 L1136.6,108.2 L1137.9,102.6 L1139.2,96.9 L1140.5,91.2
		L1141.8,85.5 L1143.2,79.7 L1144.5,74.0 L1145.8,68.2 L1147.1,62.4 L1148.4,56.6 L1149.7,50.7 L1151.1,44.9
		L1152.4,39.0 L1153.7,33.1  '/></g>
	</g>
<g fill="none" color="white" stroke="rgb( 86, 180, 233)" stroke-width="2.00" stroke-linecap="butt" stroke-linejoin="miter">
</g>
<g fill="none" color="black" stroke="currentColor" stroke-width="2.00" stroke-linecap="butt" stroke-linejoin="miter">
</g>
<g fill="none" color="black" stroke="black" stroke-width="1.00" stroke-linecap="butt" stroke-linejoin="miter">
</g>
<g fill="none" color="black" stroke="currentColor" stroke-width="1.00" stroke-linecap="butt" stroke-linejoin="miter">
	<path stroke='black'  d='M100.1,33.1 L100.1,834.0 L1153.7,834.0 L1153.7,33.1 L100.1,33.1 Z  '/></g>
<g fill="none" color="black" stroke="currentColor" stroke-width="1.00" stroke-linecap="butt" stroke-linejoin="miter">
</g>
</g>
</svg>

