<?xml version="1.0" encoding="iso-8859-1"  standalone="no"?>
<svg 
 width="1200" height="900"
 viewBox="0 0 1200 900"
 xmlns="http://www.w3.org/2000/svg"
 xmlns:xlink="http://www.w3.org/1999/xlink"
>

<title>Gnuplot</title>
<desc>Produced by GNUPLOT 5.2 patchlevel 2 </desc>

<g id="gnuplot_canvas">

<rect x="0" y="0" width="1200" height="900" fill="none"/>
<defs>

	<circle id='gpDot' r='0.5' stroke-width='0.5'/>
	<path id='gpPt0' stroke-width='0.121' stroke='currentColor' d='M-1,0 h2 M0,-1 v2'/>
	<path id='gpPt1' stroke-width='0.121' stroke='currentColor' d='M-1,-1 L1,1 M1,-1 L-1,1'/>
	<path id='gpPt2' stroke-width='0.121' stroke='currentColor' d='M-1,0 L1,0 M0,-1 L0,1 M-1,-1 L1,1 M-1,1 L1,-1'/>
	<rect id='gpPt3' stroke-width='0.121' stroke='currentColor' x='-1' y='-1' width='2' height='2'/>
	<rect id='gpPt4' stroke-width='0.121' stroke='currentColor' fill='currentColor' x='-1' y='-1' width='2' height='2'/>
	<circle id='gpPt5' stroke-width='0.121' stroke='currentColor' cx='0' cy='0' r='1'/>
	<use xlink:href='#gpPt5' id='gpPt6' fill='currentColor' stroke='none'/>
	<path id='gpPt7' stroke-width='0.121' stroke='currentColor' d='M0,-1.33 L-1.33,0.67 L1.33,0.67 z'/>
	<use xlink:href='#gpPt7' id='gpPt8' fill='currentColor' stroke='none'/>
	<use xlink:href='#gpPt7' id='gpPt9' stroke='currentColor' transform='rotate(180)'/>
	<use xlink:href='#gpPt9' id='gpPt10' fill='currentColor' stroke='none'/>
	<use xlink:href='#gpPt3' id='gpPt11' stroke='currentColor' transform='rotate(45)'/>
	<use xlink:href='#gpPt11' id='gpPt12' fill='currentColor' stroke='none'/>
	<path id='gpPt13' stroke-width='0.121' stroke='currentColor' d='M0,1.330 L1.265,0.411 L0.782,-1.067 L-0.782,-1.076 L-1.265,0.411 z'/>
	<use xlink:href='#gpPt13' id='gpPt14' fill='currentColor' stroke='none'/>
	<filter id='textbox' filterUnits='objectBoundingBox' x='0' y='0' height='1' width='1'>
	  <feFlood flood-color='white' flood-opacity='1' result='bgnd'/>
	  <feComposite in='SourceGraphic' in2='bgnd' operator='atop'/>
	</filter>
	<filter id='greybox' filterUnits='objectBoundingBox' x='0' y='0' height='1' width='1'>
	  <feFlood flood-color='lightgrey' flood-opacity='1' result='grey'/>
	  <feComposite in='SourceGraphic' in2='grey' operator='atop'/>
	</filter>
</defs>
<g fill="none" color="white" stroke="black" stroke-width="1.00" stroke-linecap="butt" stroke-linejoin="miter">
</g>
<g fill="none" color="black" stroke="currentColor" stroke-width="1.00" stroke-linecap="butt" stroke-linejoin="miter">
</g>
<g fill="none" color="gray" stroke="currentColor" stroke-width="1.00" stroke-linecap="butt" stroke-linejoin="miter">
	<path stroke='rgb(175, 175, 175)' stroke-dasharray='2,4' class="gridline"  d='M100.1,834.0 L1153.7,834.0  '/></g>
<g fill="none" color="black" stroke="currentColor" stroke-width="1.00" stroke-linecap="butt" stroke-linejoin="miter">
	<path stroke='black'  d='M100.1,834.0 L116.6,834.0 M1153.7,834.0 L1137.2,834.0  '/>	<g transform="translate(84.7,841.2)" stroke="none" fill="black" font-family="Times New Roman" font-size="22.00"  text-anchor="end">
		<text><tspan font-family="Times New Roman" > 0</tspan></text>
	</g>
</g>
<g fill="none" color="black" stroke="currentColor" stroke-width="1.00" stroke-linecap="butt" stroke-linejoin="miter">
</g>
<g fill="none" color="gray" stroke="currentColor" stroke-width="1.00" stroke-linecap="butt" stroke-linejoin="miter">
	<path stroke='rgb(175, 175, 175)' stroke-dasharray='2,4' class="gridline"  d='M100.1,673.8 L1153.7,673.8  '/></g>
<g fill="none" color="black" stroke="currentColor" stroke-width="1.00" stroke-linecap="butt" stroke-linejoin="miter">
	<path stroke='black'  d='M100.1,673.8 L116.6,673.8 M1153.7,673.8 L1137.2,673.8  '/>	<g transform="translate(84.7,681.0)" stroke="none" fill="black" font-family="Times New Roman" font-size="22.00"  text-anchor="end">
		<text><tspan font-family="Times New Roman" > 0.2</tspan></text>
	</g>
</g>
<g fill="none" color="black" stroke="currentColor" stroke-width="1.00" stroke-linecap="butt" stroke-linejoin="miter">
</g>
<g fill="none" color="gray" stroke="currentColor" stroke-width="1.00" stroke-linecap="butt" stroke-linejoin="miter">
	<path stroke='rgb(175, 175, 175)' stroke-dasharray='2,4' class="gridline"  d='M100.1,513.6 L1153.7,513.6  '/></g>
<g fill="none" color="black" stroke="currentColor" stroke-width="1.00" stroke-linecap="butt" stroke-linejoin="miter">
	<path stroke='black'  d='M100.1,513.6 L116.6,513.6 M1153.7,513.6 L1137.2,513.6  '/>	<g transform="translate(84.7,520.8)" stroke="none" fill="black" font-family="Times New Roman" font-size="22.00"  text-anchor="end">
		<text><tspan font-family="Times New Roman" > 0.4</tspan></text>
	</g>
</g>
<g fill="none" color="black" stroke="currentColor" stroke-width="1.00" stroke-linecap="butt" stroke-linejoin="miter">
</g>
<g fill="none" color="gray" stroke="currentColor" stroke-width="1.00" stroke-linecap="butt" stroke-linejoin="miter">
	<path stroke='rgb(175, 175, 175)' stroke-dasharray='2,4' class="gridline"  d='M100.1,353.5 L1153.7,353.5  '/></g>
<g fill="none" color="black" stroke="currentColor" stroke-width="1.00" stroke-linecap="butt" stroke-linejoin="miter">
	<path stroke='black'  d='M100.1,353.5 L116.6,353.5 M1153.7,353.5 L1137.2,353.5  '/>	<g transform="translate(84.7,360.7)" stroke="none" fill="black" font-family="Times New Roman" font-size="22.00"  text-anchor="end">
		<text><tspan font-family="Times New Roman" > 0.6</tspan></text>
	</g>
</g>
<g fill="none" color="black" stroke="currentColor" stroke-width="1.00" stroke-linecap="butt" stroke-linejoin="miter">
</g>
<g fill="none" color="gray" stroke="currentColor" stroke-width="1.00" stroke-linecap="butt" stroke-linejoin="miter">
	<path stroke='rgb(175, 175, 175)' stroke-dasharray='2,4' class="gridline"  d='M100.1,193.3 L829.2,193.3 M1138.3,193.3 L1153.7,193.3  '/></g>
<g fill="none" color="black" stroke="currentColor" stroke-width="1.00" stroke-linecap="butt" stroke-linejoin="miter">
	<path stroke='black'  d='M100.1,193.3 L116.6,193.3 M1153.7,193.3 L1137.2,193.3  '/>	<g transform="translate(84.7,200.5)" stroke="none" fill="black" font-family="Times New Roman" font-size="22.00"  text-anchor="end">
		<text><tspan font-family="Times New Roman" > 0.8</tspan></text>
	</g>
</g>
<g fill="none" color="black" stroke="currentColor" stroke-width="1.00" stroke-linecap="butt" stroke-linejoin="miter">
</g>
<g fill="none" color="gray" stroke="currentColor" stroke-width="1.00" stroke-linecap="butt" stroke-linejoin="miter">
	<path stroke='rgb(175, 175, 175)' stroke-dasharray='2,4' class="gridline"  d='M100.1,33.1 L1153.7,33.1  '/></g>
<g fill="none" color="black" stroke="currentColor" stroke-width="1.00" stroke-linecap="butt" stroke-linejoin="miter">
	<path stroke='black'  d='M100.1,33.1 L116.6,33.1 M1153.7,33.1 L1137.2,33.1  '/>	<g transform="translate(84.7,40.3)" stroke="none" fill="black" font-family="Times New Roman" font-size="22.00"  text-anchor="end">
		<text><tspan font-family="Times New Roman" > 1</tspan></text>
	</g>
</g>
<g fill="none" color="black" stroke="currentColor" stroke-width="1.00" stroke-linecap="butt" stroke-linejoin="miter">
</g>
<g fill="none" color="gray" stroke="currentColor" stroke-width="1.00" stroke-linecap="butt" stroke-linejoin="miter">
	<path stroke='rgb(175, 175, 175)' stroke-dasharray='2,4' class="gridline"  d='M100.1,834.0 L100.1,33.1  '/></g>
<g fill="none" color="black" stroke="currentColor" stroke-width="1.00" stroke-linecap="butt" stroke-linejoin="miter">
	<path stroke='black'  d='M100.1,834.0 L100.1,817.5 M100.1,33.1 L100.1,49.6  '/>	<g transform="translate(100.1,874.2)" stroke="none" fill="black" font-family="Times New Roman" font-size="22.00"  text-anchor="middle">
		<text><tspan font-family="Times New Roman" > 0</tspan></text>
	</g>
</g>
<g fill="none" color="black" stroke="currentColor" stroke-width="1.00" stroke-linecap="butt" stroke-linejoin="miter">
</g>
<g fill="none" color="gray" stroke="currentColor" stroke-width="1.00" stroke-linecap="butt" stroke-linejoin="miter">
	<path stroke='rgb(175, 175, 175)' stroke-dasharray='2,4' class="gridline"  d='M310.8,834.0 L310.8,33.1  '/></g>
<g fill="none" color="black" stroke="currentColor" stroke-width="1.00" stroke-linecap="butt" stroke-linejoin="miter">
	<path stroke='black'  d='M310.8,834.0 L310.8,817.5 M310.8,33.1 L310.8,49.6  '/>	<g transform="translate(310.8,874.2)" stroke="none" fill="black" font-family="Times New Roman" font-size="22.00"  text-anchor="middle">
		<text><tspan font-family="Times New Roman" > 0.2</tspan></text>
	</g>
</g>
<g fill="none" color="black" stroke="currentColor" stroke-width="1.00" stroke-linecap="butt" stroke-linejoin="miter">
</g>
<g fill="none" color="gray" stroke="currentColor" stroke-width="1.00" stroke-linecap="butt" stroke-linejoin="miter">
	<path stroke='rgb(175, 175, 175)' stroke-dasharray='2,4' class="gridline"  d='M521.5,834.0 L521.5,33.1  '/></g>
<g fill="none" color="black" stroke="currentColor" stroke-width="1.00" stroke-linecap="butt" stroke-linejoin="miter">
	<path stroke='black'  d='M521.5,834.0 L521.5,817.5 M521.5,33.1 L521.5,49.6  '/>	<g transform="translate(521.5,874.2)" stroke="none" fill="black" font-family="Times New Roman" font-size="22.00"  text-anchor="middle">
		<text><tspan font-family="Times New Roman" > 0.4</tspan></text>
	</g>
</g>
<g fill="none" color="black" stroke="currentColor" stroke-width="1.00" stroke-linecap="butt" stroke-linejoin="miter">
</g>
<g fill="none" color="gray" stroke="currentColor" stroke-width="1.00" stroke-linecap="butt" stroke-linejoin="miter">
	<path stroke='rgb(175, 175, 175)' stroke-dasharray='2,4' class="gridline"  d='M732.3,834.0 L732.3,33.1  '/></g>
<g fill="none" color="black" stroke="currentColor" stroke-width="1.00" stroke-linecap="butt" stroke-linejoin="miter">
	<path stroke='black'  d='M732.3,834.0 L732.3,817.5 M732.3,33.1 L732.3,49.6  '/>	<g transform="translate(732.3,874.2)" stroke="none" fill="black" font-family="Times New Roman" font-size="22.00"  text-anchor="middle">
		<text><tspan font-family="Times New Roman" > 0.6</tspan></text>
	</g>
</g>
<g fill="none" color="black" stroke="currentColor" stroke-width="1.00" stroke-linecap="butt" stroke-linejoin="miter">
</g>
<g fill="none" color="gray" stroke="currentColor" stroke-width="1.00" stroke-linecap="butt" stroke-linejoin="miter">
	<path stroke='rgb(175, 175, 175)' stroke-dasharray='2,4' class="gridline"  d='M943.0,834.0 L943.0,247.6 M943.0,49.6 L943.0,33.1  '/></g>
<g fill="none" color="black" stroke="currentColor" stroke-width="1.00" stroke-linecap="butt" stroke-linejoin="miter">
	<path stroke='black'  d='M943.0,834.0 L943.0,817.5 M943.0,33.1 L943.0,49.6  '/>	<g transform="translate(943.0,874.2)" stroke="none" fill="black" font-family="Times New Roman" font-size="22.00"  text-anchor="middle">
		<text><tspan font-family="Times New Roman" > 0.8</tspan></text>
	</g>
</g>
<g fill="none" color="black" stroke="currentColor" stroke-width="1.00" stroke-linecap="butt" stroke-linejoin="miter">
</g>
<g fill="none" color="gray" stroke="currentColor" stroke-width="1.00" stroke-linecap="butt" stroke-linejoin="miter">
	<path stroke='rgb(175, 175, 175)' stroke-dasharray='2,4' class="gridline"  d='M1153.7,834.0 L1153.7,33.1  '/></g>
<g fill="none" color="black" stroke="currentColor" stroke-width="1.00" stroke-linecap="butt" stroke-linejoin="miter">
	<path stroke='black'  d='M1153.7,834.0 L1153.7,817.5 M1153.7,33.1 L1153.7,49.6  '/>	<g transform="translate(1153.7,874.2)" stroke="none" fill="black" font-family="Times New Roman" font-size="22.00"  text-anchor="middle">
		<text><tspan font-family="Times New Roman" > 1</tspan></text>
	</g>
</g>
<g fill="none" color="black" stroke="currentColor" stroke-width="1.00" stroke-linecap="butt" stroke-linejoin="miter">
</g>
<g fill="none" color="black" stroke="currentColor" stroke-width="1.00" stroke-linecap="butt" stroke-linejoin="miter">
	<path stroke='black'  d='M100.1,33.1 L100.1,834.0 L1153.7,834.0 L1153.7,33.1 L100.1,33.1 Z  '/></g>
<g fill="none" color="black" stroke="currentColor" stroke-width="1.00" stroke-linecap="butt" stroke-linejoin="miter">
</g>
	<g id="gnuplot_plot_1" ><title>f1(x)</title>
<g fill="none" color="black" stroke="currentColor" stroke-width="1.00" stroke-linecap="butt" stroke-linejoin="miter">
	<g transform="translate(1029.4,73.3)" stroke="none" fill="black" font-family="Times New Roman" font-size="22.00"  text-anchor="end">
		<text>f1(x)</text>
	</g>
</g>
<g fill="none" color="black" stroke="currentColor" stroke-width="1.00" stroke-linecap="butt" stroke-linejoin="miter">
	<path stroke='rgb(148,   0, 211)'  d='M1044.8,66.1 L1122.9,66.1 M100.1,834.0 L101.4,834.0 L102.7,834.0 L104.1,834.0 L105.4,834.0 L106.7,834.0
		L108.0,834.0 L109.3,834.0 L110.6,834.0 L112.0,833.9 L113.3,833.9 L114.6,833.9 L115.9,833.9 L117.2,833.9
		L118.6,833.9 L119.9,833.8 L121.2,833.8 L122.5,833.8 L123.8,833.8 L125.2,833.7 L126.5,833.7 L127.8,833.7
		L129.1,833.6 L130.4,833.6 L131.7,833.6 L133.1,833.5 L134.4,833.5 L135.7,833.5 L137.0,833.4 L138.3,833.4
		L139.7,833.3 L141.0,833.3 L142.3,833.2 L143.6,833.2 L144.9,833.1 L146.3,833.1 L147.6,833.0 L148.9,833.0
		L150.2,832.9 L151.5,832.9 L152.8,832.8 L154.2,832.8 L155.5,832.7 L156.8,832.6 L158.1,832.6 L159.4,832.5
		L160.8,832.4 L162.1,832.4 L163.4,832.3 L164.7,832.2 L166.0,832.2 L167.4,832.1 L168.7,832.0 L170.0,831.9
		L171.3,831.9 L172.6,831.8 L173.9,831.7 L175.3,831.6 L176.6,831.5 L177.9,831.4 L179.2,831.4 L180.5,831.3
		L181.9,831.2 L183.2,831.1 L184.5,831.0 L185.8,830.9 L187.1,830.8 L188.4,830.7 L189.8,830.6 L191.1,830.5
		L192.4,830.4 L193.7,830.3 L195.0,830.2 L196.4,830.1 L197.7,830.0 L199.0,829.9 L200.3,829.8 L201.6,829.6
		L203.0,829.5 L204.3,829.4 L205.6,829.3 L206.9,829.2 L208.2,829.1 L209.5,828.9 L210.9,828.8 L212.2,828.7
		L213.5,828.6 L214.8,828.4 L216.1,828.3 L217.5,828.2 L218.8,828.0 L220.1,827.9 L221.4,827.8 L222.7,827.6
		L224.1,827.5 L225.4,827.4 L226.7,827.2 L228.0,827.1 L229.3,826.9 L230.6,826.8 L232.0,826.7 L233.3,826.5
		L234.6,826.4 L235.9,826.2 L237.2,826.1 L238.6,825.9 L239.9,825.7 L241.2,825.6 L242.5,825.4 L243.8,825.3
		L245.2,825.1 L246.5,824.9 L247.8,824.8 L249.1,824.6 L250.4,824.5 L251.7,824.3 L253.1,824.1 L254.4,823.9
		L255.7,823.8 L257.0,823.6 L258.3,823.4 L259.7,823.2 L261.0,823.1 L262.3,822.9 L263.6,822.7 L264.9,822.5
		L266.2,822.3 L267.6,822.2 L268.9,822.0 L270.2,821.8 L271.5,821.6 L272.8,821.4 L274.2,821.2 L275.5,821.0
		L276.8,820.8 L278.1,820.6 L279.4,820.4 L280.8,820.2 L282.1,820.0 L283.4,819.8 L284.7,819.6 L286.0,819.4
		L287.3,819.2 L288.7,819.0 L290.0,818.8 L291.3,818.6 L292.6,818.4 L293.9,818.1 L295.3,817.9 L296.6,817.7
		L297.9,817.5 L299.2,817.3 L300.5,817.0 L301.9,816.8 L303.2,816.6 L304.5,816.4 L305.8,816.1 L307.1,815.9
		L308.4,815.7 L309.8,815.5 L311.1,815.2 L312.4,815.0 L313.7,814.8 L315.0,814.5 L316.4,814.3 L317.7,814.0
		L319.0,813.8 L320.3,813.5 L321.6,813.3 L323.0,813.1 L324.3,812.8 L325.6,812.6 L326.9,812.3 L328.2,812.1
		L329.5,811.8 L330.9,811.5 L332.2,811.3 L333.5,811.0 L334.8,810.8 L336.1,810.5 L337.5,810.3 L338.8,810.0
		L340.1,809.7 L341.4,809.5 L342.7,809.2 L344.0,808.9 L345.4,808.6 L346.7,808.4 L348.0,808.1 L349.3,807.8
		L350.6,807.5 L352.0,807.3 L353.3,807.0 L354.6,806.7 L355.9,806.4 L357.2,806.1 L358.6,805.9 L359.9,805.6
		L361.2,805.3 L362.5,805.0 L363.8,804.7 L365.1,804.4 L366.5,804.1 L367.8,803.8 L369.1,803.5 L370.4,803.2
		L371.7,802.9 L373.1,802.6 L374.4,802.3 L375.7,802.0 L377.0,801.7 L378.3,801.4 L379.7,801.1 L381.0,800.8
		L382.3,800.5 L383.6,800.2 L384.9,799.9 L386.2,799.5 L387.6,799.2 L388.9,798.9 L390.2,798.6 L391.5,798.3
		L392.8,797.9 L394.2,797.6 L395.5,797.3 L396.8,797.0 L398.1,796.6 L399.4,796.3 L400.8,796.0 L402.1,795.6
		L403.4,795.3 L404.7,795.0 L406.0,794.6 L407.3,794.3 L408.7,794.0 L410.0,793.6 L411.3,793.3 L412.6,792.9
		L413.9,792.6 L415.3,792.2 L416.6,791.9 L417.9,791.5 L419.2,791.2 L420.5,790.8 L421.9,790.5 L423.2,790.1
		L424.5,789.8 L425.8,789.4 L427.1,789.1 L428.4,788.7 L429.8,788.3 L431.1,788.0 L432.4,787.6 L433.7,787.2
		L435.0,786.9 L436.4,786.5 L437.7,786.1 L439.0,785.8 L440.3,785.4 L441.6,785.0 L442.9,784.6 L444.3,784.3
		L445.6,783.9 L446.9,783.5 L448.2,783.1 L449.5,782.7 L450.9,782.4 L452.2,782.0 L453.5,781.6 L454.8,781.2
		L456.1,780.8 L457.5,780.4 L458.8,780.0 L460.1,779.6 L461.4,779.2 L462.7,778.8 L464.0,778.4 L465.4,778.0
		L466.7,777.6 L468.0,777.2 L469.3,776.8 L470.6,776.4 L472.0,776.0 L473.3,775.6 L474.6,775.2 L475.9,774.8
		L477.2,774.4 L478.6,774.0 L479.9,773.5 L481.2,773.1 L482.5,772.7 L483.8,772.3 L485.1,771.9 L486.5,771.5
		L487.8,771.0 L489.1,770.6 L490.4,770.2 L491.7,769.8 L493.1,769.3 L494.4,768.9 L495.7,768.5 L497.0,768.0
		L498.3,767.6 L499.7,767.2 L501.0,766.7 L502.3,766.3 L503.6,765.8 L504.9,765.4 L506.2,765.0 L507.6,764.5
		L508.9,764.1 L510.2,763.6 L511.5,763.2 L512.8,762.7 L514.2,762.3 L515.5,761.8 L516.8,761.4 L518.1,760.9
		L519.4,760.5 L520.7,760.0 L522.1,759.5 L523.4,759.1 L524.7,758.6 L526.0,758.2 L527.3,757.7 L528.7,757.2
		L530.0,756.8 L531.3,756.3 L532.6,755.8 L533.9,755.4 L535.3,754.9 L536.6,754.4 L537.9,753.9 L539.2,753.5
		L540.5,753.0 L541.8,752.5 L543.2,752.0 L544.5,751.5 L545.8,751.1 L547.1,750.6 L548.4,750.1 L549.8,749.6
		L551.1,749.1 L552.4,748.6 L553.7,748.1 L555.0,747.6 L556.4,747.2 L557.7,746.7 L559.0,746.2 L560.3,745.7
		L561.6,745.2 L562.9,744.7 L564.3,744.2 L565.6,743.7 L566.9,743.2 L568.2,742.6 L569.5,742.1 L570.9,741.6
		L572.2,741.1 L573.5,740.6 L574.8,740.1 L576.1,739.6 L577.5,739.1 L578.8,738.6 L580.1,738.0 L581.4,737.5
		L582.7,737.0 L584.0,736.5 L585.4,736.0 L586.7,735.4 L588.0,734.9 L589.3,734.4 L590.6,733.9 L592.0,733.3
		L593.3,732.8 L594.6,732.3 L595.9,731.7 L597.2,731.2 L598.5,730.7 L599.9,730.1 L601.2,729.6 L602.5,729.0
		L603.8,728.5 L605.1,728.0 L606.5,727.4 L607.8,726.9 L609.1,726.3 L610.4,725.8 L611.7,725.2 L613.1,724.7
		L614.4,724.1 L615.7,723.6 L617.0,723.0 L618.3,722.5 L619.6,721.9 L621.0,721.4 L622.3,720.8 L623.6,720.2
		L624.9,719.7 L626.2,719.1 L627.6,718.6 L628.9,718.0 L630.2,717.4 L631.5,716.9 L632.8,716.3 L634.2,715.7
		L635.5,715.2 L636.8,714.6 L638.1,714.0 L639.4,713.4 L640.7,712.9 L642.1,712.3 L643.4,711.7 L644.7,711.1
		L646.0,710.5 L647.3,710.0 L648.7,709.4 L650.0,708.8 L651.3,708.2 L652.6,707.6 L653.9,707.0 L655.3,706.4
		L656.6,705.8 L657.9,705.3 L659.2,704.7 L660.5,704.1 L661.8,703.5 L663.2,702.9 L664.5,702.3 L665.8,701.7
		L667.1,701.1 L668.4,700.5 L669.8,699.9 L671.1,699.3 L672.4,698.7 L673.7,698.0 L675.0,697.4 L676.3,696.8
		L677.7,696.2 L679.0,695.6 L680.3,695.0 L681.6,694.4 L682.9,693.8 L684.3,693.1 L685.6,692.5 L686.9,691.9
		L688.2,691.3 L689.5,690.7 L690.9,690.0 L692.2,689.4 L693.5,688.8 L694.8,688.2 L696.1,687.5 L697.4,686.9
		L698.8,686.3 L700.1,685.7 L701.4,685.0 L702.7,684.4 L704.0,683.8 L705.4,683.1 L706.7,682.5 L708.0,681.8
		L709.3,681.2 L710.6,680.6 L712.0,679.9 L713.3,679.3 L714.6,678.6 L715.9,678.0 L717.2,677.3 L718.5,676.7
		L719.9,676.1 L721.2,675.4 L722.5,674.8 L723.8,674.1 L725.1,673.4 L726.5,672.8 L727.8,672.1 L729.1,671.5
		L730.4,670.8 L731.7,670.2 L733.1,669.5 L734.4,668.8 L735.7,668.2 L737.0,667.5 L738.3,666.9 L739.6,666.2
		L741.0,665.5 L742.3,664.9 L743.6,664.2 L744.9,663.5 L746.2,662.8 L747.6,662.2 L748.9,661.5 L750.2,660.8
		L751.5,660.2 L752.8,659.5 L754.1,658.8 L755.5,658.1 L756.8,657.4 L758.1,656.8 L759.4,656.1 L760.7,655.4
		L762.1,654.7 L763.4,654.0 L764.7,653.3 L766.0,652.6 L767.3,652.0 L768.7,651.3 L770.0,650.6 L771.3,649.9
		L772.6,649.2 L773.9,648.5 L775.2,647.8 L776.6,647.1 L777.9,646.4 L779.2,645.7 L780.5,645.0 L781.8,644.3
		L783.2,643.6 L784.5,642.9 L785.8,642.2 L787.1,641.5 L788.4,640.8 L789.8,640.1 L791.1,639.4 L792.4,638.7
		L793.7,638.0 L795.0,637.3 L796.3,636.5 L797.7,635.8 L799.0,635.1 L800.3,634.4 L801.6,633.7 L802.9,633.0
		L804.3,632.2 L805.6,631.5 L806.9,630.8 L808.2,630.1 L809.5,629.4 L810.9,628.6 L812.2,627.9 L813.5,627.2
		L814.8,626.5 L816.1,625.7 L817.4,625.0 L818.8,624.3 L820.1,623.6 L821.4,622.8 L822.7,622.1 L824.0,621.4
		L825.4,620.6 L826.7,619.9 L828.0,619.2 L829.3,618.4 L830.6,617.7 L831.9,616.9 L833.3,616.2 L834.6,615.5
		L835.9,614.7 L837.2,614.0 L838.5,613.2 L839.9,612.5 L841.2,611.7 L842.5,611.0 L843.8,610.2 L845.1,609.5
		L846.5,608.7 L847.8,608.0 L849.1,607.2 L850.4,606.5 L851.7,605.7 L853.0,605.0 L854.4,604.2 L855.7,603.5
		L857.0,602.7 L858.3,602.0 L859.6,601.2 L861.0,600.4 L862.3,599.7 L863.6,598.9 L864.9,598.2 L866.2,597.4
		L867.6,596.6 L868.9,595.9 L870.2,595.1 L871.5,594.3 L872.8,593.6 L874.1,592.8 L875.5,592.0 L876.8,591.3
		L878.1,590.5 L879.4,589.7 L880.7,588.9 L882.1,588.2 L883.4,587.4 L884.7,586.6 L886.0,585.8 L887.3,585.1
		L888.7,584.3 L890.0,583.5 L891.3,582.7 L892.6,581.9 L893.9,581.2 L895.2,580.4 L896.6,579.6 L897.9,578.8
		L899.2,578.0 L900.5,577.2 L901.8,576.5 L903.2,575.7 L904.5,574.9 L905.8,574.1 L907.1,573.3 L908.4,572.5
		L909.8,571.7 L911.1,570.9 L912.4,570.1 L913.7,569.3 L915.0,568.5 L916.3,567.7 L917.7,566.9 L919.0,566.1
		L920.3,565.4 L921.6,564.6 L922.9,563.8 L924.3,563.0 L925.6,562.2 L926.9,561.4 L928.2,560.5 L929.5,559.7
		L930.8,558.9 L932.2,558.1 L933.5,557.3 L934.8,556.5 L936.1,555.7 L937.4,554.9 L938.8,554.1 L940.1,553.3
		L941.4,552.5 L942.7,551.7 L944.0,550.9 L945.4,550.0 L946.7,549.2 L948.0,548.4 L949.3,547.6 L950.6,546.8
		L951.9,546.0 L953.3,545.2 L954.6,544.3 L955.9,543.5 L957.2,542.7 L958.5,541.9 L959.9,541.1 L961.2,540.2
		L962.5,539.4 L963.8,538.6 L965.1,537.8 L966.5,537.0 L967.8,536.1 L969.1,535.3 L970.4,534.5 L971.7,533.7
		L973.0,532.8 L974.4,532.0 L975.7,531.2 L977.0,530.3 L978.3,529.5 L979.6,528.7 L981.0,527.9 L982.3,527.0
		L983.6,526.2 L984.9,525.4 L986.2,524.5 L987.6,523.7 L988.9,522.9 L990.2,522.0 L991.5,521.2 L992.8,520.3
		L994.1,519.5 L995.5,518.7 L996.8,517.8 L998.1,517.0 L999.4,516.2 L1000.7,515.3 L1002.1,514.5 L1003.4,513.6
		L1004.7,512.8 L1006.0,512.0 L1007.3,511.1 L1008.6,510.3 L1010.0,509.4 L1011.3,508.6 L1012.6,507.7 L1013.9,506.9
		L1015.2,506.0 L1016.6,505.2 L1017.9,504.3 L1019.2,503.5 L1020.5,502.7 L1021.8,501.8 L1023.2,501.0 L1024.5,500.1
		L1025.8,499.3 L1027.1,498.4 L1028.4,497.6 L1029.7,496.7 L1031.1,495.8 L1032.4,495.0 L1033.7,494.1 L1035.0,493.3
		L1036.3,492.4 L1037.7,491.6 L1039.0,490.7 L1040.3,489.9 L1041.6,489.0 L1042.9,488.2 L1044.3,487.3 L1045.6,486.4
		L1046.9,485.6 L1048.2,484.7 L1049.5,483.9 L1050.8,483.0 L1052.2,482.1 L1053.5,481.3 L1054.8,480.4 L1056.1,479.6
		L1057.4,478.7 L1058.8,477.8 L1060.1,477.0 L1061.4,476.1 L1062.7,475.3 L1064.0,474.4 L1065.4,473.5 L1066.7,472.7
		L1068.0,471.8 L1069.3,470.9 L1070.6,470.1 L1071.9,469.2 L1073.3,468.3 L1074.6,467.5 L1075.9,466.6 L1077.2,465.7
		L1078.5,464.9 L1079.9,464.0 L1081.2,463.1 L1082.5,462.3 L1083.8,461.4 L1085.1,460.5 L1086.4,459.6 L1087.8,458.8
		L1089.1,457.9 L1090.4,457.0 L1091.7,456.2 L1093.0,455.3 L1094.4,454.4 L1095.7,453.6 L1097.0,452.7 L1098.3,451.8
		L1099.6,450.9 L1101.0,450.1 L1102.3,449.2 L1103.6,448.3 L1104.9,447.4 L1106.2,446.6 L1107.5,445.7 L1108.9,444.8
		L1110.2,443.9 L1111.5,443.1 L1112.8,442.2 L1114.1,441.3 L1115.5,440.4 L1116.8,439.6 L1118.1,438.7 L1119.4,437.8
		L1120.7,436.9 L1122.1,436.1 L1123.4,435.2 L1124.7,434.3 L1126.0,433.4 L1127.3,432.5 L1128.6,431.7 L1130.0,430.8
		L1131.3,429.9 L1132.6,429.0 L1133.9,428.1 L1135.2,427.3 L1136.6,426.4 L1137.9,425.5 L1139.2,424.6 L1140.5,423.7
		L1141.8,422.9 L1143.2,422.0 L1144.5,421.1 L1145.8,420.2 L1147.1,419.3 L1148.4,418.5 L1149.7,417.6 L1151.1,416.7
		L1152.4,415.8 L1153.7,414.9  '/></g>
	</g>
	<g id="gnuplot_plot_2" ><title>uaerfc(x,5)</title>
<g fill="none" color="black" stroke="currentColor" stroke-width="1.00" stroke-linecap="butt" stroke-linejoin="miter">
	<g transform="translate(1029.4,106.3)" stroke="none" fill="black" font-family="Times New Roman" font-size="22.00"  text-anchor="end">
		<text>uaerfc(x,5)</text>
	</g>
</g>
<g fill="none" color="black" stroke="currentColor" stroke-width="1.00" stroke-linecap="butt" stroke-linejoin="miter">
	<path stroke='rgb(  0, 158, 115)'  d='M1044.8,99.1 L1122.9,99.1 M100.1,834.0 L101.4,834.0 L102.7,834.0 L104.1,834.0 L105.4,834.0 L106.7,834.0
		L108.0,834.0 L109.3,834.0 L110.6,834.0 L112.0,834.0 L113.3,834.0 L114.6,834.0 L115.9,834.0 L117.2,834.0
		L118.6,834.0 L119.9,834.0 L121.2,834.0 L122.5,834.0 L123.8,834.0 L125.2,834.0 L126.5,834.0 L127.8,834.0
		L129.1,834.0 L130.4,834.0 L131.7,834.0 L133.1,834.0 L134.4,834.0 L135.7,834.0 L137.0,834.0 L138.3,834.0
		L139.7,834.0 L141.0,834.0 L142.3,834.0 L143.6,834.0 L144.9,834.0 L146.3,834.0 L147.6,834.0 L148.9,834.0
		L150.2,834.0 L151.5,834.0 L152.8,834.0 L154.2,834.0 L155.5,834.0 L156.8,834.0 L158.1,834.0 L159.4,834.0
		L160.8,834.0 L162.1,834.0 L163.4,834.0 L164.7,834.0 L166.0,834.0 L167.4,834.0 L168.7,834.0 L170.0,834.0
		L171.3,834.0 L172.6,834.0 L173.9,834.0 L175.3,834.0 L176.6,834.0 L177.9,834.0 L179.2,834.0 L180.5,834.0
		L181.9,834.0 L183.2,834.0 L184.5,834.0 L185.8,834.0 L187.1,834.0 L188.4,834.0 L189.8,834.0 L191.1,834.0
		L192.4,834.0 L193.7,834.0 L195.0,834.0 L196.4,834.0 L197.7,834.0 L199.0,834.0 L200.3,834.0 L201.6,834.0
		L203.0,834.0 L204.3,834.0 L205.6,834.0 L206.9,834.0 L208.2,834.0 L209.5,834.0 L210.9,834.0 L212.2,834.0
		L213.5,834.0 L214.8,834.0 L216.1,834.0 L217.5,834.0 L218.8,834.0 L220.1,834.0 L221.4,834.0 L222.7,834.0
		L224.1,834.0 L225.4,834.0 L226.7,834.0 L228.0,834.0 L229.3,834.0 L230.6,834.0 L232.0,834.0 L233.3,834.0
		L234.6,834.0 L235.9,834.0 L237.2,834.0 L238.6,834.0 L239.9,834.0 L241.2,834.0 L242.5,834.0 L243.8,834.0
		L245.2,834.0 L246.5,834.0 L247.8,834.0 L249.1,834.0 L250.4,834.0 L251.7,834.0 L253.1,834.0 L254.4,834.0
		L255.7,834.0 L257.0,834.0 L258.3,834.0 L259.7,834.0 L261.0,834.0 L262.3,834.0 L263.6,834.0 L264.9,834.0
		L266.2,834.0 L267.6,834.0 L268.9,834.0 L270.2,834.0 L271.5,834.0 L272.8,834.0 L274.2,834.0 L275.5,834.0
		L276.8,834.0 L278.1,834.0 L279.4,834.0 L280.8,834.0 L282.1,834.0 L283.4,834.0 L284.7,834.0 L286.0,834.0
		L287.3,834.0 L288.7,834.0 L290.0,834.0 L291.3,834.0 L292.6,834.0 L293.9,834.0 L295.3,834.0 L296.6,834.0
		L297.9,834.0 L299.2,834.0 L300.5,834.0 L301.9,834.0 L303.2,834.0 L304.5,834.0 L305.8,834.0 L307.1,834.0
		L308.4,834.0 L309.8,834.0 L311.1,834.0 L312.4,834.0 L313.7,834.0 L315.0,834.0 L316.4,834.0 L317.7,834.0
		L319.0,834.0 L320.3,834.0 L321.6,834.0 L323.0,834.0 L324.3,834.0 L325.6,834.0 L326.9,834.0 L328.2,834.0
		L329.5,834.0 L330.9,834.0 L332.2,834.0 L333.5,834.0 L334.8,834.0 L336.1,834.0 L337.5,834.0 L338.8,834.0
		L340.1,834.0 L341.4,833.9 L342.7,833.9 L344.0,833.9 L345.4,833.9 L346.7,833.9 L348.0,833.9 L349.3,833.9
		L350.6,833.9 L352.0,833.9 L353.3,833.9 L354.6,833.9 L355.9,833.9 L357.2,833.9 L358.6,833.9 L359.9,833.9
		L361.2,833.9 L362.5,833.8 L363.8,833.8 L365.1,833.8 L366.5,833.8 L367.8,833.8 L369.1,833.8 L370.4,833.8
		L371.7,833.8 L373.1,833.7 L374.4,833.7 L375.7,833.7 L377.0,833.7 L378.3,833.7 L379.7,833.6 L381.0,833.6
		L382.3,833.6 L383.6,833.6 L384.9,833.5 L386.2,833.5 L387.6,833.5 L388.9,833.4 L390.2,833.4 L391.5,833.4
		L392.8,833.3 L394.2,833.3 L395.5,833.2 L396.8,833.2 L398.1,833.1 L399.4,833.1 L400.8,833.0 L402.1,833.0
		L403.4,832.9 L404.7,832.9 L406.0,832.8 L407.3,832.7 L408.7,832.6 L410.0,832.6 L411.3,832.5 L412.6,832.4
		L413.9,832.3 L415.3,832.2 L416.6,832.1 L417.9,832.0 L419.2,831.9 L420.5,831.8 L421.9,831.6 L423.2,831.5
		L424.5,831.4 L425.8,831.2 L427.1,831.1 L428.4,830.9 L429.8,830.7 L431.1,830.6 L432.4,830.4 L433.7,830.2
		L435.0,830.0 L436.4,829.8 L437.7,829.6 L439.0,829.3 L440.3,829.1 L441.6,828.8 L442.9,828.6 L444.3,828.3
		L445.6,828.0 L446.9,827.7 L448.2,827.4 L449.5,827.1 L450.9,826.7 L452.2,826.4 L453.5,826.0 L454.8,825.6
		L456.1,825.2 L457.5,824.8 L458.8,824.4 L460.1,823.9 L461.4,823.5 L462.7,823.0 L464.0,822.5 L465.4,821.9
		L466.7,821.4 L468.0,820.8 L469.3,820.2 L470.6,819.6 L472.0,819.0 L473.3,818.3 L474.6,817.6 L475.9,816.9
		L477.2,816.2 L478.6,815.4 L479.9,814.6 L481.2,813.8 L482.5,812.9 L483.8,812.1 L485.1,811.1 L486.5,810.2
		L487.8,809.2 L489.1,808.2 L490.4,807.2 L491.7,806.1 L493.1,805.0 L494.4,803.9 L495.7,802.7 L497.0,801.5
		L498.3,800.2 L499.7,798.9 L501.0,797.6 L502.3,796.2 L503.6,794.8 L504.9,793.3 L506.2,791.8 L507.6,790.3
		L508.9,788.7 L510.2,787.0 L511.5,785.4 L512.8,783.6 L514.2,781.9 L515.5,780.0 L516.8,778.2 L518.1,776.2
		L519.4,774.3 L520.7,772.2 L522.1,770.2 L523.4,768.0 L524.7,765.9 L526.0,763.6 L527.3,761.3 L528.7,759.0
		L530.0,756.6 L531.3,754.1 L532.6,751.6 L533.9,749.1 L535.3,746.4 L536.6,743.8 L537.9,741.0 L539.2,738.2
		L540.5,735.4 L541.8,732.4 L543.2,729.5 L544.5,726.4 L545.8,723.3 L547.1,720.2 L548.4,717.0 L549.8,713.7
		L551.1,710.3 L552.4,706.9 L553.7,703.5 L555.0,700.0 L556.4,696.4 L557.7,692.7 L559.0,689.0 L560.3,685.3
		L561.6,681.4 L562.9,677.6 L564.3,673.6 L565.6,669.6 L566.9,665.6 L568.2,661.4 L569.5,657.3 L570.9,653.0
		L572.2,648.7 L573.5,644.4 L574.8,640.0 L576.1,635.5 L577.5,631.0 L578.8,626.5 L580.1,621.8 L581.4,617.2
		L582.7,612.5 L584.0,607.7 L585.4,602.9 L586.7,598.0 L588.0,593.1 L589.3,588.1 L590.6,583.1 L592.0,578.1
		L593.3,573.0 L594.6,567.9 L595.9,562.7 L597.2,557.5 L598.5,552.3 L599.9,547.0 L601.2,541.7 L602.5,536.3
		L603.8,531.0 L605.1,525.6 L606.5,520.1 L607.8,514.7 L609.1,509.2 L610.4,503.7 L611.7,498.1 L613.1,492.6
		L614.4,487.0 L615.7,481.4 L617.0,475.8 L618.3,470.2 L619.6,464.6 L621.0,459.0 L622.3,453.3 L623.6,447.7
		L624.9,442.0 L626.2,436.4 L627.6,430.7 L628.9,425.1 L630.2,419.4 L631.5,413.8 L632.8,408.1 L634.2,402.5
		L635.5,396.9 L636.8,391.3 L638.1,385.7 L639.4,380.1 L640.7,374.5 L642.1,369.0 L643.4,363.4 L644.7,357.9
		L646.0,352.4 L647.3,347.0 L648.7,341.5 L650.0,336.1 L651.3,330.8 L652.6,325.4 L653.9,320.1 L655.3,314.8
		L656.6,309.6 L657.9,304.4 L659.2,299.2 L660.5,294.1 L661.8,289.0 L663.2,284.0 L664.5,279.0 L665.8,274.0
		L667.1,269.1 L668.4,264.2 L669.8,259.4 L671.1,254.6 L672.4,249.9 L673.7,245.3 L675.0,240.6 L676.3,236.1
		L677.7,231.6 L679.0,227.1 L680.3,222.7 L681.6,218.4 L682.9,214.1 L684.3,209.8 L685.6,205.7 L686.9,201.5
		L688.2,197.5 L689.5,193.5 L690.9,189.5 L692.2,185.7 L693.5,181.8 L694.8,178.1 L696.1,174.4 L697.4,170.7
		L698.8,167.1 L700.1,163.6 L701.4,160.2 L702.7,156.8 L704.0,153.4 L705.4,150.1 L706.7,146.9 L708.0,143.8
		L709.3,140.7 L710.6,137.6 L712.0,134.7 L713.3,131.7 L714.6,128.9 L715.9,126.1 L717.2,123.3 L718.5,120.7
		L719.9,118.0 L721.2,115.5 L722.5,113.0 L723.8,110.5 L725.1,108.1 L726.5,105.8 L727.8,103.5 L729.1,101.2
		L730.4,99.1 L731.7,96.9 L733.1,94.9 L734.4,92.8 L735.7,90.9 L737.0,88.9 L738.3,87.1 L739.6,85.2
		L741.0,83.5 L742.3,81.7 L743.6,80.1 L744.9,78.4 L746.2,76.8 L747.6,75.3 L748.9,73.8 L750.2,72.3
		L751.5,70.9 L752.8,69.5 L754.1,68.2 L755.5,66.9 L756.8,65.6 L758.1,64.4 L759.4,63.2 L760.7,62.1
		L762.1,61.0 L763.4,59.9 L764.7,58.9 L766.0,57.9 L767.3,56.9 L768.7,56.0 L770.0,55.0 L771.3,54.2
		L772.6,53.3 L773.9,52.5 L775.2,51.7 L776.6,50.9 L777.9,50.2 L779.2,49.5 L780.5,48.8 L781.8,48.1
		L783.2,47.5 L784.5,46.9 L785.8,46.3 L787.1,45.7 L788.4,45.2 L789.8,44.6 L791.1,44.1 L792.4,43.6
		L793.7,43.2 L795.0,42.7 L796.3,42.3 L797.7,41.9 L799.0,41.5 L800.3,41.1 L801.6,40.7 L802.9,40.4
		L804.3,40.0 L805.6,39.7 L806.9,39.4 L808.2,39.1 L809.5,38.8 L810.9,38.5 L812.2,38.3 L813.5,38.0
		L814.8,37.8 L816.1,37.5 L817.4,37.3 L818.8,37.1 L820.1,36.9 L821.4,36.7 L822.7,36.5 L824.0,36.4
		L825.4,36.2 L826.7,36.0 L828.0,35.9 L829.3,35.7 L830.6,35.6 L831.9,35.5 L833.3,35.3 L834.6,35.2
		L835.9,35.1 L837.2,35.0 L838.5,34.9 L839.9,34.8 L841.2,34.7 L842.5,34.6 L843.8,34.5 L845.1,34.5
		L846.5,34.4 L847.8,34.3 L849.1,34.2 L850.4,34.2 L851.7,34.1 L853.0,34.1 L854.4,34.0 L855.7,34.0
		L857.0,33.9 L858.3,33.9 L859.6,33.8 L861.0,33.8 L862.3,33.7 L863.6,33.7 L864.9,33.7 L866.2,33.6
		L867.6,33.6 L868.9,33.6 L870.2,33.5 L871.5,33.5 L872.8,33.5 L874.1,33.5 L875.5,33.4 L876.8,33.4
		L878.1,33.4 L879.4,33.4 L880.7,33.4 L882.1,33.3 L883.4,33.3 L884.7,33.3 L886.0,33.3 L887.3,33.3
		L888.7,33.3 L890.0,33.3 L891.3,33.3 L892.6,33.2 L893.9,33.2 L895.2,33.2 L896.6,33.2 L897.9,33.2
		L899.2,33.2 L900.5,33.2 L901.8,33.2 L903.2,33.2 L904.5,33.2 L905.8,33.2 L907.1,33.2 L908.4,33.2
		L909.8,33.2 L911.1,33.2 L912.4,33.2 L913.7,33.1 L915.0,33.1 L916.3,33.1 L917.7,33.1 L919.0,33.1
		L920.3,33.1 L921.6,33.1 L922.9,33.1 L924.3,33.1 L925.6,33.1 L926.9,33.1 L928.2,33.1 L929.5,33.1
		L930.8,33.1 L932.2,33.1 L933.5,33.1 L934.8,33.1 L936.1,33.1 L937.4,33.1 L938.8,33.1 L940.1,33.1
		L941.4,33.1 L942.7,33.1 L944.0,33.1 L945.4,33.1 L946.7,33.1 L948.0,33.1 L949.3,33.1 L950.6,33.1
		L951.9,33.1 L953.3,33.1 L954.6,33.1 L955.9,33.1 L957.2,33.1 L958.5,33.1 L959.9,33.1 L961.2,33.1
		L962.5,33.1 L963.8,33.1 L965.1,33.1 L966.5,33.1 L967.8,33.1 L969.1,33.1 L970.4,33.1 L971.7,33.1
		L973.0,33.1 L974.4,33.1 L975.7,33.1 L977.0,33.1 L978.3,33.1 L979.6,33.1 L981.0,33.1 L982.3,33.1
		L983.6,33.1 L984.9,33.1 L986.2,33.1 L987.6,33.1 L988.9,33.1 L990.2,33.1 L991.5,33.1 L992.8,33.1
		L994.1,33.1 L995.5,33.1 L996.8,33.1 L998.1,33.1 L999.4,33.1 L1000.7,33.1 L1002.1,33.1 L1003.4,33.1
		L1004.7,33.1 L1006.0,33.1 L1007.3,33.1 L1008.6,33.1 L1010.0,33.1 L1011.3,33.1 L1012.6,33.1 L1013.9,33.1
		L1015.2,33.1 L1016.6,33.1 L1017.9,33.1 L1019.2,33.1 L1020.5,33.1 L1021.8,33.1 L1023.2,33.1 L1024.5,33.1
		L1025.8,33.1 L1027.1,33.1 L1028.4,33.1 L1029.7,33.1 L1031.1,33.1 L1032.4,33.1 L1033.7,33.1 L1035.0,33.1
		L1036.3,33.1 L1037.7,33.1 L1039.0,33.1 L1040.3,33.1 L1041.6,33.1 L1042.9,33.1 L1044.3,33.1 L1045.6,33.1
		L1046.9,33.1 L1048.2,33.1 L1049.5,33.1 L1050.8,33.1 L1052.2,33.1 L1053.5,33.1 L1054.8,33.1 L1056.1,33.1
		L1057.4,33.1 L1058.8,33.1 L1060.1,33.1 L1061.4,33.1 L1062.7,33.1 L1064.0,33.1 L1065.4,33.1 L1066.7,33.1
		L1068.0,33.1 L1069.3,33.1 L1070.6,33.1 L1071.9,33.1 L1073.3,33.1 L1074.6,33.1 L1075.9,33.1 L1077.2,33.1
		L1078.5,33.1 L1079.9,33.1 L1081.2,33.1 L1082.5,33.1 L1083.8,33.1 L1085.1,33.1 L1086.4,33.1 L1087.8,33.1
		L1089.1,33.1 L1090.4,33.1 L1091.7,33.1 L1093.0,33.1 L1094.4,33.1 L1095.7,33.1 L1097.0,33.1 L1098.3,33.1
		L1099.6,33.1 L1101.0,33.1 L1102.3,33.1 L1103.6,33.1 L1104.9,33.1 L1106.2,33.1 L1107.5,33.1 L1108.9,33.1
		L1110.2,33.1 L1111.5,33.1 L1112.8,33.1 L1114.1,33.1 L1115.5,33.1 L1116.8,33.1 L1118.1,33.1 L1119.4,33.1
		L1120.7,33.1 L1122.1,33.1 L1123.4,33.1 L1124.7,33.1 L1126.0,33.1 L1127.3,33.1 L1128.6,33.1 L1130.0,33.1
		L1131.3,33.1 L1132.6,33.1 L1133.9,33.1 L1135.2,33.1 L1136.6,33.1 L1137.9,33.1 L1139.2,33.1 L1140.5,33.1
		L1141.8,33.1 L1143.2,33.1 L1144.5,33.1 L1145.8,33.1 L1147.1,33.1 L1148.4,33.1 L1149.7,33.1 L1151.1,33.1
		L1152.4,33.1 L1153.7,33.1  '/></g>
	</g>
	<g id="gnuplot_plot_3" ><title>uaerfc(x,4)</title>
<g fill="none" color="black" stroke="currentColor" stroke-width="1.00" stroke-linecap="butt" stroke-linejoin="miter">
	<g transform="translate(1029.4,139.3)" stroke="none" fill="black" font-family="Times New Roman" font-size="22.00"  text-anchor="end">
		<text>uaerfc(x,4)</text>
	</g>
</g>
<g fill="none" color="black" stroke="currentColor" stroke-width="1.00" stroke-linecap="butt" stroke-linejoin="miter">
	<path stroke='rgb( 86, 180, 233)'  d='M1044.8,132.1 L1122.9,132.1 M100.1,834.0 L101.4,834.0 L102.7,834.0 L104.1,834.0 L105.4,834.0 L106.7,834.0
		L108.0,834.0 L109.3,834.0 L110.6,834.0 L112.0,834.0 L113.3,834.0 L114.6,834.0 L115.9,834.0 L117.2,834.0
		L118.6,834.0 L119.9,834.0 L121.2,834.0 L122.5,834.0 L123.8,834.0 L125.2,834.0 L126.5,834.0 L127.8,834.0
		L129.1,834.0 L130.4,834.0 L131.7,834.0 L133.1,834.0 L134.4,834.0 L135.7,834.0 L137.0,834.0 L138.3,834.0
		L139.7,834.0 L141.0,834.0 L142.3,834.0 L143.6,834.0 L144.9,834.0 L146.3,834.0 L147.6,834.0 L148.9,834.0
		L150.2,834.0 L151.5,834.0 L152.8,834.0 L154.2,834.0 L155.5,834.0 L156.8,834.0 L158.1,834.0 L159.4,834.0
		L160.8,834.0 L162.1,834.0 L163.4,834.0 L164.7,834.0 L166.0,834.0 L167.4,834.0 L168.7,834.0 L170.0,834.0
		L171.3,834.0 L172.6,834.0 L173.9,834.0 L175.3,834.0 L176.6,834.0 L177.9,834.0 L179.2,834.0 L180.5,834.0
		L181.9,834.0 L183.2,834.0 L184.5,834.0 L185.8,834.0 L187.1,834.0 L188.4,834.0 L189.8,834.0 L191.1,834.0
		L192.4,834.0 L193.7,834.0 L195.0,834.0 L196.4,834.0 L197.7,834.0 L199.0,834.0 L200.3,834.0 L201.6,834.0
		L203.0,834.0 L204.3,834.0 L205.6,834.0 L206.9,834.0 L208.2,834.0 L209.5,834.0 L210.9,834.0 L212.2,834.0
		L213.5,834.0 L214.8,834.0 L216.1,834.0 L217.5,834.0 L218.8,834.0 L220.1,834.0 L221.4,834.0 L222.7,834.0
		L224.1,834.0 L225.4,834.0 L226.7,834.0 L228.0,834.0 L229.3,834.0 L230.6,834.0 L232.0,834.0 L233.3,834.0
		L234.6,834.0 L235.9,834.0 L237.2,834.0 L238.6,834.0 L239.9,834.0 L241.2,834.0 L242.5,834.0 L243.8,834.0
		L245.2,834.0 L246.5,834.0 L247.8,834.0 L249.1,834.0 L250.4,834.0 L251.7,834.0 L253.1,834.0 L254.4,834.0
		L255.7,834.0 L257.0,834.0 L258.3,834.0 L259.7,834.0 L261.0,834.0 L262.3,834.0 L263.6,834.0 L264.9,834.0
		L266.2,834.0 L267.6,834.0 L268.9,834.0 L270.2,833.9 L271.5,833.9 L272.8,833.9 L274.2,833.9 L275.5,833.9
		L276.8,833.9 L278.1,833.9 L279.4,833.9 L280.8,833.9 L282.1,833.9 L283.4,833.9 L284.7,833.9 L286.0,833.9
		L287.3,833.9 L288.7,833.9 L290.0,833.9 L291.3,833.9 L292.6,833.9 L293.9,833.9 L295.3,833.9 L296.6,833.8
		L297.9,833.8 L299.2,833.8 L300.5,833.8 L301.9,833.8 L303.2,833.8 L304.5,833.8 L305.8,833.8 L307.1,833.8
		L308.4,833.7 L309.8,833.7 L311.1,833.7 L312.4,833.7 L313.7,833.7 L315.0,833.7 L316.4,833.7 L317.7,833.6
		L319.0,833.6 L320.3,833.6 L321.6,833.6 L323.0,833.6 L324.3,833.5 L325.6,833.5 L326.9,833.5 L328.2,833.5
		L329.5,833.4 L330.9,833.4 L332.2,833.4 L333.5,833.3 L334.8,833.3 L336.1,833.3 L337.5,833.2 L338.8,833.2
		L340.1,833.2 L341.4,833.1 L342.7,833.1 L344.0,833.0 L345.4,833.0 L346.7,833.0 L348.0,832.9 L349.3,832.8
		L350.6,832.8 L352.0,832.7 L353.3,832.7 L354.6,832.6 L355.9,832.6 L357.2,832.5 L358.6,832.4 L359.9,832.3
		L361.2,832.3 L362.5,832.2 L363.8,832.1 L365.1,832.0 L366.5,831.9 L367.8,831.8 L369.1,831.7 L370.4,831.6
		L371.7,831.5 L373.1,831.4 L374.4,831.3 L375.7,831.2 L377.0,831.1 L378.3,831.0 L379.7,830.8 L381.0,830.7
		L382.3,830.5 L383.6,830.4 L384.9,830.2 L386.2,830.1 L387.6,829.9 L388.9,829.8 L390.2,829.6 L391.5,829.4
		L392.8,829.2 L394.2,829.0 L395.5,828.8 L396.8,828.6 L398.1,828.4 L399.4,828.2 L400.8,827.9 L402.1,827.7
		L403.4,827.4 L404.7,827.2 L406.0,826.9 L407.3,826.6 L408.7,826.3 L410.0,826.1 L411.3,825.7 L412.6,825.4
		L413.9,825.1 L415.3,824.8 L416.6,824.4 L417.9,824.1 L419.2,823.7 L420.5,823.3 L421.9,822.9 L423.2,822.5
		L424.5,822.1 L425.8,821.7 L427.1,821.2 L428.4,820.8 L429.8,820.3 L431.1,819.8 L432.4,819.3 L433.7,818.8
		L435.0,818.2 L436.4,817.7 L437.7,817.1 L439.0,816.5 L440.3,815.9 L441.6,815.3 L442.9,814.7 L444.3,814.0
		L445.6,813.4 L446.9,812.7 L448.2,812.0 L449.5,811.2 L450.9,810.5 L452.2,809.7 L453.5,808.9 L454.8,808.1
		L456.1,807.3 L457.5,806.4 L458.8,805.6 L460.1,804.7 L461.4,803.7 L462.7,802.8 L464.0,801.8 L465.4,800.8
		L466.7,799.8 L468.0,798.8 L469.3,797.7 L470.6,796.6 L472.0,795.5 L473.3,794.3 L474.6,793.2 L475.9,792.0
		L477.2,790.7 L478.6,789.5 L479.9,788.2 L481.2,786.9 L482.5,785.5 L483.8,784.2 L485.1,782.8 L486.5,781.3
		L487.8,779.9 L489.1,778.4 L490.4,776.8 L491.7,775.3 L493.1,773.7 L494.4,772.0 L495.7,770.4 L497.0,768.7
		L498.3,767.0 L499.7,765.2 L501.0,763.4 L502.3,761.6 L503.6,759.7 L504.9,757.8 L506.2,755.9 L507.6,753.9
		L508.9,751.9 L510.2,749.8 L511.5,747.8 L512.8,745.6 L514.2,743.5 L515.5,741.3 L516.8,739.1 L518.1,736.8
		L519.4,734.5 L520.7,732.1 L522.1,729.8 L523.4,727.3 L524.7,724.9 L526.0,722.4 L527.3,719.9 L528.7,717.3
		L530.0,714.7 L531.3,712.0 L532.6,709.3 L533.9,706.6 L535.3,703.8 L536.6,701.0 L537.9,698.2 L539.2,695.3
		L540.5,692.4 L541.8,689.4 L543.2,686.4 L544.5,683.4 L545.8,680.3 L547.1,677.2 L548.4,674.0 L549.8,670.8
		L551.1,667.6 L552.4,664.3 L553.7,661.0 L555.0,657.7 L556.4,654.3 L557.7,650.9 L559.0,647.4 L560.3,644.0
		L561.6,640.4 L562.9,636.9 L564.3,633.3 L565.6,629.7 L566.9,626.0 L568.2,622.3 L569.5,618.6 L570.9,614.8
		L572.2,611.0 L573.5,607.2 L574.8,603.4 L576.1,599.5 L577.5,595.6 L578.8,591.6 L580.1,587.6 L581.4,583.6
		L582.7,579.6 L584.0,575.6 L585.4,571.5 L586.7,567.4 L588.0,563.2 L589.3,559.1 L590.6,554.9 L592.0,550.7
		L593.3,546.5 L594.6,542.2 L595.9,537.9 L597.2,533.6 L598.5,529.3 L599.9,525.0 L601.2,520.7 L602.5,516.3
		L603.8,511.9 L605.1,507.5 L606.5,503.1 L607.8,498.7 L609.1,494.3 L610.4,489.8 L611.7,485.3 L613.1,480.9
		L614.4,476.4 L615.7,471.9 L617.0,467.4 L618.3,462.9 L619.6,458.4 L621.0,453.9 L622.3,449.4 L623.6,444.9
		L624.9,440.3 L626.2,435.8 L627.6,431.3 L628.9,426.8 L630.2,422.2 L631.5,417.7 L632.8,413.2 L634.2,408.7
		L635.5,404.2 L636.8,399.7 L638.1,395.2 L639.4,390.7 L640.7,386.2 L642.1,381.8 L643.4,377.3 L644.7,372.8
		L646.0,368.4 L647.3,364.0 L648.7,359.6 L650.0,355.2 L651.3,350.8 L652.6,346.4 L653.9,342.1 L655.3,337.8
		L656.6,333.5 L657.9,329.2 L659.2,324.9 L660.5,320.6 L661.8,316.4 L663.2,312.2 L664.5,308.0 L665.8,303.9
		L667.1,299.7 L668.4,295.6 L669.8,291.5 L671.1,287.5 L672.4,283.5 L673.7,279.5 L675.0,275.5 L676.3,271.5
		L677.7,267.6 L679.0,263.7 L680.3,259.9 L681.6,256.1 L682.9,252.3 L684.3,248.5 L685.6,244.8 L686.9,241.1
		L688.2,237.4 L689.5,233.8 L690.9,230.2 L692.2,226.7 L693.5,223.1 L694.8,219.7 L696.1,216.2 L697.4,212.8
		L698.8,209.4 L700.1,206.1 L701.4,202.8 L702.7,199.5 L704.0,196.3 L705.4,193.1 L706.7,189.9 L708.0,186.8
		L709.3,183.7 L710.6,180.7 L712.0,177.7 L713.3,174.7 L714.6,171.8 L715.9,168.9 L717.2,166.1 L718.5,163.3
		L719.9,160.5 L721.2,157.8 L722.5,155.1 L723.8,152.4 L725.1,149.8 L726.5,147.2 L727.8,144.7 L729.1,142.2
		L730.4,139.8 L731.7,137.3 L733.1,135.0 L734.4,132.6 L735.7,130.3 L737.0,128.0 L738.3,125.8 L739.6,123.6
		L741.0,121.5 L742.3,119.3 L743.6,117.3 L744.9,115.2 L746.2,113.2 L747.6,111.2 L748.9,109.3 L750.2,107.4
		L751.5,105.5 L752.8,103.7 L754.1,101.9 L755.5,100.1 L756.8,98.4 L758.1,96.7 L759.4,95.1 L760.7,93.4
		L762.1,91.8 L763.4,90.3 L764.7,88.7 L766.0,87.2 L767.3,85.8 L768.7,84.3 L770.0,82.9 L771.3,81.6
		L772.6,80.2 L773.9,78.9 L775.2,77.6 L776.6,76.4 L777.9,75.1 L779.2,73.9 L780.5,72.8 L781.8,71.6
		L783.2,70.5 L784.5,69.4 L785.8,68.3 L787.1,67.3 L788.4,66.3 L789.8,65.3 L791.1,64.3 L792.4,63.4
		L793.7,62.4 L795.0,61.5 L796.3,60.7 L797.7,59.8 L799.0,59.0 L800.3,58.2 L801.6,57.4 L802.9,56.6
		L804.3,55.9 L805.6,55.1 L806.9,54.4 L808.2,53.7 L809.5,53.1 L810.9,52.4 L812.2,51.8 L813.5,51.2
		L814.8,50.6 L816.1,50.0 L817.4,49.4 L818.8,48.9 L820.1,48.3 L821.4,47.8 L822.7,47.3 L824.0,46.8
		L825.4,46.3 L826.7,45.9 L828.0,45.4 L829.3,45.0 L830.6,44.6 L831.9,44.2 L833.3,43.8 L834.6,43.4
		L835.9,43.0 L837.2,42.7 L838.5,42.3 L839.9,42.0 L841.2,41.7 L842.5,41.4 L843.8,41.0 L845.1,40.8
		L846.5,40.5 L847.8,40.2 L849.1,39.9 L850.4,39.7 L851.7,39.4 L853.0,39.2 L854.4,38.9 L855.7,38.7
		L857.0,38.5 L858.3,38.3 L859.6,38.1 L861.0,37.9 L862.3,37.7 L863.6,37.5 L864.9,37.3 L866.2,37.2
		L867.6,37.0 L868.9,36.9 L870.2,36.7 L871.5,36.6 L872.8,36.4 L874.1,36.3 L875.5,36.1 L876.8,36.0
		L878.1,35.9 L879.4,35.8 L880.7,35.7 L882.1,35.6 L883.4,35.5 L884.7,35.4 L886.0,35.3 L887.3,35.2
		L888.7,35.1 L890.0,35.0 L891.3,34.9 L892.6,34.8 L893.9,34.8 L895.2,34.7 L896.6,34.6 L897.9,34.5
		L899.2,34.5 L900.5,34.4 L901.8,34.4 L903.2,34.3 L904.5,34.3 L905.8,34.2 L907.1,34.1 L908.4,34.1
		L909.8,34.1 L911.1,34.0 L912.4,34.0 L913.7,33.9 L915.0,33.9 L916.3,33.9 L917.7,33.8 L919.0,33.8
		L920.3,33.8 L921.6,33.7 L922.9,33.7 L924.3,33.7 L925.6,33.6 L926.9,33.6 L928.2,33.6 L929.5,33.6
		L930.8,33.5 L932.2,33.5 L933.5,33.5 L934.8,33.5 L936.1,33.5 L937.4,33.4 L938.8,33.4 L940.1,33.4
		L941.4,33.4 L942.7,33.4 L944.0,33.4 L945.4,33.4 L946.7,33.3 L948.0,33.3 L949.3,33.3 L950.6,33.3
		L951.9,33.3 L953.3,33.3 L954.6,33.3 L955.9,33.3 L957.2,33.3 L958.5,33.2 L959.9,33.2 L961.2,33.2
		L962.5,33.2 L963.8,33.2 L965.1,33.2 L966.5,33.2 L967.8,33.2 L969.1,33.2 L970.4,33.2 L971.7,33.2
		L973.0,33.2 L974.4,33.2 L975.7,33.2 L977.0,33.2 L978.3,33.2 L979.6,33.2 L981.0,33.2 L982.3,33.2
		L983.6,33.2 L984.9,33.1 L986.2,33.1 L987.6,33.1 L988.9,33.1 L990.2,33.1 L991.5,33.1 L992.8,33.1
		L994.1,33.1 L995.5,33.1 L996.8,33.1 L998.1,33.1 L999.4,33.1 L1000.7,33.1 L1002.1,33.1 L1003.4,33.1
		L1004.7,33.1 L1006.0,33.1 L1007.3,33.1 L1008.6,33.1 L1010.0,33.1 L1011.3,33.1 L1012.6,33.1 L1013.9,33.1
		L1015.2,33.1 L1016.6,33.1 L1017.9,33.1 L1019.2,33.1 L1020.5,33.1 L1021.8,33.1 L1023.2,33.1 L1024.5,33.1
		L1025.8,33.1 L1027.1,33.1 L1028.4,33.1 L1029.7,33.1 L1031.1,33.1 L1032.4,33.1 L1033.7,33.1 L1035.0,33.1
		L1036.3,33.1 L1037.7,33.1 L1039.0,33.1 L1040.3,33.1 L1041.6,33.1 L1042.9,33.1 L1044.3,33.1 L1045.6,33.1
		L1046.9,33.1 L1048.2,33.1 L1049.5,33.1 L1050.8,33.1 L1052.2,33.1 L1053.5,33.1 L1054.8,33.1 L1056.1,33.1
		L1057.4,33.1 L1058.8,33.1 L1060.1,33.1 L1061.4,33.1 L1062.7,33.1 L1064.0,33.1 L1065.4,33.1 L1066.7,33.1
		L1068.0,33.1 L1069.3,33.1 L1070.6,33.1 L1071.9,33.1 L1073.3,33.1 L1074.6,33.1 L1075.9,33.1 L1077.2,33.1
		L1078.5,33.1 L1079.9,33.1 L1081.2,33.1 L1082.5,33.1 L1083.8,33.1 L1085.1,33.1 L1086.4,33.1 L1087.8,33.1
		L1089.1,33.1 L1090.4,33.1 L1091.7,33.1 L1093.0,33.1 L1094.4,33.1 L1095.7,33.1 L1097.0,33.1 L1098.3,33.1
		L1099.6,33.1 L1101.0,33.1 L1102.3,33.1 L1103.6,33.1 L1104.9,33.1 L1106.2,33.1 L1107.5,33.1 L1108.9,33.1
		L1110.2,33.1 L1111.5,33.1 L1112.8,33.1 L1114.1,33.1 L1115.5,33.1 L1116.8,33.1 L1118.1,33.1 L1119.4,33.1
		L1120.7,33.1 L1122.1,33.1 L1123.4,33.1 L1124.7,33.1 L1126.0,33.1 L1127.3,33.1 L1128.6,33.1 L1130.0,33.1
		L1131.3,33.1 L1132.6,33.1 L1133.9,33.1 L1135.2,33.1 L1136.6,33.1 L1137.9,33.1 L1139.2,33.1 L1140.5,33.1
		L1141.8,33.1 L1143.2,33.1 L1144.5,33.1 L1145.8,33.1 L1147.1,33.1 L1148.4,33.1 L1149.7,33.1 L1151.1,33.1
		L1152.4,33.1 L1153.7,33.1  '/></g>
	</g>
	<g id="gnuplot_plot_4" ><title>uaerfc(x,3)</title>
<g fill="none" color="black" stroke="currentColor" stroke-width="1.00" stroke-linecap="butt" stroke-linejoin="miter">
	<g transform="translate(1029.4,172.3)" stroke="none" fill="black" font-family="Times New Roman" font-size="22.00"  text-anchor="end">
		<text>uaerfc(x,3)</text>
	</g>
</g>
<g fill="none" color="black" stroke="currentColor" stroke-width="1.00" stroke-linecap="butt" stroke-linejoin="miter">
	<path stroke='rgb(230, 159,   0)'  d='M1044.8,165.1 L1122.9,165.1 M100.1,834.0 L101.4,834.0 L102.7,834.0 L104.1,834.0 L105.4,834.0 L106.7,834.0
		L108.0,834.0 L109.3,834.0 L110.6,834.0 L112.0,834.0 L113.3,834.0 L114.6,834.0 L115.9,834.0 L117.2,834.0
		L118.6,834.0 L119.9,834.0 L121.2,834.0 L122.5,834.0 L123.8,834.0 L125.2,834.0 L126.5,834.0 L127.8,834.0
		L129.1,834.0 L130.4,834.0 L131.7,834.0 L133.1,834.0 L134.4,834.0 L135.7,834.0 L137.0,834.0 L138.3,834.0
		L139.7,834.0 L141.0,834.0 L142.3,834.0 L143.6,834.0 L144.9,834.0 L146.3,834.0 L147.6,834.0 L148.9,834.0
		L150.2,834.0 L151.5,834.0 L152.8,834.0 L154.2,834.0 L155.5,834.0 L156.8,833.9 L158.1,833.9 L159.4,833.9
		L160.8,833.9 L162.1,833.9 L163.4,833.9 L164.7,833.9 L166.0,833.9 L167.4,833.9 L168.7,833.9 L170.0,833.9
		L171.3,833.9 L172.6,833.9 L173.9,833.9 L175.3,833.9 L176.6,833.9 L177.9,833.9 L179.2,833.9 L180.5,833.9
		L181.9,833.9 L183.2,833.9 L184.5,833.9 L185.8,833.9 L187.1,833.8 L188.4,833.8 L189.8,833.8 L191.1,833.8
		L192.4,833.8 L193.7,833.8 L195.0,833.8 L196.4,833.8 L197.7,833.8 L199.0,833.8 L200.3,833.8 L201.6,833.8
		L203.0,833.8 L204.3,833.7 L205.6,833.7 L206.9,833.7 L208.2,833.7 L209.5,833.7 L210.9,833.7 L212.2,833.7
		L213.5,833.7 L214.8,833.6 L216.1,833.6 L217.5,833.6 L218.8,833.6 L220.1,833.6 L221.4,833.6 L222.7,833.6
		L224.1,833.5 L225.4,833.5 L226.7,833.5 L228.0,833.5 L229.3,833.5 L230.6,833.4 L232.0,833.4 L233.3,833.4
		L234.6,833.4 L235.9,833.4 L237.2,833.3 L238.6,833.3 L239.9,833.3 L241.2,833.3 L242.5,833.2 L243.8,833.2
		L245.2,833.2 L246.5,833.1 L247.8,833.1 L249.1,833.1 L250.4,833.0 L251.7,833.0 L253.1,833.0 L254.4,832.9
		L255.7,832.9 L257.0,832.9 L258.3,832.8 L259.7,832.8 L261.0,832.7 L262.3,832.7 L263.6,832.6 L264.9,832.6
		L266.2,832.5 L267.6,832.5 L268.9,832.4 L270.2,832.4 L271.5,832.3 L272.8,832.3 L274.2,832.2 L275.5,832.1
		L276.8,832.1 L278.1,832.0 L279.4,832.0 L280.8,831.9 L282.1,831.8 L283.4,831.7 L284.7,831.7 L286.0,831.6
		L287.3,831.5 L288.7,831.4 L290.0,831.3 L291.3,831.3 L292.6,831.2 L293.9,831.1 L295.3,831.0 L296.6,830.9
		L297.9,830.8 L299.2,830.7 L300.5,830.6 L301.9,830.5 L303.2,830.4 L304.5,830.2 L305.8,830.1 L307.1,830.0
		L308.4,829.9 L309.8,829.7 L311.1,829.6 L312.4,829.5 L313.7,829.3 L315.0,829.2 L316.4,829.0 L317.7,828.9
		L319.0,828.7 L320.3,828.6 L321.6,828.4 L323.0,828.3 L324.3,828.1 L325.6,827.9 L326.9,827.7 L328.2,827.5
		L329.5,827.3 L330.9,827.2 L332.2,827.0 L333.5,826.7 L334.8,826.5 L336.1,826.3 L337.5,826.1 L338.8,825.9
		L340.1,825.6 L341.4,825.4 L342.7,825.2 L344.0,824.9 L345.4,824.7 L346.7,824.4 L348.0,824.1 L349.3,823.8
		L350.6,823.6 L352.0,823.3 L353.3,823.0 L354.6,822.7 L355.9,822.4 L357.2,822.0 L358.6,821.7 L359.9,821.4
		L361.2,821.0 L362.5,820.7 L363.8,820.3 L365.1,820.0 L366.5,819.6 L367.8,819.2 L369.1,818.8 L370.4,818.4
		L371.7,818.0 L373.1,817.6 L374.4,817.2 L375.7,816.8 L377.0,816.3 L378.3,815.9 L379.7,815.4 L381.0,814.9
		L382.3,814.5 L383.6,814.0 L384.9,813.5 L386.2,812.9 L387.6,812.4 L388.9,811.9 L390.2,811.3 L391.5,810.8
		L392.8,810.2 L394.2,809.6 L395.5,809.0 L396.8,808.4 L398.1,807.8 L399.4,807.2 L400.8,806.6 L402.1,805.9
		L403.4,805.2 L404.7,804.6 L406.0,803.9 L407.3,803.2 L408.7,802.4 L410.0,801.7 L411.3,801.0 L412.6,800.2
		L413.9,799.4 L415.3,798.7 L416.6,797.9 L417.9,797.0 L419.2,796.2 L420.5,795.4 L421.9,794.5 L423.2,793.6
		L424.5,792.7 L425.8,791.8 L427.1,790.9 L428.4,790.0 L429.8,789.0 L431.1,788.0 L432.4,787.1 L433.7,786.1
		L435.0,785.0 L436.4,784.0 L437.7,782.9 L439.0,781.9 L440.3,780.8 L441.6,779.7 L442.9,778.6 L444.3,777.4
		L445.6,776.3 L446.9,775.1 L448.2,773.9 L449.5,772.7 L450.9,771.4 L452.2,770.2 L453.5,768.9 L454.8,767.6
		L456.1,766.3 L457.5,765.0 L458.8,763.6 L460.1,762.3 L461.4,760.9 L462.7,759.5 L464.0,758.1 L465.4,756.6
		L466.7,755.1 L468.0,753.7 L469.3,752.1 L470.6,750.6 L472.0,749.1 L473.3,747.5 L474.6,745.9 L475.9,744.3
		L477.2,742.7 L478.6,741.0 L479.9,739.4 L481.2,737.7 L482.5,735.9 L483.8,734.2 L485.1,732.5 L486.5,730.7
		L487.8,728.9 L489.1,727.0 L490.4,725.2 L491.7,723.3 L493.1,721.5 L494.4,719.5 L495.7,717.6 L497.0,715.7
		L498.3,713.7 L499.7,711.7 L501.0,709.7 L502.3,707.6 L503.6,705.6 L504.9,703.5 L506.2,701.4 L507.6,699.3
		L508.9,697.1 L510.2,694.9 L511.5,692.7 L512.8,690.5 L514.2,688.3 L515.5,686.0 L516.8,683.8 L518.1,681.5
		L519.4,679.1 L520.7,676.8 L522.1,674.4 L523.4,672.0 L524.7,669.6 L526.0,667.2 L527.3,664.7 L528.7,662.3
		L530.0,659.8 L531.3,657.3 L532.6,654.7 L533.9,652.2 L535.3,649.6 L536.6,647.0 L537.9,644.4 L539.2,641.8
		L540.5,639.1 L541.8,636.4 L543.2,633.7 L544.5,631.0 L545.8,628.3 L547.1,625.6 L548.4,622.8 L549.8,620.0
		L551.1,617.2 L552.4,614.4 L553.7,611.5 L555.0,608.7 L556.4,605.8 L557.7,602.9 L559.0,600.0 L560.3,597.0
		L561.6,594.1 L562.9,591.1 L564.3,588.1 L565.6,585.2 L566.9,582.1 L568.2,579.1 L569.5,576.1 L570.9,573.0
		L572.2,569.9 L573.5,566.9 L574.8,563.8 L576.1,560.6 L577.5,557.5 L578.8,554.4 L580.1,551.2 L581.4,548.1
		L582.7,544.9 L584.0,541.7 L585.4,538.5 L586.7,535.3 L588.0,532.0 L589.3,528.8 L590.6,525.6 L592.0,522.3
		L593.3,519.0 L594.6,515.8 L595.9,512.5 L597.2,509.2 L598.5,505.9 L599.9,502.6 L601.2,499.2 L602.5,495.9
		L603.8,492.6 L605.1,489.3 L606.5,485.9 L607.8,482.6 L609.1,479.2 L610.4,475.8 L611.7,472.5 L613.1,469.1
		L614.4,465.7 L615.7,462.4 L617.0,459.0 L618.3,455.6 L619.6,452.2 L621.0,448.8 L622.3,445.4 L623.6,442.0
		L624.9,438.6 L626.2,435.2 L627.6,431.9 L628.9,428.5 L630.2,425.1 L631.5,421.7 L632.8,418.3 L634.2,414.9
		L635.5,411.5 L636.8,408.1 L638.1,404.7 L639.4,401.4 L640.7,398.0 L642.1,394.6 L643.4,391.3 L644.7,387.9
		L646.0,384.5 L647.3,381.2 L648.7,377.8 L650.0,374.5 L651.3,371.2 L652.6,367.9 L653.9,364.5 L655.3,361.2
		L656.6,357.9 L657.9,354.6 L659.2,351.3 L660.5,348.1 L661.8,344.8 L663.2,341.5 L664.5,338.3 L665.8,335.1
		L667.1,331.8 L668.4,328.6 L669.8,325.4 L671.1,322.2 L672.4,319.0 L673.7,315.9 L675.0,312.7 L676.3,309.6
		L677.7,306.5 L679.0,303.3 L680.3,300.2 L681.6,297.2 L682.9,294.1 L684.3,291.0 L685.6,288.0 L686.9,285.0
		L688.2,281.9 L689.5,279.0 L690.9,276.0 L692.2,273.0 L693.5,270.1 L694.8,267.1 L696.1,264.2 L697.4,261.3
		L698.8,258.4 L700.1,255.6 L701.4,252.7 L702.7,249.9 L704.0,247.1 L705.4,244.3 L706.7,241.5 L708.0,238.8
		L709.3,236.1 L710.6,233.4 L712.0,230.7 L713.3,228.0 L714.6,225.3 L715.9,222.7 L717.2,220.1 L718.5,217.5
		L719.9,214.9 L721.2,212.4 L722.5,209.8 L723.8,207.3 L725.1,204.8 L726.5,202.4 L727.8,199.9 L729.1,197.5
		L730.4,195.1 L731.7,192.7 L733.1,190.3 L734.4,188.0 L735.7,185.6 L737.0,183.3 L738.3,181.1 L739.6,178.8
		L741.0,176.6 L742.3,174.4 L743.6,172.2 L744.9,170.0 L746.2,167.8 L747.6,165.7 L748.9,163.6 L750.2,161.5
		L751.5,159.5 L752.8,157.4 L754.1,155.4 L755.5,153.4 L756.8,151.4 L758.1,149.5 L759.4,147.6 L760.7,145.6
		L762.1,143.8 L763.4,141.9 L764.7,140.1 L766.0,138.2 L767.3,136.4 L768.7,134.6 L770.0,132.9 L771.3,131.2
		L772.6,129.4 L773.9,127.7 L775.2,126.1 L776.6,124.4 L777.9,122.8 L779.2,121.2 L780.5,119.6 L781.8,118.0
		L783.2,116.5 L784.5,115.0 L785.8,113.4 L787.1,112.0 L788.4,110.5 L789.8,109.0 L791.1,107.6 L792.4,106.2
		L793.7,104.8 L795.0,103.5 L796.3,102.1 L797.7,100.8 L799.0,99.5 L800.3,98.2 L801.6,96.9 L802.9,95.7
		L804.3,94.4 L805.6,93.2 L806.9,92.0 L808.2,90.8 L809.5,89.7 L810.9,88.5 L812.2,87.4 L813.5,86.3
		L814.8,85.2 L816.1,84.2 L817.4,83.1 L818.8,82.1 L820.1,81.0 L821.4,80.0 L822.7,79.1 L824.0,78.1
		L825.4,77.1 L826.7,76.2 L828.0,75.3 L829.3,74.4 L830.6,73.5 L831.9,72.6 L833.3,71.7 L834.6,70.9
		L835.9,70.1 L837.2,69.2 L838.5,68.4 L839.9,67.7 L841.2,66.9 L842.5,66.1 L843.8,65.4 L845.1,64.7
		L846.5,63.9 L847.8,63.2 L849.1,62.5 L850.4,61.9 L851.7,61.2 L853.0,60.5 L854.4,59.9 L855.7,59.3
		L857.0,58.7 L858.3,58.1 L859.6,57.5 L861.0,56.9 L862.3,56.3 L863.6,55.8 L864.9,55.2 L866.2,54.7
		L867.6,54.2 L868.9,53.6 L870.2,53.1 L871.5,52.6 L872.8,52.2 L874.1,51.7 L875.5,51.2 L876.8,50.8
		L878.1,50.3 L879.4,49.9 L880.7,49.5 L882.1,49.1 L883.4,48.7 L884.7,48.3 L886.0,47.9 L887.3,47.5
		L888.7,47.1 L890.0,46.8 L891.3,46.4 L892.6,46.1 L893.9,45.7 L895.2,45.4 L896.6,45.1 L897.9,44.7
		L899.2,44.4 L900.5,44.1 L901.8,43.8 L903.2,43.5 L904.5,43.3 L905.8,43.0 L907.1,42.7 L908.4,42.4
		L909.8,42.2 L911.1,41.9 L912.4,41.7 L913.7,41.5 L915.0,41.2 L916.3,41.0 L917.7,40.8 L919.0,40.6
		L920.3,40.4 L921.6,40.1 L922.9,39.9 L924.3,39.8 L925.6,39.6 L926.9,39.4 L928.2,39.2 L929.5,39.0
		L930.8,38.8 L932.2,38.7 L933.5,38.5 L934.8,38.4 L936.1,38.2 L937.4,38.1 L938.8,37.9 L940.1,37.8
		L941.4,37.6 L942.7,37.5 L944.0,37.4 L945.4,37.2 L946.7,37.1 L948.0,37.0 L949.3,36.9 L950.6,36.7
		L951.9,36.6 L953.3,36.5 L954.6,36.4 L955.9,36.3 L957.2,36.2 L958.5,36.1 L959.9,36.0 L961.2,35.9
		L962.5,35.8 L963.8,35.8 L965.1,35.7 L966.5,35.6 L967.8,35.5 L969.1,35.4 L970.4,35.4 L971.7,35.3
		L973.0,35.2 L974.4,35.1 L975.7,35.1 L977.0,35.0 L978.3,35.0 L979.6,34.9 L981.0,34.8 L982.3,34.8
		L983.6,34.7 L984.9,34.7 L986.2,34.6 L987.6,34.6 L988.9,34.5 L990.2,34.5 L991.5,34.4 L992.8,34.4
		L994.1,34.3 L995.5,34.3 L996.8,34.2 L998.1,34.2 L999.4,34.2 L1000.7,34.1 L1002.1,34.1 L1003.4,34.1
		L1004.7,34.0 L1006.0,34.0 L1007.3,34.0 L1008.6,33.9 L1010.0,33.9 L1011.3,33.9 L1012.6,33.8 L1013.9,33.8
		L1015.2,33.8 L1016.6,33.8 L1017.9,33.7 L1019.2,33.7 L1020.5,33.7 L1021.8,33.7 L1023.2,33.7 L1024.5,33.6
		L1025.8,33.6 L1027.1,33.6 L1028.4,33.6 L1029.7,33.6 L1031.1,33.5 L1032.4,33.5 L1033.7,33.5 L1035.0,33.5
		L1036.3,33.5 L1037.7,33.5 L1039.0,33.5 L1040.3,33.4 L1041.6,33.4 L1042.9,33.4 L1044.3,33.4 L1045.6,33.4
		L1046.9,33.4 L1048.2,33.4 L1049.5,33.4 L1050.8,33.3 L1052.2,33.3 L1053.5,33.3 L1054.8,33.3 L1056.1,33.3
		L1057.4,33.3 L1058.8,33.3 L1060.1,33.3 L1061.4,33.3 L1062.7,33.3 L1064.0,33.3 L1065.4,33.3 L1066.7,33.3
		L1068.0,33.2 L1069.3,33.2 L1070.6,33.2 L1071.9,33.2 L1073.3,33.2 L1074.6,33.2 L1075.9,33.2 L1077.2,33.2
		L1078.5,33.2 L1079.9,33.2 L1081.2,33.2 L1082.5,33.2 L1083.8,33.2 L1085.1,33.2 L1086.4,33.2 L1087.8,33.2
		L1089.1,33.2 L1090.4,33.2 L1091.7,33.2 L1093.0,33.2 L1094.4,33.2 L1095.7,33.2 L1097.0,33.2 L1098.3,33.1
		L1099.6,33.1 L1101.0,33.1 L1102.3,33.1 L1103.6,33.1 L1104.9,33.1 L1106.2,33.1 L1107.5,33.1 L1108.9,33.1
		L1110.2,33.1 L1111.5,33.1 L1112.8,33.1 L1114.1,33.1 L1115.5,33.1 L1116.8,33.1 L1118.1,33.1 L1119.4,33.1
		L1120.7,33.1 L1122.1,33.1 L1123.4,33.1 L1124.7,33.1 L1126.0,33.1 L1127.3,33.1 L1128.6,33.1 L1130.0,33.1
		L1131.3,33.1 L1132.6,33.1 L1133.9,33.1 L1135.2,33.1 L1136.6,33.1 L1137.9,33.1 L1139.2,33.1 L1140.5,33.1
		L1141.8,33.1 L1143.2,33.1 L1144.5,33.1 L1145.8,33.1 L1147.1,33.1 L1148.4,33.1 L1149.7,33.1 L1151.1,33.1
		L1152.4,33.1 L1153.7,33.1  '/></g>
	</g>
	<g id="gnuplot_plot_5" ><title>uaerfc(x,2.3)</title>
<g fill="none" color="black" stroke="currentColor" stroke-width="1.00" stroke-linecap="butt" stroke-linejoin="miter">
	<g transform="translate(1029.4,205.3)" stroke="none" fill="black" font-family="Times New Roman" font-size="22.00"  text-anchor="end">
		<text>uaerfc(x,2.3)</text>
	</g>
</g>
<g fill="none" color="black" stroke="currentColor" stroke-width="1.00" stroke-linecap="butt" stroke-linejoin="miter">
	<path stroke='rgb(240, 228,  66)'  d='M1044.8,198.1 L1122.9,198.1 M100.1,834.0 L101.4,834.0 L102.7,834.0 L104.1,834.0 L105.4,833.9 L106.7,833.9
		L108.0,833.9 L109.3,833.9 L110.6,833.9 L112.0,833.9 L113.3,833.8 L114.6,833.8 L115.9,833.8 L117.2,833.8
		L118.6,833.8 L119.9,833.8 L121.2,833.7 L122.5,833.7 L123.8,833.7 L125.2,833.7 L126.5,833.7 L127.8,833.6
		L129.1,833.6 L130.4,833.6 L131.7,833.6 L133.1,833.5 L134.4,833.5 L135.7,833.5 L137.0,833.5 L138.3,833.4
		L139.7,833.4 L141.0,833.4 L142.3,833.3 L143.6,833.3 L144.9,833.3 L146.3,833.3 L147.6,833.2 L148.9,833.2
		L150.2,833.2 L151.5,833.1 L152.8,833.1 L154.2,833.0 L155.5,833.0 L156.8,833.0 L158.1,832.9 L159.4,832.9
		L160.8,832.9 L162.1,832.8 L163.4,832.8 L164.7,832.7 L166.0,832.7 L167.4,832.6 L168.7,832.6 L170.0,832.5
		L171.3,832.5 L172.6,832.4 L173.9,832.4 L175.3,832.3 L176.6,832.3 L177.9,832.2 L179.2,832.2 L180.5,832.1
		L181.9,832.1 L183.2,832.0 L184.5,831.9 L185.8,831.9 L187.1,831.8 L188.4,831.7 L189.8,831.7 L191.1,831.6
		L192.4,831.5 L193.7,831.5 L195.0,831.4 L196.4,831.3 L197.7,831.2 L199.0,831.2 L200.3,831.1 L201.6,831.0
		L203.0,830.9 L204.3,830.8 L205.6,830.7 L206.9,830.6 L208.2,830.6 L209.5,830.5 L210.9,830.4 L212.2,830.3
		L213.5,830.2 L214.8,830.1 L216.1,830.0 L217.5,829.9 L218.8,829.8 L220.1,829.6 L221.4,829.5 L222.7,829.4
		L224.1,829.3 L225.4,829.2 L226.7,829.1 L228.0,828.9 L229.3,828.8 L230.6,828.7 L232.0,828.5 L233.3,828.4
		L234.6,828.3 L235.9,828.1 L237.2,828.0 L238.6,827.8 L239.9,827.7 L241.2,827.5 L242.5,827.4 L243.8,827.2
		L245.2,827.1 L246.5,826.9 L247.8,826.7 L249.1,826.6 L250.4,826.4 L251.7,826.2 L253.1,826.0 L254.4,825.9
		L255.7,825.7 L257.0,825.5 L258.3,825.3 L259.7,825.1 L261.0,824.9 L262.3,824.7 L263.6,824.5 L264.9,824.3
		L266.2,824.1 L267.6,823.8 L268.9,823.6 L270.2,823.4 L271.5,823.1 L272.8,822.9 L274.2,822.7 L275.5,822.4
		L276.8,822.2 L278.1,821.9 L279.4,821.7 L280.8,821.4 L282.1,821.1 L283.4,820.9 L284.7,820.6 L286.0,820.3
		L287.3,820.0 L288.7,819.7 L290.0,819.4 L291.3,819.1 L292.6,818.8 L293.9,818.5 L295.3,818.2 L296.6,817.9
		L297.9,817.5 L299.2,817.2 L300.5,816.9 L301.9,816.5 L303.2,816.2 L304.5,815.8 L305.8,815.4 L307.1,815.1
		L308.4,814.7 L309.8,814.3 L311.1,813.9 L312.4,813.5 L313.7,813.1 L315.0,812.7 L316.4,812.3 L317.7,811.9
		L319.0,811.5 L320.3,811.1 L321.6,810.6 L323.0,810.2 L324.3,809.7 L325.6,809.3 L326.9,808.8 L328.2,808.3
		L329.5,807.9 L330.9,807.4 L332.2,806.9 L333.5,806.4 L334.8,805.9 L336.1,805.3 L337.5,804.8 L338.8,804.3
		L340.1,803.8 L341.4,803.2 L342.7,802.7 L344.0,802.1 L345.4,801.5 L346.7,800.9 L348.0,800.4 L349.3,799.8
		L350.6,799.2 L352.0,798.5 L353.3,797.9 L354.6,797.3 L355.9,796.7 L357.2,796.0 L358.6,795.4 L359.9,794.7
		L361.2,794.0 L362.5,793.3 L363.8,792.6 L365.1,791.9 L366.5,791.2 L367.8,790.5 L369.1,789.8 L370.4,789.0
		L371.7,788.3 L373.1,787.5 L374.4,786.8 L375.7,786.0 L377.0,785.2 L378.3,784.4 L379.7,783.6 L381.0,782.8
		L382.3,782.0 L383.6,781.1 L384.9,780.3 L386.2,779.4 L387.6,778.5 L388.9,777.7 L390.2,776.8 L391.5,775.9
		L392.8,775.0 L394.2,774.0 L395.5,773.1 L396.8,772.2 L398.1,771.2 L399.4,770.2 L400.8,769.3 L402.1,768.3
		L403.4,767.3 L404.7,766.3 L406.0,765.2 L407.3,764.2 L408.7,763.2 L410.0,762.1 L411.3,761.0 L412.6,760.0
		L413.9,758.9 L415.3,757.8 L416.6,756.7 L417.9,755.5 L419.2,754.4 L420.5,753.2 L421.9,752.1 L423.2,750.9
		L424.5,749.7 L425.8,748.5 L427.1,747.3 L428.4,746.1 L429.8,744.8 L431.1,743.6 L432.4,742.3 L433.7,741.1
		L435.0,739.8 L436.4,738.5 L437.7,737.2 L439.0,735.9 L440.3,734.5 L441.6,733.2 L442.9,731.8 L444.3,730.4
		L445.6,729.1 L446.9,727.7 L448.2,726.2 L449.5,724.8 L450.9,723.4 L452.2,721.9 L453.5,720.5 L454.8,719.0
		L456.1,717.5 L457.5,716.0 L458.8,714.5 L460.1,713.0 L461.4,711.4 L462.7,709.9 L464.0,708.3 L465.4,706.7
		L466.7,705.1 L468.0,703.5 L469.3,701.9 L470.6,700.3 L472.0,698.7 L473.3,697.0 L474.6,695.3 L475.9,693.7
		L477.2,692.0 L478.6,690.3 L479.9,688.5 L481.2,686.8 L482.5,685.1 L483.8,683.3 L485.1,681.5 L486.5,679.8
		L487.8,678.0 L489.1,676.2 L490.4,674.3 L491.7,672.5 L493.1,670.7 L494.4,668.8 L495.7,666.9 L497.0,665.0
		L498.3,663.2 L499.7,661.2 L501.0,659.3 L502.3,657.4 L503.6,655.5 L504.9,653.5 L506.2,651.5 L507.6,649.6
		L508.9,647.6 L510.2,645.6 L511.5,643.5 L512.8,641.5 L514.2,639.5 L515.5,637.4 L516.8,635.4 L518.1,633.3
		L519.4,631.2 L520.7,629.1 L522.1,627.0 L523.4,624.9 L524.7,622.8 L526.0,620.6 L527.3,618.5 L528.7,616.3
		L530.0,614.1 L531.3,612.0 L532.6,609.8 L533.9,607.6 L535.3,605.3 L536.6,603.1 L537.9,600.9 L539.2,598.6
		L540.5,596.4 L541.8,594.1 L543.2,591.8 L544.5,589.6 L545.8,587.3 L547.1,585.0 L548.4,582.7 L549.8,580.3
		L551.1,578.0 L552.4,575.7 L553.7,573.3 L555.0,571.0 L556.4,568.6 L557.7,566.2 L559.0,563.8 L560.3,561.5
		L561.6,559.1 L562.9,556.7 L564.3,554.2 L565.6,551.8 L566.9,549.4 L568.2,547.0 L569.5,544.5 L570.9,542.1
		L572.2,539.6 L573.5,537.1 L574.8,534.7 L576.1,532.2 L577.5,529.7 L578.8,527.2 L580.1,524.7 L581.4,522.2
		L582.7,519.7 L584.0,517.2 L585.4,514.7 L586.7,512.2 L588.0,509.6 L589.3,507.1 L590.6,504.6 L592.0,502.0
		L593.3,499.5 L594.6,496.9 L595.9,494.4 L597.2,491.8 L598.5,489.3 L599.9,486.7 L601.2,484.1 L602.5,481.6
		L603.8,479.0 L605.1,476.4 L606.5,473.8 L607.8,471.2 L609.1,468.6 L610.4,466.0 L611.7,463.5 L613.1,460.9
		L614.4,458.3 L615.7,455.7 L617.0,453.1 L618.3,450.5 L619.6,447.9 L621.0,445.3 L622.3,442.7 L623.6,440.1
		L624.9,437.5 L626.2,434.9 L627.6,432.2 L628.9,429.6 L630.2,427.0 L631.5,424.4 L632.8,421.8 L634.2,419.2
		L635.5,416.6 L636.8,414.0 L638.1,411.4 L639.4,408.8 L640.7,406.2 L642.1,403.6 L643.4,401.1 L644.7,398.5
		L646.0,395.9 L647.3,393.3 L648.7,390.7 L650.0,388.1 L651.3,385.5 L652.6,383.0 L653.9,380.4 L655.3,377.8
		L656.6,375.3 L657.9,372.7 L659.2,370.2 L660.5,367.6 L661.8,365.1 L663.2,362.5 L664.5,360.0 L665.8,357.5
		L667.1,354.9 L668.4,352.4 L669.8,349.9 L671.1,347.4 L672.4,344.9 L673.7,342.4 L675.0,339.9 L676.3,337.4
		L677.7,334.9 L679.0,332.4 L680.3,330.0 L681.6,327.5 L682.9,325.0 L684.3,322.6 L685.6,320.1 L686.9,317.7
		L688.2,315.3 L689.5,312.9 L690.9,310.4 L692.2,308.0 L693.5,305.6 L694.8,303.3 L696.1,300.9 L697.4,298.5
		L698.8,296.1 L700.1,293.8 L701.4,291.4 L702.7,289.1 L704.0,286.8 L705.4,284.4 L706.7,282.1 L708.0,279.8
		L709.3,277.5 L710.6,275.3 L712.0,273.0 L713.3,270.7 L714.6,268.5 L715.9,266.2 L717.2,264.0 L718.5,261.8
		L719.9,259.5 L721.2,257.3 L722.5,255.1 L723.8,253.0 L725.1,250.8 L726.5,248.6 L727.8,246.5 L729.1,244.3
		L730.4,242.2 L731.7,240.1 L733.1,238.0 L734.4,235.9 L735.7,233.8 L737.0,231.7 L738.3,229.7 L739.6,227.6
		L741.0,225.6 L742.3,223.6 L743.6,221.5 L744.9,219.5 L746.2,217.5 L747.6,215.6 L748.9,213.6 L750.2,211.6
		L751.5,209.7 L752.8,207.8 L754.1,205.9 L755.5,203.9 L756.8,202.1 L758.1,200.2 L759.4,198.3 L760.7,196.4
		L762.1,194.6 L763.4,192.8 L764.7,190.9 L766.0,189.1 L767.3,187.3 L768.7,185.6 L770.0,183.8 L771.3,182.0
		L772.6,180.3 L773.9,178.6 L775.2,176.8 L776.6,175.1 L777.9,173.4 L779.2,171.8 L780.5,170.1 L781.8,168.4
		L783.2,166.8 L784.5,165.2 L785.8,163.6 L787.1,162.0 L788.4,160.4 L789.8,158.8 L791.1,157.2 L792.4,155.7
		L793.7,154.1 L795.0,152.6 L796.3,151.1 L797.7,149.6 L799.0,148.1 L800.3,146.6 L801.6,145.2 L802.9,143.7
		L804.3,142.3 L805.6,140.9 L806.9,139.4 L808.2,138.0 L809.5,136.7 L810.9,135.3 L812.2,133.9 L813.5,132.6
		L814.8,131.2 L816.1,129.9 L817.4,128.6 L818.8,127.3 L820.1,126.0 L821.4,124.8 L822.7,123.5 L824.0,122.3
		L825.4,121.0 L826.7,119.8 L828.0,118.6 L829.3,117.4 L830.6,116.2 L831.9,115.0 L833.3,113.9 L834.6,112.7
		L835.9,111.6 L837.2,110.4 L838.5,109.3 L839.9,108.2 L841.2,107.1 L842.5,106.1 L843.8,105.0 L845.1,103.9
		L846.5,102.9 L847.8,101.9 L849.1,100.8 L850.4,99.8 L851.7,98.8 L853.0,97.8 L854.4,96.9 L855.7,95.9
		L857.0,94.9 L858.3,94.0 L859.6,93.1 L861.0,92.1 L862.3,91.2 L863.6,90.3 L864.9,89.4 L866.2,88.6
		L867.6,87.7 L868.9,86.8 L870.2,86.0 L871.5,85.1 L872.8,84.3 L874.1,83.5 L875.5,82.7 L876.8,81.9
		L878.1,81.1 L879.4,80.3 L880.7,79.6 L882.1,78.8 L883.4,78.1 L884.7,77.3 L886.0,76.6 L887.3,75.9
		L888.7,75.2 L890.0,74.5 L891.3,73.8 L892.6,73.1 L893.9,72.4 L895.2,71.7 L896.6,71.1 L897.9,70.4
		L899.2,69.8 L900.5,69.2 L901.8,68.6 L903.2,67.9 L904.5,67.3 L905.8,66.7 L907.1,66.2 L908.4,65.6
		L909.8,65.0 L911.1,64.4 L912.4,63.9 L913.7,63.3 L915.0,62.8 L916.3,62.3 L917.7,61.8 L919.0,61.2
		L920.3,60.7 L921.6,60.2 L922.9,59.7 L924.3,59.2 L925.6,58.8 L926.9,58.3 L928.2,57.8 L929.5,57.4
		L930.8,56.9 L932.2,56.5 L933.5,56.0 L934.8,55.6 L936.1,55.2 L937.4,54.8 L938.8,54.4 L940.1,54.0
		L941.4,53.6 L942.7,53.2 L944.0,52.8 L945.4,52.4 L946.7,52.0 L948.0,51.7 L949.3,51.3 L950.6,50.9
		L951.9,50.6 L953.3,50.2 L954.6,49.9 L955.9,49.6 L957.2,49.2 L958.5,48.9 L959.9,48.6 L961.2,48.3
		L962.5,48.0 L963.8,47.7 L965.1,47.4 L966.5,47.1 L967.8,46.8 L969.1,46.5 L970.4,46.2 L971.7,46.0
		L973.0,45.7 L974.4,45.4 L975.7,45.2 L977.0,44.9 L978.3,44.7 L979.6,44.4 L981.0,44.2 L982.3,44.0
		L983.6,43.7 L984.9,43.5 L986.2,43.3 L987.6,43.0 L988.9,42.8 L990.2,42.6 L991.5,42.4 L992.8,42.2
		L994.1,42.0 L995.5,41.8 L996.8,41.6 L998.1,41.4 L999.4,41.2 L1000.7,41.1 L1002.1,40.9 L1003.4,40.7
		L1004.7,40.5 L1006.0,40.4 L1007.3,40.2 L1008.6,40.0 L1010.0,39.9 L1011.3,39.7 L1012.6,39.6 L1013.9,39.4
		L1015.2,39.3 L1016.6,39.1 L1017.9,39.0 L1019.2,38.8 L1020.5,38.7 L1021.8,38.6 L1023.2,38.4 L1024.5,38.3
		L1025.8,38.2 L1027.1,38.0 L1028.4,37.9 L1029.7,37.8 L1031.1,37.7 L1032.4,37.6 L1033.7,37.5 L1035.0,37.3
		L1036.3,37.2 L1037.7,37.1 L1039.0,37.0 L1040.3,36.9 L1041.6,36.8 L1042.9,36.7 L1044.3,36.6 L1045.6,36.5
		L1046.9,36.5 L1048.2,36.4 L1049.5,36.3 L1050.8,36.2 L1052.2,36.1 L1053.5,36.0 L1054.8,35.9 L1056.1,35.9
		L1057.4,35.8 L1058.8,35.7 L1060.1,35.6 L1061.4,35.6 L1062.7,35.5 L1064.0,35.4 L1065.4,35.4 L1066.7,35.3
		L1068.0,35.2 L1069.3,35.2 L1070.6,35.1 L1071.9,35.0 L1073.3,35.0 L1074.6,34.9 L1075.9,34.9 L1077.2,34.8
		L1078.5,34.8 L1079.9,34.7 L1081.2,34.7 L1082.5,34.6 L1083.8,34.6 L1085.1,34.5 L1086.4,34.5 L1087.8,34.4
		L1089.1,34.4 L1090.4,34.3 L1091.7,34.3 L1093.0,34.2 L1094.4,34.2 L1095.7,34.2 L1097.0,34.1 L1098.3,34.1
		L1099.6,34.1 L1101.0,34.0 L1102.3,34.0 L1103.6,33.9 L1104.9,33.9 L1106.2,33.9 L1107.5,33.8 L1108.9,33.8
		L1110.2,33.8 L1111.5,33.8 L1112.8,33.7 L1114.1,33.7 L1115.5,33.7 L1116.8,33.6 L1118.1,33.6 L1119.4,33.6
		L1120.7,33.6 L1122.1,33.5 L1123.4,33.5 L1124.7,33.5 L1126.0,33.5 L1127.3,33.4 L1128.6,33.4 L1130.0,33.4
		L1131.3,33.4 L1132.6,33.4 L1133.9,33.3 L1135.2,33.3 L1136.6,33.3 L1137.9,33.3 L1139.2,33.3 L1140.5,33.3
		L1141.8,33.2 L1143.2,33.2 L1144.5,33.2 L1145.8,33.2 L1147.1,33.2 L1148.4,33.2 L1149.7,33.1 L1151.1,33.1
		L1152.4,33.1 L1153.7,33.1  '/></g>
	</g>
	<g id="gnuplot_plot_6" ><title>uaerfc(x,2.0)</title>
<g fill="none" color="black" stroke="currentColor" stroke-width="1.00" stroke-linecap="butt" stroke-linejoin="miter">
	<g transform="translate(1029.4,238.3)" stroke="none" fill="black" font-family="Times New Roman" font-size="22.00"  text-anchor="end">
		<text>uaerfc(x,2.0)</text>
	</g>
</g>
<g fill="none" color="black" stroke="currentColor" stroke-width="1.00" stroke-linecap="butt" stroke-linejoin="miter">
	<path stroke='rgb(  0, 114, 178)'  d='M1044.8,231.1 L1122.9,231.1 M100.1,834.0 L101.4,833.9 L102.7,833.9 L104.1,833.9 L105.4,833.8 L106.7,833.8
		L108.0,833.7 L109.3,833.7 L110.6,833.6 L112.0,833.6 L113.3,833.5 L114.6,833.5 L115.9,833.4 L117.2,833.4
		L118.6,833.3 L119.9,833.3 L121.2,833.2 L122.5,833.2 L123.8,833.1 L125.2,833.0 L126.5,833.0 L127.8,832.9
		L129.1,832.8 L130.4,832.8 L131.7,832.7 L133.1,832.6 L134.4,832.6 L135.7,832.5 L137.0,832.4 L138.3,832.4
		L139.7,832.3 L141.0,832.2 L142.3,832.1 L143.6,832.1 L144.9,832.0 L146.3,831.9 L147.6,831.8 L148.9,831.7
		L150.2,831.7 L151.5,831.6 L152.8,831.5 L154.2,831.4 L155.5,831.3 L156.8,831.2 L158.1,831.1 L159.4,831.0
		L160.8,830.9 L162.1,830.8 L163.4,830.7 L164.7,830.6 L166.0,830.5 L167.4,830.4 L168.7,830.3 L170.0,830.2
		L171.3,830.1 L172.6,829.9 L173.9,829.8 L175.3,829.7 L176.6,829.6 L177.9,829.5 L179.2,829.3 L180.5,829.2
		L181.9,829.1 L183.2,829.0 L184.5,828.8 L185.8,828.7 L187.1,828.5 L188.4,828.4 L189.8,828.3 L191.1,828.1
		L192.4,828.0 L193.7,827.8 L195.0,827.7 L196.4,827.5 L197.7,827.3 L199.0,827.2 L200.3,827.0 L201.6,826.9
		L203.0,826.7 L204.3,826.5 L205.6,826.3 L206.9,826.2 L208.2,826.0 L209.5,825.8 L210.9,825.6 L212.2,825.4
		L213.5,825.2 L214.8,825.0 L216.1,824.8 L217.5,824.6 L218.8,824.4 L220.1,824.2 L221.4,824.0 L222.7,823.8
		L224.1,823.6 L225.4,823.4 L226.7,823.1 L228.0,822.9 L229.3,822.7 L230.6,822.4 L232.0,822.2 L233.3,822.0
		L234.6,821.7 L235.9,821.5 L237.2,821.2 L238.6,821.0 L239.9,820.7 L241.2,820.4 L242.5,820.2 L243.8,819.9
		L245.2,819.6 L246.5,819.3 L247.8,819.1 L249.1,818.8 L250.4,818.5 L251.7,818.2 L253.1,817.9 L254.4,817.6
		L255.7,817.3 L257.0,816.9 L258.3,816.6 L259.7,816.3 L261.0,816.0 L262.3,815.6 L263.6,815.3 L264.9,815.0
		L266.2,814.6 L267.6,814.3 L268.9,813.9 L270.2,813.6 L271.5,813.2 L272.8,812.8 L274.2,812.4 L275.5,812.1
		L276.8,811.7 L278.1,811.3 L279.4,810.9 L280.8,810.5 L282.1,810.1 L283.4,809.7 L284.7,809.2 L286.0,808.8
		L287.3,808.4 L288.7,808.0 L290.0,807.5 L291.3,807.1 L292.6,806.6 L293.9,806.2 L295.3,805.7 L296.6,805.2
		L297.9,804.8 L299.2,804.3 L300.5,803.8 L301.9,803.3 L303.2,802.8 L304.5,802.3 L305.8,801.8 L307.1,801.3
		L308.4,800.7 L309.8,800.2 L311.1,799.7 L312.4,799.1 L313.7,798.6 L315.0,798.0 L316.4,797.5 L317.7,796.9
		L319.0,796.3 L320.3,795.7 L321.6,795.2 L323.0,794.6 L324.3,794.0 L325.6,793.3 L326.9,792.7 L328.2,792.1
		L329.5,791.5 L330.9,790.8 L332.2,790.2 L333.5,789.5 L334.8,788.9 L336.1,788.2 L337.5,787.5 L338.8,786.8
		L340.1,786.2 L341.4,785.5 L342.7,784.7 L344.0,784.0 L345.4,783.3 L346.7,782.6 L348.0,781.8 L349.3,781.1
		L350.6,780.3 L352.0,779.6 L353.3,778.8 L354.6,778.0 L355.9,777.3 L357.2,776.5 L358.6,775.7 L359.9,774.9
		L361.2,774.0 L362.5,773.2 L363.8,772.4 L365.1,771.5 L366.5,770.7 L367.8,769.8 L369.1,769.0 L370.4,768.1
		L371.7,767.2 L373.1,766.3 L374.4,765.4 L375.7,764.5 L377.0,763.6 L378.3,762.6 L379.7,761.7 L381.0,760.8
		L382.3,759.8 L383.6,758.8 L384.9,757.9 L386.2,756.9 L387.6,755.9 L388.9,754.9 L390.2,753.9 L391.5,752.9
		L392.8,751.8 L394.2,750.8 L395.5,749.8 L396.8,748.7 L398.1,747.6 L399.4,746.6 L400.8,745.5 L402.1,744.4
		L403.4,743.3 L404.7,742.2 L406.0,741.1 L407.3,739.9 L408.7,738.8 L410.0,737.6 L411.3,736.5 L412.6,735.3
		L413.9,734.1 L415.3,733.0 L416.6,731.8 L417.9,730.5 L419.2,729.3 L420.5,728.1 L421.9,726.9 L423.2,725.6
		L424.5,724.4 L425.8,723.1 L427.1,721.8 L428.4,720.6 L429.8,719.3 L431.1,718.0 L432.4,716.6 L433.7,715.3
		L435.0,714.0 L436.4,712.6 L437.7,711.3 L439.0,709.9 L440.3,708.6 L441.6,707.2 L442.9,705.8 L444.3,704.4
		L445.6,703.0 L446.9,701.6 L448.2,700.1 L449.5,698.7 L450.9,697.2 L452.2,695.8 L453.5,694.3 L454.8,692.8
		L456.1,691.4 L457.5,689.9 L458.8,688.3 L460.1,686.8 L461.4,685.3 L462.7,683.8 L464.0,682.2 L465.4,680.7
		L466.7,679.1 L468.0,677.5 L469.3,675.9 L470.6,674.3 L472.0,672.7 L473.3,671.1 L474.6,669.5 L475.9,667.9
		L477.2,666.2 L478.6,664.6 L479.9,662.9 L481.2,661.3 L482.5,659.6 L483.8,657.9 L485.1,656.2 L486.5,654.5
		L487.8,652.8 L489.1,651.0 L490.4,649.3 L491.7,647.6 L493.1,645.8 L494.4,644.1 L495.7,642.3 L497.0,640.5
		L498.3,638.7 L499.7,636.9 L501.0,635.1 L502.3,633.3 L503.6,631.5 L504.9,629.7 L506.2,627.8 L507.6,626.0
		L508.9,624.1 L510.2,622.3 L511.5,620.4 L512.8,618.5 L514.2,616.6 L515.5,614.7 L516.8,612.8 L518.1,610.9
		L519.4,609.0 L520.7,607.1 L522.1,605.1 L523.4,603.2 L524.7,601.2 L526.0,599.3 L527.3,597.3 L528.7,595.3
		L530.0,593.4 L531.3,591.4 L532.6,589.4 L533.9,587.4 L535.3,585.4 L536.6,583.3 L537.9,581.3 L539.2,579.3
		L540.5,577.2 L541.8,575.2 L543.2,573.1 L544.5,571.1 L545.8,569.0 L547.1,567.0 L548.4,564.9 L549.8,562.8
		L551.1,560.7 L552.4,558.6 L553.7,556.5 L555.0,554.4 L556.4,552.3 L557.7,550.2 L559.0,548.1 L560.3,545.9
		L561.6,543.8 L562.9,541.6 L564.3,539.5 L565.6,537.4 L566.9,535.2 L568.2,533.0 L569.5,530.9 L570.9,528.7
		L572.2,526.5 L573.5,524.3 L574.8,522.2 L576.1,520.0 L577.5,517.8 L578.8,515.6 L580.1,513.4 L581.4,511.2
		L582.7,509.0 L584.0,506.8 L585.4,504.6 L586.7,502.3 L588.0,500.1 L589.3,497.9 L590.6,495.7 L592.0,493.4
		L593.3,491.2 L594.6,489.0 L595.9,486.7 L597.2,484.5 L598.5,482.2 L599.9,480.0 L601.2,477.7 L602.5,475.5
		L603.8,473.2 L605.1,471.0 L606.5,468.7 L607.8,466.4 L609.1,464.2 L610.4,461.9 L611.7,459.7 L613.1,457.4
		L614.4,455.1 L615.7,452.9 L617.0,450.6 L618.3,448.3 L619.6,446.0 L621.0,443.8 L622.3,441.5 L623.6,439.2
		L624.9,437.0 L626.2,434.7 L627.6,432.4 L628.9,430.1 L630.2,427.9 L631.5,425.6 L632.8,423.3 L634.2,421.1
		L635.5,418.8 L636.8,416.5 L638.1,414.2 L639.4,412.0 L640.7,409.7 L642.1,407.4 L643.4,405.2 L644.7,402.9
		L646.0,400.7 L647.3,398.4 L648.7,396.1 L650.0,393.9 L651.3,391.6 L652.6,389.4 L653.9,387.1 L655.3,384.9
		L656.6,382.6 L657.9,380.4 L659.2,378.1 L660.5,375.9 L661.8,373.7 L663.2,371.4 L664.5,369.2 L665.8,367.0
		L667.1,364.8 L668.4,362.5 L669.8,360.3 L671.1,358.1 L672.4,355.9 L673.7,353.7 L675.0,351.5 L676.3,349.3
		L677.7,347.1 L679.0,344.9 L680.3,342.8 L681.6,340.6 L682.9,338.4 L684.3,336.2 L685.6,334.1 L686.9,331.9
		L688.2,329.7 L689.5,327.6 L690.9,325.5 L692.2,323.3 L693.5,321.2 L694.8,319.0 L696.1,316.9 L697.4,314.8
		L698.8,312.7 L700.1,310.6 L701.4,308.5 L702.7,306.4 L704.0,304.3 L705.4,302.2 L706.7,300.1 L708.0,298.1
		L709.3,296.0 L710.6,294.0 L712.0,291.9 L713.3,289.9 L714.6,287.8 L715.9,285.8 L717.2,283.8 L718.5,281.7
		L719.9,279.7 L721.2,277.7 L722.5,275.7 L723.8,273.7 L725.1,271.8 L726.5,269.8 L727.8,267.8 L729.1,265.9
		L730.4,263.9 L731.7,262.0 L733.1,260.0 L734.4,258.1 L735.7,256.2 L737.0,254.3 L738.3,252.4 L739.6,250.5
		L741.0,248.6 L742.3,246.7 L743.6,244.8 L744.9,243.0 L746.2,241.1 L747.6,239.3 L748.9,237.4 L750.2,235.6
		L751.5,233.8 L752.8,232.0 L754.1,230.2 L755.5,228.4 L756.8,226.6 L758.1,224.8 L759.4,223.0 L760.7,221.3
		L762.1,219.5 L763.4,217.8 L764.7,216.1 L766.0,214.3 L767.3,212.6 L768.7,210.9 L770.0,209.2 L771.3,207.5
		L772.6,205.8 L773.9,204.2 L775.2,202.5 L776.6,200.9 L777.9,199.2 L779.2,197.6 L780.5,196.0 L781.8,194.4
		L783.2,192.8 L784.5,191.2 L785.8,189.6 L787.1,188.0 L788.4,186.4 L789.8,184.9 L791.1,183.3 L792.4,181.8
		L793.7,180.3 L795.0,178.8 L796.3,177.2 L797.7,175.7 L799.0,174.3 L800.3,172.8 L801.6,171.3 L802.9,169.9
		L804.3,168.4 L805.6,167.0 L806.9,165.5 L808.2,164.1 L809.5,162.7 L810.9,161.3 L812.2,159.9 L813.5,158.5
		L814.8,157.2 L816.1,155.8 L817.4,154.5 L818.8,153.1 L820.1,151.8 L821.4,150.5 L822.7,149.1 L824.0,147.8
		L825.4,146.5 L826.7,145.3 L828.0,144.0 L829.3,142.7 L830.6,141.5 L831.9,140.2 L833.3,139.0 L834.6,137.8
		L835.9,136.6 L837.2,135.3 L838.5,134.1 L839.9,133.0 L841.2,131.8 L842.5,130.6 L843.8,129.5 L845.1,128.3
		L846.5,127.2 L847.8,126.0 L849.1,124.9 L850.4,123.8 L851.7,122.7 L853.0,121.6 L854.4,120.5 L855.7,119.5
		L857.0,118.4 L858.3,117.3 L859.6,116.3 L861.0,115.3 L862.3,114.2 L863.6,113.2 L864.9,112.2 L866.2,111.2
		L867.6,110.2 L868.9,109.2 L870.2,108.3 L871.5,107.3 L872.8,106.3 L874.1,105.4 L875.5,104.5 L876.8,103.5
		L878.1,102.6 L879.4,101.7 L880.7,100.8 L882.1,99.9 L883.4,99.0 L884.7,98.1 L886.0,97.3 L887.3,96.4
		L888.7,95.6 L890.0,94.7 L891.3,93.9 L892.6,93.1 L893.9,92.2 L895.2,91.4 L896.6,90.6 L897.9,89.8
		L899.2,89.1 L900.5,88.3 L901.8,87.5 L903.2,86.8 L904.5,86.0 L905.8,85.3 L907.1,84.5 L908.4,83.8
		L909.8,83.1 L911.1,82.4 L912.4,81.6 L913.7,80.9 L915.0,80.3 L916.3,79.6 L917.7,78.9 L919.0,78.2
		L920.3,77.6 L921.6,76.9 L922.9,76.3 L924.3,75.6 L925.6,75.0 L926.9,74.4 L928.2,73.8 L929.5,73.1
		L930.8,72.5 L932.2,71.9 L933.5,71.4 L934.8,70.8 L936.1,70.2 L937.4,69.6 L938.8,69.1 L940.1,68.5
		L941.4,68.0 L942.7,67.4 L944.0,66.9 L945.4,66.4 L946.7,65.8 L948.0,65.3 L949.3,64.8 L950.6,64.3
		L951.9,63.8 L953.3,63.3 L954.6,62.8 L955.9,62.3 L957.2,61.9 L958.5,61.4 L959.9,60.9 L961.2,60.5
		L962.5,60.0 L963.8,59.6 L965.1,59.1 L966.5,58.7 L967.8,58.3 L969.1,57.9 L970.4,57.4 L971.7,57.0
		L973.0,56.6 L974.4,56.2 L975.7,55.8 L977.0,55.4 L978.3,55.0 L979.6,54.7 L981.0,54.3 L982.3,53.9
		L983.6,53.5 L984.9,53.2 L986.2,52.8 L987.6,52.5 L988.9,52.1 L990.2,51.8 L991.5,51.5 L992.8,51.1
		L994.1,50.8 L995.5,50.5 L996.8,50.2 L998.1,49.8 L999.4,49.5 L1000.7,49.2 L1002.1,48.9 L1003.4,48.6
		L1004.7,48.3 L1006.0,48.0 L1007.3,47.8 L1008.6,47.5 L1010.0,47.2 L1011.3,46.9 L1012.6,46.7 L1013.9,46.4
		L1015.2,46.1 L1016.6,45.9 L1017.9,45.6 L1019.2,45.4 L1020.5,45.1 L1021.8,44.9 L1023.2,44.7 L1024.5,44.4
		L1025.8,44.2 L1027.1,44.0 L1028.4,43.7 L1029.7,43.5 L1031.1,43.3 L1032.4,43.1 L1033.7,42.9 L1035.0,42.7
		L1036.3,42.5 L1037.7,42.3 L1039.0,42.1 L1040.3,41.9 L1041.6,41.7 L1042.9,41.5 L1044.3,41.3 L1045.6,41.1
		L1046.9,40.9 L1048.2,40.8 L1049.5,40.6 L1050.8,40.4 L1052.2,40.2 L1053.5,40.1 L1054.8,39.9 L1056.1,39.8
		L1057.4,39.6 L1058.8,39.4 L1060.1,39.3 L1061.4,39.1 L1062.7,39.0 L1064.0,38.8 L1065.4,38.7 L1066.7,38.6
		L1068.0,38.4 L1069.3,38.3 L1070.6,38.1 L1071.9,38.0 L1073.3,37.9 L1074.6,37.8 L1075.9,37.6 L1077.2,37.5
		L1078.5,37.4 L1079.9,37.3 L1081.2,37.2 L1082.5,37.0 L1083.8,36.9 L1085.1,36.8 L1086.4,36.7 L1087.8,36.6
		L1089.1,36.5 L1090.4,36.4 L1091.7,36.3 L1093.0,36.2 L1094.4,36.1 L1095.7,36.0 L1097.0,35.9 L1098.3,35.8
		L1099.6,35.7 L1101.0,35.6 L1102.3,35.5 L1103.6,35.4 L1104.9,35.4 L1106.2,35.3 L1107.5,35.2 L1108.9,35.1
		L1110.2,35.0 L1111.5,35.0 L1112.8,34.9 L1114.1,34.8 L1115.5,34.7 L1116.8,34.7 L1118.1,34.6 L1119.4,34.5
		L1120.7,34.5 L1122.1,34.4 L1123.4,34.3 L1124.7,34.3 L1126.0,34.2 L1127.3,34.1 L1128.6,34.1 L1130.0,34.0
		L1131.3,33.9 L1132.6,33.9 L1133.9,33.8 L1135.2,33.8 L1136.6,33.7 L1137.9,33.7 L1139.2,33.6 L1140.5,33.6
		L1141.8,33.5 L1143.2,33.5 L1144.5,33.4 L1145.8,33.4 L1147.1,33.3 L1148.4,33.3 L1149.7,33.2 L1151.1,33.2
		L1152.4,33.2 L1153.7,33.1  '/></g>
	</g>
<g fill="none" color="white" stroke="rgb(  0, 114, 178)" stroke-width="2.00" stroke-linecap="butt" stroke-linejoin="miter">
</g>
<g fill="none" color="black" stroke="currentColor" stroke-width="2.00" stroke-linecap="butt" stroke-linejoin="miter">
</g>
<g fill="none" color="black" stroke="black" stroke-width="1.00" stroke-linecap="butt" stroke-linejoin="miter">
</g>
<g fill="none" color="black" stroke="currentColor" stroke-width="1.00" stroke-linecap="butt" stroke-linejoin="miter">
	<path stroke='black'  d='M100.1,33.1 L100.1,834.0 L1153.7,834.0 L1153.7,33.1 L100.1,33.1 Z  '/></g>
<g fill="none" color="black" stroke="currentColor" stroke-width="1.00" stroke-linecap="butt" stroke-linejoin="miter">
</g>
</g>
</svg>

